<?xml version="1.0" encoding="UTF-8" standalone="no"?>
<!-- Created with Inkscape (http://www.inkscape.org/) -->

<svg
   xmlns:dc="http://purl.org/dc/elements/1.1/"
   xmlns:cc="http://creativecommons.org/ns#"
   xmlns:rdf="http://www.w3.org/1999/02/22-rdf-syntax-ns#"
   xmlns:svg="http://www.w3.org/2000/svg"
   xmlns="http://www.w3.org/2000/svg"
   xmlns:sodipodi="http://sodipodi.sourceforge.net/DTD/sodipodi-0.dtd"
   xmlns:inkscape="http://www.inkscape.org/namespaces/inkscape"
   width="632.9422"
   height="484.375"
   id="svg2"
   version="1.1"
   inkscape:version="0.48.2 r9819"
   sodipodi:docname="New document 1">
  <defs
     id="defs4">
    <marker
       inkscape:stockid="Arrow1Mend"
       orient="auto"
       refY="0"
       refX="0"
       id="Arrow1Mend"
       style="overflow:visible">
      <path
         id="path4527"
         d="M 0,0 5,-5 -12.5,0 5,5 0,0 z"
         style="fill-rule:evenodd;stroke:#000000;stroke-width:1pt;marker-start:none"
         transform="matrix(-0.4,0,0,-0.4,-4,0)"
         inkscape:connector-curvature="0" />
    </marker>
    <marker
       inkscape:stockid="Arrow1Mstart"
       orient="auto"
       refY="0"
       refX="0"
       id="Arrow1Mstart"
       style="overflow:visible">
      <path
         id="path4524"
         d="M 0,0 5,-5 -12.5,0 5,5 0,0 z"
         style="fill-rule:evenodd;stroke:#000000;stroke-width:1pt;marker-start:none"
         transform="matrix(0.4,0,0,0.4,4,0)"
         inkscape:connector-curvature="0" />
    </marker>
  </defs>
  <sodipodi:namedview
     id="base"
     pagecolor="#ffffff"
     bordercolor="#666666"
     borderopacity="1.0"
     inkscape:pageopacity="0.0"
     inkscape:pageshadow="2"
     inkscape:zoom="1.4"
     inkscape:cx="180.09311"
     inkscape:cy="259.80287"
     inkscape:document-units="px"
     inkscape:current-layer="g3149"
     showgrid="true"
     inkscape:window-width="1920"
     inkscape:window-height="1018"
     inkscape:window-x="-8"
     inkscape:window-y="-8"
     inkscape:window-maximized="1"
     fit-margin-top="10"
     fit-margin-left="10"
     fit-margin-right="10"
     fit-margin-bottom="10">
    <inkscape:grid
       type="xygrid"
       id="grid3203"
       empspacing="5"
       visible="true"
       enabled="true"
       snapvisiblegridlinesonly="true" />
  </sodipodi:namedview>
  <metadata
     id="metadata7">
    <rdf:RDF>
      <cc:Work
         rdf:about="">
        <dc:format>image/svg+xml</dc:format>
        <dc:type
           rdf:resource="http://purl.org/dc/dcmitype/StillImage" />
        <dc:title></dc:title>
      </cc:Work>
    </rdf:RDF>
  </metadata>
  <g
     inkscape:label="Layer 1"
     inkscape:groupmode="layer"
     id="layer1"
     transform="translate(-81.374184,-277.98718)">
    <g
       id="g3149">
      <path
         inkscape:connector-curvature="0"
         d="m 126.96063,708.54593 496.06499,0 0,17.715 -496.065,0 0,-17.715 z"
         style="fill:#c8d6e6;fill-opacity:1;fill-rule:evenodd;stroke:#000000;stroke-width:0.29999998;stroke-linecap:round;stroke-linejoin:round;stroke-miterlimit:10;stroke-opacity:1;stroke-dasharray:none"
         id="path2997" />
      <path
         inkscape:connector-curvature="0"
         d="m 194.28937,690.83093 155.89876,0 0,17.715 -155.89876,0 0,-17.715 z"
         style="fill:#c00000;fill-opacity:1;fill-rule:evenodd;stroke:#000000;stroke-width:0.29999998;stroke-linecap:round;stroke-linejoin:round;stroke-miterlimit:10;stroke-opacity:1;stroke-dasharray:none"
         id="path2999" />
      <path
         inkscape:connector-curvature="0"
         d="m 180.11437,673.12093 177.15875,0 0,17.715 -177.15875,0 0,-17.715 z"
         style="fill:#000000;fill-opacity:1;fill-rule:evenodd;stroke:#000000;stroke-width:0.29999998;stroke-linecap:round;stroke-linejoin:round;stroke-miterlimit:10;stroke-opacity:1;stroke-dasharray:none"
         id="path3001" />
      <path
         inkscape:connector-curvature="0"
         d="m 417.51188,673.12093 150.58624,0 0,17.715 -150.58624,0 0,-17.715 z"
         style="fill:#d9d9d9;fill-opacity:1;fill-rule:evenodd;stroke:#000000;stroke-width:0.29999998;stroke-linecap:round;stroke-linejoin:round;stroke-miterlimit:10;stroke-opacity:1;stroke-dasharray:none"
         id="path3003" />
      <path
         inkscape:connector-curvature="0"
         d="m 426.37437,690.83593 c 0,9.785 29.75126,17.71 66.43626,17.71 36.68874,0 66.44,-7.925 66.44,-17.71 l -132.87626,0 z"
         style="fill:#d9d9d9;fill-opacity:1;fill-rule:evenodd;stroke:#000000;stroke-width:0.29999998;stroke-linecap:round;stroke-linejoin:round;stroke-miterlimit:10;stroke-opacity:1;stroke-dasharray:none"
         id="path3005" />
      <path
         inkscape:connector-curvature="0"
         d="m 126.96063,673.11593 53.15374,0 0,35.43 -53.15374,0 0,-35.43 z"
         style="fill:#404040;fill-opacity:1;fill-rule:evenodd;stroke:#000000;stroke-width:0.29999998;stroke-linecap:round;stroke-linejoin:round;stroke-miterlimit:10;stroke-opacity:1;stroke-dasharray:none"
         id="path3013" />
      <path
         inkscape:connector-curvature="0"
         d="m 357.27312,673.11593 60.23876,0 0,35.43 -60.23875,0 0,-35.43 z"
         style="fill:#404040;fill-opacity:1;fill-rule:evenodd;stroke:#000000;stroke-width:0.29999998;stroke-linecap:round;stroke-linejoin:round;stroke-miterlimit:10;stroke-opacity:1;stroke-dasharray:none"
         id="path3015" />
      <path
         inkscape:connector-curvature="0"
         d="m 568.28937,673.11593 54.74125,0 0,35.43 -54.74125,0 0,-35.43 z"
         style="fill:#404040;fill-opacity:1;fill-rule:evenodd;stroke:#000000;stroke-width:0.29999998;stroke-linecap:round;stroke-linejoin:round;stroke-miterlimit:10;stroke-opacity:1;stroke-dasharray:none"
         id="path3017" />
      <path
         inkscape:connector-curvature="0"
         d="m 126.96063,655.39718 496.06499,0 0,17.715 -496.065,0 0,-17.715 z"
         style="fill:#c8d6e6;fill-opacity:1;fill-rule:evenodd;stroke:#000000;stroke-width:0.29999998;stroke-linecap:round;stroke-linejoin:round;stroke-miterlimit:10;stroke-opacity:1;stroke-dasharray:none"
         id="path3019" />
      <path
         inkscape:connector-curvature="0"
         d="m 91.535625,637.68218 566.928755,0 0,17.715 -566.928755,0 0,-17.715 z"
         style="fill:#facca7;fill-opacity:1;fill-rule:evenodd;stroke:#000000;stroke-width:0.29999998;stroke-linecap:round;stroke-linejoin:round;stroke-miterlimit:10;stroke-opacity:1;stroke-dasharray:none"
         id="path3021" />
      <text
         id="text3023"
         x="390"
         y="752.36218"
         style="font-size:15px">
        <tspan
           style="font-size:20px;font-variant:normal;font-weight:normal;writing-mode:lr-tb;fill:#000000;fill-opacity:1;fill-rule:nonzero;stroke:none;font-family:Arial;-inkscape-font-specification:ArialMT"
           sodipodi:role="line"
           x="390"
           y="752.36218"
           id="tspan5273">~4mm</tspan>
      </text>
      <text
         id="text3027"
         x="366.35001"
         y="687.22345"
         style="font-size:15px">
        <tspan
           style="font-size:15.00030041px;font-variant:normal;font-weight:normal;writing-mode:lr-tb;fill:#ffffff;fill-opacity:1;fill-rule:nonzero;stroke:none;font-family:Arial;-inkscape-font-specification:ArialMT"
           x="366.35001 375.09518 383.43536 395.9306"
           y="687.22345"
           sodipodi:role="line"
           id="tspan3029">~2mm</tspan>
        <tspan
           style="font-size:15.00030041px;font-variant:normal;font-weight:normal;writing-mode:lr-tb;fill:#ffffff;fill-opacity:1;fill-rule:nonzero;stroke:none;font-family:Arial;-inkscape-font-specification:ArialMT"
           x="370.72504 374.8801 383.22028 391.56042"
           y="705.22345"
           sodipodi:role="line"
           id="tspan3031">foam</tspan>
      </text>
      <text
         id="text3033"
         x="315.68753"
         y="651.03595"
         style="font-size:15px">
        <tspan
           style="font-size:15.00030041px;font-variant:normal;font-weight:normal;writing-mode:lr-tb;fill:#000000;fill-opacity:1;fill-rule:nonzero;stroke:none;font-family:Arial;-inkscape-font-specification:ArialMT"
           x="315.68753 328.18277 331.51285 339.013 344.00809 352.34827 360.68845 369.02859 374.02371 382.36386 390.70404 398.20419 402.35925 406.51434 414.85452 423.19467"
           y="651.03595"
           sodipodi:role="line"
           id="tspan3035">microporous tape</tspan>
      </text>
      <text
         id="text3037"
         x="231.57503"
         y="686.47345"
         style="font-size:15px">
        <tspan
           style="font-size:15.00030041px;font-variant:normal;font-weight:normal;writing-mode:lr-tb;fill:#ffffff;fill-opacity:1;fill-rule:nonzero;stroke:none;font-family:Arial;-inkscape-font-specification:ArialMT"
           x="231.57503 239.91519 248.25536 256.59552 260.75061 269.09076 277.43094 280.76102 289.10117 297.44135"
           y="686.47345"
           sodipodi:role="line"
           id="tspan3039">photodiode</tspan>
      </text>
      <text
         id="text3041"
         x="479.11252"
         y="686.47345"
         style="font-size:15px">
        <tspan
           style="font-size:15.00030041px;font-variant:normal;font-weight:normal;writing-mode:lr-tb;fill:#000000;fill-opacity:1;fill-rule:nonzero;stroke:none;font-family:Arial;-inkscape-font-specification:ArialMT"
           x="479.11252 487.4527 497.4429"
           y="686.47345"
           sodipodi:role="line"
           id="tspan3043">LED</tspan>
        <tspan
           style="font-size:15.00030041px;font-variant:normal;font-weight:normal;writing-mode:lr-tb;fill:#000000;fill-opacity:1;fill-rule:nonzero;stroke:none;font-family:Arial;-inkscape-font-specification:ArialMT"
           x="298.70001 307.04019 311.19528 319.53543 327.87561 340.37088 352.86612 357.02118 365.36136 373.70154 377.03159 384.53174 392.87192 400.37207 404.52713 412.86731 417.8624 422.01749 426.17258 434.51276 442.85291"
           y="721.91095"
           sodipodi:role="line"
           id="tspan3045">0.21mm polyester tape</tspan>
      </text>
      <path
         inkscape:connector-curvature="0"
         d="m 180.11437,673.12093 17.715,0 0,17.715 -17.715,0 0,-17.715 z"
         style="fill:#ffc000;fill-opacity:1;fill-rule:evenodd;stroke:#000000;stroke-width:0.29999998;stroke-linecap:round;stroke-linejoin:round;stroke-miterlimit:10;stroke-opacity:1;stroke-dasharray:none"
         id="path3047" />
      <path
         inkscape:connector-curvature="0"
         d="m 339.56313,673.12093 17.71499,0 0,17.715 -17.71499,0 0,-17.715 z"
         style="fill:#ffc000;fill-opacity:1;fill-rule:evenodd;stroke:#000000;stroke-width:0.29999998;stroke-linecap:round;stroke-linejoin:round;stroke-miterlimit:10;stroke-opacity:1;stroke-dasharray:none"
         id="path3049" />
      <text
         id="text3051"
         x="298.70001"
         y="668.76093"
         style="font-size:15px">
        <tspan
           style="font-size:15.00030041px;font-variant:normal;font-weight:normal;writing-mode:lr-tb;fill:#000000;fill-opacity:1;fill-rule:nonzero;stroke:none;font-family:Arial;-inkscape-font-specification:ArialMT"
           x="298.70001 307.04019 311.19528 319.53543 327.87561 340.37085 352.86609 357.02118 365.36136 373.70151 377.03159 384.53174 392.87192 400.37204 404.52713 412.86731 417.8624 422.01749 426.17258 434.51273 442.85291"
           y="668.76093"
           sodipodi:role="line"
           id="tspan3053">0.21mm polyester tape</tspan>
      </text>
      <path
         inkscape:connector-curvature="0"
         d="m 122.37062,316.38843 506.69,0 0,311.81125 -506.69,0 0,-311.81125 z"
         style="fill:#c8d6e6;fill-opacity:1;fill-rule:evenodd;stroke:#000000;stroke-width:0.29999998;stroke-linecap:round;stroke-linejoin:round;stroke-miterlimit:10;stroke-opacity:1;stroke-dasharray:none"
         id="path3055" />
      <path
         inkscape:connector-curvature="0"
         d="m 127.85938,321.71468 47.65624,0 0,301.1725 -47.65624,0 0,-301.1725 z"
         style="fill:#8c8c8c;fill-opacity:1;fill-rule:evenodd;stroke:#8c8c8c;stroke-width:0.29999998;stroke-linecap:round;stroke-linejoin:round;stroke-miterlimit:10;stroke-opacity:1;stroke-dasharray:none"
         id="path3057" />
      <path
         inkscape:connector-curvature="0"
         d="m 363.30813,321.71468 51.3775,0 0,301.1725 -51.3775,0 0,-301.1725 z"
         style="fill:#8c8c8c;fill-opacity:1;fill-rule:evenodd;stroke:#8c8c8c;stroke-width:0.29999998;stroke-linecap:round;stroke-linejoin:round;stroke-miterlimit:10;stroke-opacity:1;stroke-dasharray:none"
         id="path3059" />
      <path
         inkscape:connector-curvature="0"
         d="m 574.13312,321.71468 49.60501,0 0,301.1725 -49.605,0 0,-301.1725 z"
         style="fill:#8c8c8c;fill-opacity:1;fill-rule:evenodd;stroke:#8c8c8c;stroke-width:0.29999998;stroke-linecap:round;stroke-linejoin:round;stroke-miterlimit:10;stroke-opacity:1;stroke-dasharray:none"
         id="path3061" />
      <path
         inkscape:connector-curvature="0"
         d="m 175.52062,321.70593 400.4,0 0,40.7475 -400.4,0 0,-40.7475 z"
         style="fill:#8c8c8c;fill-opacity:1;fill-rule:evenodd;stroke:#8c8c8c;stroke-width:0.29999998;stroke-linecap:round;stroke-linejoin:round;stroke-miterlimit:10;stroke-opacity:1;stroke-dasharray:none"
         id="path3063" />
      <path
         inkscape:connector-curvature="0"
         d="m 171.97062,596.31468 402.16251,0 0,26.5725 -402.1625,0 0,-26.5725 z"
         style="fill:#8c8c8c;fill-opacity:1;fill-rule:evenodd;stroke:#8c8c8c;stroke-width:0.29999998;stroke-linecap:round;stroke-linejoin:round;stroke-miterlimit:10;stroke-opacity:1;stroke-dasharray:none"
         id="path3065" />
      <path
         inkscape:connector-curvature="0"
         d="m 127.68312,511.27593 235.62501,0 0,85.03875 -235.62501,0 0,-85.03875 z"
         style="fill:#8c8c8c;fill-opacity:1;fill-rule:evenodd;stroke:#8c8c8c;stroke-width:0.29999998;stroke-linecap:round;stroke-linejoin:round;stroke-miterlimit:10;stroke-opacity:1;stroke-dasharray:none"
         id="path3067" />
      <path
         inkscape:connector-curvature="0"
         d="m 340.45687,365.98718 17.72,0 0,141.73875 -17.72,0 0,-141.73875 z"
         style="fill:#ffc000;fill-opacity:1;fill-rule:evenodd;stroke:#000000;stroke-width:0.29999998;stroke-linecap:round;stroke-linejoin:round;stroke-miterlimit:10;stroke-opacity:1;stroke-dasharray:none"
         id="path3069" />
      <path
         inkscape:connector-curvature="0"
         d="m 181.00812,365.98718 17.715,0 0,141.73875 -17.715,0 0,-141.73875 z"
         style="fill:#ffc000;fill-opacity:1;fill-rule:evenodd;stroke:#000000;stroke-width:0.29999998;stroke-linecap:round;stroke-linejoin:round;stroke-miterlimit:10;stroke-opacity:1;stroke-dasharray:none"
         id="path3071" />
      <path
         inkscape:connector-curvature="0"
         d="m 195.18312,365.98718 155.89875,0 0,141.73875 -155.89875,0 0,-141.73875 z"
         style="fill:#c00000;fill-opacity:1;fill-rule:evenodd;stroke:#000000;stroke-width:0.29999998;stroke-linecap:round;stroke-linejoin:round;stroke-miterlimit:10;stroke-opacity:1;stroke-dasharray:none"
         id="path3073" />
      <path
         inkscape:connector-curvature="0"
         d="m 242.83438,388.13593 97.44124,0 0,97.44125 -97.44124,0 0,-97.44125 z"
         style="fill:#772f28;fill-opacity:1;fill-rule:evenodd;stroke:#000000;stroke-width:0.29999998;stroke-linecap:round;stroke-linejoin:round;stroke-miterlimit:10;stroke-opacity:1;stroke-dasharray:none"
         id="path3075" />
      <path
         inkscape:connector-curvature="0"
         d="m 418.40562,366.00218 150.59126,0 0,225 -150.59126,0 0,-225 z"
         style="fill:#ffffff;fill-opacity:1;fill-rule:evenodd;stroke:#000000;stroke-width:0.29999998;stroke-linecap:round;stroke-linejoin:round;stroke-miterlimit:10;stroke-opacity:1;stroke-dasharray:none"
         id="path3077" />
      <path
         inkscape:connector-curvature="0"
         d="m 418.75812,423.57593 c 0,-22.0125 33.71,-39.86375 75.30251,-39.86375 41.58625,0 75.29749,17.85125 75.29749,39.86375 0,22.01125 -33.71124,39.8625 -75.29749,39.8625 -41.59251,0 -75.30251,-17.85125 -75.30251,-39.8625 z"
         style="fill:#e8eef7;fill-opacity:1;fill-rule:evenodd;stroke:#000000;stroke-width:0.29999998;stroke-linecap:round;stroke-linejoin:round;stroke-miterlimit:10;stroke-opacity:1;stroke-dasharray:none"
         id="path3079" />
      <path
         inkscape:connector-curvature="0"
         d="m 529.49437,516.58343 26.5775,0 0,70.86875 -26.5775,0 0,-70.86875 z"
         style="fill:#bfbfbf;fill-opacity:1;fill-rule:evenodd;stroke:#000000;stroke-width:0.29999998;stroke-linecap:round;stroke-linejoin:round;stroke-miterlimit:10;stroke-opacity:1;stroke-dasharray:none"
         id="path3081" />
      <path
         inkscape:connector-curvature="0"
         d="m 432.04313,516.58343 26.5775,0 0,70.86875 -26.5775,0 0,-70.86875 z"
         style="fill:#bfbfbf;fill-opacity:1;fill-rule:evenodd;stroke:#000000;stroke-width:0.29999998;stroke-linecap:round;stroke-linejoin:round;stroke-miterlimit:10;stroke-opacity:1;stroke-dasharray:none"
         id="path3083" />
      <text
         id="text3085"
         x="455.21991"
         y="418.72339"
         style="font-size:15px">
        <tspan
           style="font-size:16px;font-variant:normal;font-weight:normal;writing-mode:lr-tb;fill:#000000;fill-opacity:1;fill-rule:nonzero;stroke:none;font-family:Calibri;-inkscape-font-specification:Calibri"
           x="455.21991 465.05991 473.4599 481.1239 484.7879 488.41992 497.09192 505.04391 513.44391 519.63593 523.65192"
           y="418.72339"
           sodipodi:role="line"
           id="tspan3087">Dual Red/IR</tspan>
        <tspan
           style="font-size:16px;font-variant:normal;font-weight:normal;writing-mode:lr-tb;fill:#000000;fill-opacity:1;fill-rule:nonzero;stroke:none;font-family:Calibri;-inkscape-font-specification:Calibri"
           x="469.51678 477.3248 490.0928 493.7728 499.13278 504.4928 512.44476"
           y="438.72339"
           sodipodi:role="line"
           id="tspan3089">Emitter</tspan>
      </text>
      <text
         id="text3091"
         x="228.21017"
         y="381.14709"
         style="font-size:15px">
        <tspan
           style="font-size:16px;font-variant:normal;font-weight:normal;writing-mode:lr-tb;fill:#ffffff;fill-opacity:1;fill-rule:nonzero;stroke:none;font-family:Calibri;-inkscape-font-specification:Calibri"
           x="228.21017 236.48216 244.88217 253.31416 258.67416 267.10617 275.50616 279.18616 287.61816 296.01816"
           y="381.14709"
           sodipodi:role="line"
           id="tspan3093">Photodiode</tspan>
        <tspan
           style="font-size:16px;font-variant:normal;font-weight:normal;writing-mode:lr-tb;fill:#ffffff;fill-opacity:1;fill-rule:nonzero;stroke:none;font-family:Calibri;-inkscape-font-specification:Calibri"
           x="254.63873 263.88672 270.63873 275.99872 279.67874 286.89471 294.84674 298.47873 307.71072 313.29474 321.26273"
           y="440.43277"
           sodipodi:role="line"
           id="tspan3095">Active Area</tspan>
      </text>
      <path
         style="fill:none;stroke:#000000;stroke-width:1px;stroke-linecap:butt;stroke-linejoin:miter;stroke-opacity:1;marker-start:url(#Arrow1Mstart);marker-end:url(#Arrow1Mend)"
         d="m 640,627.36218 0,-310"
         id="path3205"
         inkscape:connector-curvature="0" />
      <text
         id="text3023-4"
         x="650"
         y="477.36218"
         style="font-size:15px">
        <tspan
           style="font-size:20px;font-variant:normal;font-weight:normal;writing-mode:lr-tb;fill:#000000;fill-opacity:1;fill-rule:nonzero;stroke:none;font-family:Arial;-inkscape-font-specification:ArialMT"
           x="650"
           sodipodi:role="line"
           id="tspan3025-0"
           y="477.36218">12mm</tspan>
      </text>
      <path
         inkscape:connector-curvature="0"
         id="path5267"
         d="m 125,307.36218 505,0"
         style="fill:none;stroke:#000000;stroke-width:1px;stroke-linecap:butt;stroke-linejoin:miter;stroke-opacity:1;marker-start:url(#Arrow1Mstart);marker-end:url(#Arrow1Mend)"
         sodipodi:nodetypes="cc" />
      <text
         style="font-size:15px"
         y="302.36218"
         x="345"
         id="text5269">
        <tspan
           y="302.36218"
           id="tspan5271"
           sodipodi:role="line"
           x="345"
           style="font-size:20px;font-variant:normal;font-weight:normal;writing-mode:lr-tb;fill:#000000;fill-opacity:1;fill-rule:nonzero;stroke:none;font-family:Arial;-inkscape-font-specification:ArialMT">25mm</tspan>
      </text>
      <path
         sodipodi:nodetypes="cc"
         style="fill:none;stroke:#000000;stroke-width:1px;stroke-linecap:butt;stroke-linejoin:miter;stroke-opacity:1;marker-start:url(#Arrow1Mstart);marker-end:url(#Arrow1Mend)"
         d="m 340,732.36218 150,0"
         id="path5277"
         inkscape:connector-curvature="0" />
    </g>
  </g>
</svg>
