<?xml version="1.0" encoding="UTF-8" standalone="no"?>
<!-- Created with Inkscape (http://www.inkscape.org/) -->

<svg
   xmlns:dc="http://purl.org/dc/elements/1.1/"
   xmlns:cc="http://creativecommons.org/ns#"
   xmlns:rdf="http://www.w3.org/1999/02/22-rdf-syntax-ns#"
   xmlns:svg="http://www.w3.org/2000/svg"
   xmlns="http://www.w3.org/2000/svg"
   xmlns:sodipodi="http://sodipodi.sourceforge.net/DTD/sodipodi-0.dtd"
   xmlns:inkscape="http://www.inkscape.org/namespaces/inkscape"
   width="394.15408"
   height="232.05174"
   id="svg2"
   version="1.1"
   inkscape:version="0.48.2 r9819"
   sodipodi:docname="led_driver.svg">
  <defs
     id="defs4">
    <inkscape:path-effect
       is_visible="true"
       id="path-effect3087"
       effect="spiro" />
    <inkscape:path-effect
       is_visible="true"
       id="path-effect3081"
       effect="spiro" />
    <inkscape:path-effect
       effect="spiro"
       id="path-effect3077"
       is_visible="true" />
    <inkscape:path-effect
       is_visible="true"
       id="path-effect3073"
       effect="spiro" />
    <marker
       inkscape:stockid="DotM"
       orient="auto"
       refY="0"
       refX="0"
       id="DotM"
       style="overflow:visible">
      <path
         id="path4335"
         d="m -2.5,-1 c 0,2.76 -2.24,5 -5,5 -2.76,0 -5,-2.24 -5,-5 0,-2.76 2.24,-5 5,-5 2.76,0 5,2.24 5,5 z"
         style="fill-rule:evenodd;stroke:#000000;stroke-width:1pt;marker-start:none;marker-end:none"
         transform="matrix(0.4,0,0,0.4,2.96,0.4)"
         inkscape:connector-curvature="0" />
    </marker>
    <inkscape:path-effect
       effect="spiro"
       id="path-effect5659"
       is_visible="true" />
    <marker
       inkscape:stockid="EmptyDiamondMend"
       orient="auto"
       refY="0"
       refX="0"
       id="EmptyDiamondMend"
       style="overflow:visible">
      <path
         id="path4398"
         d="M 0,-7.0710768 -7.0710894,0 0,7.0710589 7.0710462,0 0,-7.0710768 z"
         style="fill:#ffffff;fill-rule:evenodd;stroke:#000000;stroke-width:1pt;marker-start:none"
         transform="matrix(0.4,0,0,0.4,-2.6,0)"
         inkscape:connector-curvature="0" />
    </marker>
    <marker
       inkscape:stockid="DotL"
       orient="auto"
       refY="0"
       refX="0"
       id="DotL"
       style="overflow:visible">
      <path
         id="path4332"
         d="m -2.5,-1 c 0,2.76 -2.24,5 -5,5 -2.76,0 -5,-2.24 -5,-5 0,-2.76 2.24,-5 5,-5 2.76,0 5,2.24 5,5 z"
         style="fill-rule:evenodd;stroke:#000000;stroke-width:1pt;marker-start:none;marker-end:none"
         transform="matrix(0.8,0,0,0.8,5.92,0.8)"
         inkscape:connector-curvature="0" />
    </marker>
    <inkscape:path-effect
       effect="spiro"
       id="path-effect5261"
       is_visible="true" />
    <inkscape:path-effect
       effect="spiro"
       id="path-effect5245"
       is_visible="true" />
    <inkscape:path-effect
       effect="spiro"
       id="path-effect5221"
       is_visible="true" />
    <marker
       inkscape:stockid="Arrow2Mend"
       orient="auto"
       refY="0"
       refX="0"
       id="Arrow2Mend"
       style="overflow:visible">
      <path
         id="path4297"
         style="font-size:12px;fill-rule:evenodd;stroke-width:0.625;stroke-linejoin:round"
         d="M 8.7185878,4.0337352 -2.2072895,0.01601326 8.7185884,-4.0017078 c -1.7454984,2.3720609 -1.7354408,5.6174519 -6e-7,8.035443 z"
         transform="scale(-0.6,-0.6)"
         inkscape:connector-curvature="0" />
    </marker>
    <marker
       inkscape:stockid="Arrow2Mstart"
       orient="auto"
       refY="0"
       refX="0"
       id="Arrow2Mstart"
       style="overflow:visible">
      <path
         id="path4294"
         style="font-size:12px;fill-rule:evenodd;stroke-width:0.625;stroke-linejoin:round"
         d="M 8.7185878,4.0337352 -2.2072895,0.01601326 8.7185884,-4.0017078 c -1.7454984,2.3720609 -1.7354408,5.6174519 -6e-7,8.035443 z"
         transform="scale(0.6,0.6)"
         inkscape:connector-curvature="0" />
    </marker>
    <marker
       inkscape:stockid="Arrow2Lend"
       orient="auto"
       refY="0"
       refX="0"
       id="Arrow2Lend"
       style="overflow:visible">
      <path
         id="path4291"
         style="font-size:12px;fill-rule:evenodd;stroke-width:0.625;stroke-linejoin:round"
         d="M 8.7185878,4.0337352 -2.2072895,0.01601326 8.7185884,-4.0017078 c -1.7454984,2.3720609 -1.7354408,5.6174519 -6e-7,8.035443 z"
         transform="matrix(-1.1,0,0,-1.1,-1.1,0)"
         inkscape:connector-curvature="0" />
    </marker>
    <inkscape:perspective
       sodipodi:type="inkscape:persp3d"
       inkscape:vp_x="0 : 526.18109 : 1"
       inkscape:vp_y="0 : 1000 : 0"
       inkscape:vp_z="744.09448 : 526.18109 : 1"
       inkscape:persp3d-origin="372.04724 : 350.78739 : 1"
       id="perspective10" />
    <inkscape:perspective
       id="perspective2826"
       inkscape:persp3d-origin="0.5 : 0.33333333 : 1"
       inkscape:vp_z="1 : 0.5 : 1"
       inkscape:vp_y="0 : 1000 : 0"
       inkscape:vp_x="0 : 0.5 : 1"
       sodipodi:type="inkscape:persp3d" />
    <inkscape:perspective
       id="perspective5111"
       inkscape:persp3d-origin="0.5 : 0.33333333 : 1"
       inkscape:vp_z="1 : 0.5 : 1"
       inkscape:vp_y="0 : 1000 : 0"
       inkscape:vp_x="0 : 0.5 : 1"
       sodipodi:type="inkscape:persp3d" />
    <inkscape:perspective
       id="perspective5160"
       inkscape:persp3d-origin="0.5 : 0.33333333 : 1"
       inkscape:vp_z="1 : 0.5 : 1"
       inkscape:vp_y="0 : 1000 : 0"
       inkscape:vp_x="0 : 0.5 : 1"
       sodipodi:type="inkscape:persp3d" />
  </defs>
  <sodipodi:namedview
     id="base"
     pagecolor="#ffffff"
     bordercolor="#666666"
     borderopacity="1.0"
     inkscape:pageopacity="0.0"
     inkscape:pageshadow="2"
     inkscape:zoom="2.8"
     inkscape:cx="158.07645"
     inkscape:cy="108.71422"
     inkscape:document-units="px"
     inkscape:current-layer="layer1"
     showgrid="true"
     inkscape:snap-grids="false"
     inkscape:window-width="1920"
     inkscape:window-height="1018"
     inkscape:window-x="1912"
     inkscape:window-y="-8"
     inkscape:window-maximized="1"
     fit-margin-top="10"
     fit-margin-left="10"
     fit-margin-right="10"
     fit-margin-bottom="10">
    <inkscape:grid
       type="xygrid"
       id="grid2816"
       empspacing="5"
       visible="true"
       enabled="true"
       snapvisiblegridlinesonly="true" />
  </sodipodi:namedview>
  <metadata
     id="metadata7">
    <rdf:RDF>
      <cc:Work
         rdf:about="">
        <dc:format>image/svg+xml</dc:format>
        <dc:type
           rdf:resource="http://purl.org/dc/dcmitype/StillImage" />
        <dc:title />
      </cc:Work>
    </rdf:RDF>
  </metadata>
  <g
     inkscape:label="Layer 1"
     inkscape:groupmode="layer"
     id="layer1"
     transform="translate(-199.52499,-254.41701)">
    <path
       d="m 383.62072,326.01399 61.125,-30.5625 -61.125,-30.575 0,61.1375 z"
       style="fill:#ffffff;fill-opacity:1;fill-rule:evenodd;stroke:none"
       id="path2830"
       inkscape:connector-curvature="0" />
    <path
       d="m 383.62072,326.01399 61.125,-30.5625 -61.125,-30.575 0,61.1375 z"
       style="fill:none;stroke:#000000;stroke-width:0.90000004;stroke-linecap:round;stroke-linejoin:round;stroke-miterlimit:10;stroke-opacity:1;stroke-dasharray:none"
       id="path2832"
       inkscape:connector-curvature="0" />
    <path
       d="m 340.2654,410.38402 0,-99.65752 42.55506,0"
       style="fill:none;stroke:#000000;stroke-width:0.89999968;stroke-linecap:round;stroke-linejoin:round;stroke-miterlimit:10;stroke-opacity:1;stroke-dasharray:none"
       id="path3058"
       inkscape:connector-curvature="0" />
    <path
       d="m 388.26226,310.8165 7.0875,0"
       style="fill:none;stroke:#000000;stroke-width:0.90000004;stroke-linecap:round;stroke-linejoin:round;stroke-miterlimit:10;stroke-opacity:1;stroke-dasharray:none"
       id="path3068"
       inkscape:connector-curvature="0" />
    <path
       d="m 388.30822,279.96176 7.0875,0"
       style="fill:none;stroke:#000000;stroke-width:0.90000004;stroke-linecap:round;stroke-linejoin:round;stroke-miterlimit:10;stroke-opacity:1;stroke-dasharray:none"
       id="path3070"
       inkscape:connector-curvature="0" />
    <path
       d="m 391.84572,276.42426 0,7.075"
       style="fill:none;stroke:#000000;stroke-width:0.90000004;stroke-linecap:round;stroke-linejoin:round;stroke-miterlimit:10;stroke-opacity:1;stroke-dasharray:none"
       id="path3072"
       inkscape:connector-curvature="0" />
    <path
       d="m 340.26541,452.87892 0,12.08282"
       style="fill:none;stroke:#000000;stroke-width:0.90000004;stroke-linecap:round;stroke-linejoin:round;stroke-miterlimit:10;stroke-opacity:1;stroke-dasharray:none"
       id="path4229"
       inkscape:connector-curvature="0" />
    <path
       id="path4237"
       style="fill:none;stroke:#000000;stroke-width:0.90000004;stroke-linecap:round;stroke-linejoin:round;stroke-miterlimit:10;stroke-opacity:1;stroke-dasharray:none"
       d="m 328.93612,465.43175 21.26,0"
       inkscape:connector-curvature="0" />
    <path
       id="path4239"
       style="fill:none;stroke:#000000;stroke-width:0.90000004;stroke-linecap:round;stroke-linejoin:round;stroke-miterlimit:10;stroke-opacity:1;stroke-dasharray:none"
       d="m 332.76737,470.81645 13.82,0"
       inkscape:connector-curvature="0" />
    <path
       id="path4241"
       style="fill:none;stroke:#000000;stroke-width:0.90000004;stroke-linecap:round;stroke-linejoin:round;stroke-miterlimit:10;stroke-opacity:1;stroke-dasharray:none"
       d="m 336.04987,476.02745 6.93375,0"
       inkscape:connector-curvature="0" />
    <path
       id="path4253"
       style="fill:none;stroke:#000000;stroke-width:0.90000004;stroke-linecap:round;stroke-linejoin:round;stroke-miterlimit:10;stroke-opacity:1;stroke-dasharray:none"
       d="m 280.34742,359.42312 0,10.24065"
       inkscape:connector-curvature="0" />
    <path
       d="m 269.01813,370.14076 21.26,0"
       style="fill:none;stroke:#000000;stroke-width:0.90000004;stroke-linecap:round;stroke-linejoin:round;stroke-miterlimit:10;stroke-opacity:1;stroke-dasharray:none"
       id="path4261"
       inkscape:connector-curvature="0" />
    <path
       d="m 272.84938,375.56576 13.82,0"
       style="fill:none;stroke:#000000;stroke-width:0.90000004;stroke-linecap:round;stroke-linejoin:round;stroke-miterlimit:10;stroke-opacity:1;stroke-dasharray:none"
       id="path4263"
       inkscape:connector-curvature="0" />
    <path
       d="m 276.13188,380.81576 6.93375,0"
       style="fill:none;stroke:#000000;stroke-width:0.90000004;stroke-linecap:round;stroke-linejoin:round;stroke-miterlimit:10;stroke-opacity:1;stroke-dasharray:none"
       id="path4265"
       inkscape:connector-curvature="0" />
    <path
       id="path5101"
       style="fill:none;stroke:#000000;stroke-width:0.89999962;stroke-linecap:round;stroke-linejoin:round;stroke-miterlimit:10;stroke-opacity:1;stroke-dasharray:none"
       d="m 280.51857,328.13801 0,-47.95809 102.14286,0"
       inkscape:connector-curvature="0" />
    <text
       id="text2968"
       x="209.44809"
       y="347.45758"
       style="font-size:15px">
      <tspan
         style="font-size:17.49959946px;font-variant:normal;font-weight:normal;writing-mode:lr-tb;fill:#000000;fill-opacity:1;fill-rule:nonzero;stroke:none;font-family:ARIAL;-inkscape-font-specification:ARIAL"
         x="209.44809"
         y="347.45758"
         id="tspan2970">V</tspan>
    </text>
    <text
       id="text2972"
       x="221.11063"
       y="349.87009"
       style="font-size:15px">
      <tspan
         style="font-size:11.37330055px;font-variant:normal;font-weight:normal;writing-mode:lr-tb;fill:#000000;fill-opacity:1;fill-rule:nonzero;stroke:none;font-family:ARIAL;-inkscape-font-specification:ARIAL"
         sodipodi:role="line"
         id="tspan2974"
         x="221.11063"
         y="349.87009">LED</tspan>
    </text>
    <text
       id="text2976"
       x="245.12314"
       y="347.45758"
       style="font-size:15px">
      <tspan
         style="font-size:17.49959946px;font-variant:normal;font-weight:normal;writing-mode:lr-tb;fill:#000000;fill-opacity:1;fill-rule:nonzero;stroke:none;font-family:ARIAL;-inkscape-font-specification:ARIAL"
         x="245.12314"
         y="347.45758"
         id="tspan2978">(</tspan>
    </text>
    <text
       id="text2980"
       x="250.94809"
       y="347.45758"
       style="font-size:15px">
      <tspan
         style="font-size:17.49959946px;font-variant:normal;font-weight:normal;writing-mode:lr-tb;fill:#000000;fill-opacity:1;fill-rule:nonzero;stroke:none;font-family:ARIAL;-inkscape-font-specification:ARIAL"
         x="250.94809"
         y="347.45758"
         id="tspan2982">t</tspan>
    </text>
    <text
       id="text2984"
       x="255.81064"
       y="347.45758"
       style="font-size:15px">
      <tspan
         style="font-size:17.49959946px;font-variant:normal;font-weight:normal;writing-mode:lr-tb;fill:#000000;fill-opacity:1;fill-rule:nonzero;stroke:none;font-family:ARIAL;-inkscape-font-specification:ARIAL"
         x="255.81064"
         y="347.45758"
         id="tspan2986">)</tspan>
    </text>
    <path
       d="m 477.90166,328.42643 -14.49,0"
       style="fill:none;stroke:#000000;stroke-width:0.90000004;stroke-linecap:round;stroke-linejoin:round;stroke-miterlimit:10;stroke-opacity:1;stroke-dasharray:none"
       id="path3032"
       inkscape:connector-curvature="0" />
    <path
       d="m 477.90166,313.92643 -7.245,14.5 -7.245,-14.5 14.49,0 z"
       style="fill:#000000;fill-opacity:1;fill-rule:evenodd;stroke:none"
       id="path3034"
       inkscape:connector-curvature="0" />
    <path
       d="m 477.90166,313.92643 -7.245,14.5 -7.245,-14.5 14.49,0 z"
       style="fill:none;stroke:#000000;stroke-width:0.90000004;stroke-linecap:round;stroke-linejoin:round;stroke-miterlimit:10;stroke-opacity:1;stroke-dasharray:none"
       id="path3036"
       inkscape:connector-curvature="0" />
    <path
       d="m 484.98791,321.33893 c 0,7.825 -6.345,14.175 -14.1725,14.175 -7.8275,0 -14.1725,-6.35 -14.1725,-14.175 0,0 0,0 0,0 0,-7.8375 6.345,-14.175 14.1725,-14.175 7.8275,0 14.1725,6.3375 14.1725,14.175 z"
       style="fill:none;stroke:#000000;stroke-width:0.90000004;stroke-linecap:round;stroke-linejoin:round;stroke-miterlimit:10;stroke-opacity:1;stroke-dasharray:none"
       id="path3038"
       inkscape:connector-curvature="0" />
    <path
       d="m 485.12166,328.87643 8.365,8.375"
       style="fill:none;stroke:#000000;stroke-width:0.90000004;stroke-linecap:round;stroke-linejoin:round;stroke-miterlimit:10;stroke-opacity:1;stroke-dasharray:none"
       id="path3040"
       inkscape:connector-curvature="0" />
    <path
       d="m 495.15791,334.46393 4.45375,8.9125 -8.90875,-4.4625 4.455,-4.45 z"
       style="fill:#000000;fill-opacity:1;fill-rule:evenodd;stroke:none"
       id="path3042"
       inkscape:connector-curvature="0" />
    <path
       d="m 480.77416,333.22643 8.365,8.3625"
       style="fill:none;stroke:#000000;stroke-width:0.90000004;stroke-linecap:round;stroke-linejoin:round;stroke-miterlimit:10;stroke-opacity:1;stroke-dasharray:none"
       id="path3044"
       inkscape:connector-curvature="0" />
    <path
       d="m 490.81041,338.81393 4.455,8.9 -8.91,-4.45 4.455,-4.45 z"
       style="fill:#000000;fill-opacity:1;fill-rule:evenodd;stroke:none"
       id="path3046"
       inkscape:connector-curvature="0" />
    <path
       id="path5195"
       style="fill:none;stroke:#000000;stroke-width:0.90000004;stroke-linecap:round;stroke-linejoin:round;stroke-miterlimit:10;stroke-opacity:1;stroke-dasharray:none"
       d="m 560.0545,328.42643 -14.49,0"
       inkscape:connector-curvature="0" />
    <path
       id="path5197"
       style="fill:#000000;fill-opacity:1;fill-rule:evenodd;stroke:none"
       d="m 560.0545,313.92643 -7.245,14.5 -7.245,-14.5 14.49,0 z"
       inkscape:connector-curvature="0" />
    <path
       id="path5199"
       style="fill:none;stroke:#000000;stroke-width:0.90000004;stroke-linecap:round;stroke-linejoin:round;stroke-miterlimit:10;stroke-opacity:1;stroke-dasharray:none"
       d="m 560.0545,313.92643 -7.245,14.5 -7.245,-14.5 14.49,0 z"
       inkscape:connector-curvature="0" />
    <path
       id="path5201"
       style="fill:none;stroke:#000000;stroke-width:0.90000004;stroke-linecap:round;stroke-linejoin:round;stroke-miterlimit:10;stroke-opacity:1;stroke-dasharray:none"
       d="m 567.14075,321.33893 c 0,7.825 -6.345,14.175 -14.1725,14.175 -7.8275,0 -14.1725,-6.35 -14.1725,-14.175 0,0 0,0 0,0 0,-7.8375 6.345,-14.175 14.1725,-14.175 7.8275,0 14.1725,6.3375 14.1725,14.175 z"
       inkscape:connector-curvature="0" />
    <path
       id="path5203"
       style="fill:none;stroke:#000000;stroke-width:0.90000004;stroke-linecap:round;stroke-linejoin:round;stroke-miterlimit:10;stroke-opacity:1;stroke-dasharray:none"
       d="m 567.2745,328.87643 8.365,8.375"
       inkscape:connector-curvature="0" />
    <path
       id="path5205"
       style="fill:#000000;fill-opacity:1;fill-rule:evenodd;stroke:none"
       d="m 577.31075,334.46393 4.45375,8.9125 -8.90875,-4.4625 4.455,-4.45 z"
       inkscape:connector-curvature="0" />
    <path
       id="path5207"
       style="fill:none;stroke:#000000;stroke-width:0.90000004;stroke-linecap:round;stroke-linejoin:round;stroke-miterlimit:10;stroke-opacity:1;stroke-dasharray:none"
       d="m 562.927,333.22643 8.365,8.3625"
       inkscape:connector-curvature="0" />
    <path
       id="path5209"
       style="fill:#000000;fill-opacity:1;fill-rule:evenodd;stroke:none"
       d="m 572.96325,338.81393 4.455,8.9 -8.91,-4.45 4.455,-4.45 z"
       inkscape:connector-curvature="0" />
    <path
       id="path5211"
       style="fill:none;stroke:#000000;stroke-width:0.89999962;stroke-linecap:round;stroke-linejoin:round;stroke-miterlimit:10;stroke-opacity:1;stroke-dasharray:none"
       d="m 471.02303,353.71392 0,-58.18437 -26.05689,0"
       inkscape:connector-curvature="0" />
    <path
       d="m 552.97464,353.71392 0,-58.18437 -108.00848,0"
       style="fill:none;stroke:#000000;stroke-width:0.89999974;stroke-linecap:round;stroke-linejoin:round;stroke-miterlimit:10;stroke-opacity:1;stroke-dasharray:none"
       id="path5213"
       inkscape:connector-curvature="0" />
    <path
       d="m 265.27799,343.94993 c 0,-8.18184 6.71547,-14.82142 15,-14.82142 8.28453,0 15,6.63958 15,14.82142 0,0 0,0 0,0 0,8.19492 -6.71547,14.82143 -15,14.82143 -8.28453,0 -15,-6.62651 -15,-14.82143 z"
       style="fill:none;stroke:#000000;stroke-width:0.8999998;stroke-linecap:round;stroke-linejoin:round;stroke-miterlimit:10;stroke-opacity:1;stroke-dasharray:none"
       id="path5223"
       inkscape:connector-curvature="0" />
    <path
       d="m 276.7406,335.16604 7.0875,0"
       style="fill:none;stroke:#000000;stroke-width:0.90000004;stroke-linecap:round;stroke-linejoin:round;stroke-miterlimit:10;stroke-opacity:1;stroke-dasharray:none"
       id="path5225"
       inkscape:connector-curvature="0" />
    <path
       d="m 280.2781,331.62854 0,7.075"
       style="fill:none;stroke:#000000;stroke-width:0.90000004;stroke-linecap:round;stroke-linejoin:round;stroke-miterlimit:10;stroke-opacity:1;stroke-dasharray:none"
       id="path5227"
       inkscape:connector-curvature="0" />
    <path
       d="m 276.9406,353.70354 7.0875,0"
       style="fill:none;stroke:#000000;stroke-width:0.90000004;stroke-linecap:round;stroke-linejoin:round;stroke-miterlimit:10;stroke-opacity:1;stroke-dasharray:none"
       id="path5229"
       inkscape:connector-curvature="0" />
    <text
       style="font-size:15px"
       y="310.65002"
       x="483.90436"
       id="text5231">
      <tspan
         y="310.65002"
         x="483.90436"
         id="tspan5233"
         sodipodi:role="line"
         style="font-size:10px;font-variant:normal;font-weight:normal;writing-mode:lr-tb;fill:#000000;fill-opacity:1;fill-rule:nonzero;stroke:none;font-family:ARIAL;-inkscape-font-specification:ARIAL">IR</tspan>
    </text>
    <text
       id="text5235"
       x="566.04724"
       y="309.93576"
       style="font-size:15px">
      <tspan
         style="font-size:10px;font-variant:normal;font-weight:normal;writing-mode:lr-tb;fill:#000000;fill-opacity:1;fill-rule:nonzero;stroke:none;font-family:ARIAL;-inkscape-font-specification:ARIAL"
         sodipodi:role="line"
         id="tspan5237"
         x="566.04724"
         y="309.93576">Red</tspan>
    </text>
    <path
       style="fill:none;stroke:#000000;stroke-width:1px;stroke-linecap:butt;stroke-linejoin:miter;stroke-opacity:1"
       d="m 340.26541,410.62892 5,4.25 -10,8.5 10,8.5 -10,8.5 10,8.5 -5,4.25 0,0"
       id="path5243"
       inkscape:path-effect="#path-effect5245"
       inkscape:original-d="m 340.26541,410.62892 5,4.25 -10,8.5 10,8.5 -10,8.5 10,8.5 -5,4.25 0,0"
       inkscape:connector-curvature="0" />
    <text
       style="font-size:15px"
       y="437.70087"
       x="347.66235"
       id="text5251">
      <tspan
         id="tspan5253"
         y="437.70087"
         x="347.66235"
         style="font-size:17.49959946px;font-variant:normal;font-weight:normal;writing-mode:lr-tb;fill:#000000;fill-opacity:1;fill-rule:nonzero;stroke:none;font-family:ARIAL;-inkscape-font-specification:ARIAL">R</tspan>
    </text>
    <text
       style="font-size:15px"
       y="442.38623"
       x="360.58759"
       id="text5255">
      <tspan
         y="442.38623"
         x="360.58759"
         id="tspan5257"
         sodipodi:role="line"
         style="font-size:11.37330055px;font-variant:normal;font-weight:normal;writing-mode:lr-tb;fill:#000000;fill-opacity:1;fill-rule:nonzero;stroke:none;font-family:ARIAL;-inkscape-font-specification:ARIAL">LED</tspan>
    </text>
    <path
       style="fill:none;stroke:#000000;stroke-width:0.99999994px;stroke-linecap:butt;stroke-linejoin:miter;stroke-opacity:1;marker-start:url(#DotM)"
       d="m 340.51795,388.60446 147.39032,0.1095 0,-22.5"
       id="path5657"
       inkscape:path-effect="#path-effect5659"
       inkscape:original-d="m 340.51795,388.60446 147.39032,0.1095 0,-22.5"
       sodipodi:nodetypes="ccc"
       inkscape:connector-curvature="0" />
    <path
       sodipodi:type="arc"
       style="fill:#000000;fill-opacity:1;stroke:none"
       id="path6241"
       sodipodi:cx="127.5"
       sodipodi:cy="72.5"
       sodipodi:rx="2.5"
       sodipodi:ry="2.5"
       d="m 130,72.5 c 0,1.380712 -1.11929,2.5 -2.5,2.5 -1.38071,0 -2.5,-1.119288 -2.5,-2.5 0,-1.380712 1.11929,-2.5 2.5,-2.5 1.38071,0 2.5,1.119288 2.5,2.5 z"
       transform="translate(343.58501,223.3756)" />
    <text
       id="text2894"
       x="236.66678"
       y="370.01242"
       style="font-size:12px;font-style:italic;font-variant:normal;font-weight:normal;font-stretch:normal;text-align:start;line-height:100%;writing-mode:lr-tb;text-anchor:start;fill:#666666;font-family:Arial;-inkscape-font-specification:Arial Italic"
       sodipodi:linespacing="100%">
      <tspan
         sodipodi:role="line"
         id="tspan2900"
         x="236.66678"
         y="370.01242"
         style="text-align:center;text-anchor:middle;fill:#666666">Controlled</tspan>
      <tspan
         sodipodi:role="line"
         x="236.66678"
         y="382.01242"
         id="tspan2902"
         style="text-align:center;text-anchor:middle;fill:#666666">via DAC</tspan>
      <tspan
         sodipodi:role="line"
         x="236.66678"
         y="394.01242"
         style="text-align:center;text-anchor:middle;fill:#666666"
         id="tspan3148">or PWM</tspan>
    </text>
    <text
       sodipodi:linespacing="100%"
       style="font-size:12px;font-style:italic;font-variant:normal;font-weight:normal;font-stretch:normal;text-align:start;line-height:100%;writing-mode:lr-tb;text-anchor:start;fill:#666666;font-family:Arial;-inkscape-font-specification:Arial Italic"
       y="456.79816"
       x="350.45251"
       id="text3712">
      <tspan
         sodipodi:role="line"
         id="tspan3722"
         x="350.45251"
         y="456.79816">Sets transresistance gain</tspan>
    </text>
    <path
       inkscape:connector-curvature="0"
       inkscape:original-d="m 501.41705,366.63297 -62.55102,0 13.16864,-12.90179 36.21375,0 13.16863,12.90179 z"
       inkscape:path-effect="#path-effect3073"
       id="path3071"
       d="m 501.41705,366.63297 -62.55102,0 13.16864,-12.90179 36.21375,0 13.16863,12.90179"
       style="fill:none;stroke:#000000;stroke-width:1px;stroke-linecap:butt;stroke-linejoin:miter;stroke-opacity:1" />
    <path
       style="fill:none;stroke:#000000;stroke-width:1px;stroke-linecap:butt;stroke-linejoin:miter;stroke-opacity:1"
       d="m 582.84562,366.63297 -62.55102,0 13.16864,-12.90179 36.21375,0 13.16863,12.90179"
       id="path3075"
       inkscape:path-effect="#path-effect3077"
       inkscape:original-d="m 582.84562,366.63297 -62.55102,0 13.16864,-12.90179 36.21375,0 13.16863,12.90179 z"
       inkscape:connector-curvature="0" />
    <path
       inkscape:connector-curvature="0"
       sodipodi:nodetypes="ccc"
       inkscape:original-d="m 340.51795,388.60446 228.1046,0.1095 0,-22.5"
       inkscape:path-effect="#path-effect3081"
       id="path3079"
       d="m 340.51795,388.60446 228.1046,0.1095 0,-22.5"
       style="fill:none;stroke:#000000;stroke-width:0.99999988px;stroke-linecap:butt;stroke-linejoin:miter;stroke-opacity:1;marker-start:url(#DotM)" />
    <path
       id="path3083"
       style="fill:none;stroke:#000000;stroke-width:0.90000004;stroke-linecap:round;stroke-linejoin:round;stroke-miterlimit:10;stroke-opacity:1;stroke-dasharray:none"
       d="m 438.83023,359.14072 -14.49,0"
       inkscape:connector-curvature="0" />
    <path
       style="fill:none;stroke:#000000;stroke-width:0.99999994px;stroke-linecap:butt;stroke-linejoin:miter;stroke-opacity:1"
       d="m 431.77415,359.16605 0,21.46574 20.96066,0 0,-14.01587"
       id="path3089"
       inkscape:connector-curvature="0" />
    <text
       style="font-size:15px"
       y="357.06302"
       x="425.61615"
       id="text5231-1">
      <tspan
         y="357.06302"
         x="425.61615"
         id="tspan5233-7"
         sodipodi:role="line"
         style="font-size:10px;font-variant:normal;font-weight:normal;writing-mode:lr-tb;fill:#000000;fill-opacity:1;fill-rule:nonzero;stroke:none;font-family:ARIAL;-inkscape-font-specification:ARIAL">3V</tspan>
    </text>
    <path
       inkscape:connector-curvature="0"
       d="m 520.83023,359.14072 -14.49,0"
       style="fill:none;stroke:#000000;stroke-width:0.90000004;stroke-linecap:round;stroke-linejoin:round;stroke-miterlimit:10;stroke-opacity:1;stroke-dasharray:none"
       id="path3124" />
    <path
       inkscape:connector-curvature="0"
       id="path3126"
       d="m 513.77415,359.16605 0,21.46574 20.96066,0 0,-14.01587"
       style="fill:none;stroke:#000000;stroke-width:0.99999994px;stroke-linecap:butt;stroke-linejoin:miter;stroke-opacity:1" />
    <text
       id="text3128"
       x="507.61615"
       y="357.06302"
       style="font-size:15px">
      <tspan
         style="font-size:10px;font-variant:normal;font-weight:normal;writing-mode:lr-tb;fill:#000000;fill-opacity:1;fill-rule:nonzero;stroke:none;font-family:ARIAL;-inkscape-font-specification:ARIAL"
         sodipodi:role="line"
         id="tspan3130"
         x="507.61615"
         y="357.06302">3V</tspan>
    </text>
    <text
       id="text3132"
       x="481.37897"
       y="364.69321"
       style="font-size:15px">
      <tspan
         style="font-size:8px;font-variant:normal;font-weight:normal;writing-mode:lr-tb;fill:#000000;fill-opacity:1;fill-rule:nonzero;stroke:none;font-family:ARIAL;-inkscape-font-specification:ARIAL"
         sodipodi:role="line"
         id="tspan3134"
         x="481.37897"
         y="364.69321">ON</tspan>
    </text>
    <text
       style="font-size:15px"
       y="365.19827"
       x="563.20129"
       id="text3136">
      <tspan
         y="365.19827"
         x="563.20129"
         id="tspan3138"
         sodipodi:role="line"
         style="font-size:8px;font-variant:normal;font-weight:normal;writing-mode:lr-tb;fill:#000000;fill-opacity:1;fill-rule:nonzero;stroke:none;font-family:ARIAL;-inkscape-font-specification:ARIAL">ON</tspan>
    </text>
    <text
       id="text3140"
       x="527.86627"
       y="365.19827"
       style="font-size:15px">
      <tspan
         style="font-size:8px;font-variant:normal;font-weight:normal;writing-mode:lr-tb;fill:#000000;fill-opacity:1;fill-rule:nonzero;stroke:none;font-family:ARIAL;-inkscape-font-specification:ARIAL"
         sodipodi:role="line"
         id="tspan3142"
         x="527.86627"
         y="365.19827">OFF</tspan>
    </text>
    <text
       style="font-size:15px"
       y="365.19827"
       x="445.86627"
       id="text3144">
      <tspan
         y="365.19827"
         x="445.86627"
         id="tspan3146"
         sodipodi:role="line"
         style="font-size:8px;font-variant:normal;font-weight:normal;writing-mode:lr-tb;fill:#000000;fill-opacity:1;fill-rule:nonzero;stroke:none;font-family:ARIAL;-inkscape-font-specification:ARIAL">OFF</tspan>
    </text>
    <path
       sodipodi:type="arc"
       style="fill:#000000;fill-opacity:1;stroke:none"
       id="path3090"
       sodipodi:cx="254.375"
       sodipodi:cy="146.96246"
       sodipodi:rx="2.5892856"
       sodipodi:ry="2.5892856"
       d="m 256.96429,146.96246 a 2.5892856,2.5892856 0 1 1 -5.17858,0 2.5892856,2.5892856 0 1 1 5.17858,0 z"
       transform="translate(233.45356,241.3813)" />
  </g>
</svg>
