<?xml version="1.0" encoding="UTF-8" standalone="no"?>
<!-- Created with Inkscape (http://www.inkscape.org/) -->

<svg
   xmlns:dc="http://purl.org/dc/elements/1.1/"
   xmlns:cc="http://creativecommons.org/ns#"
   xmlns:rdf="http://www.w3.org/1999/02/22-rdf-syntax-ns#"
   xmlns:svg="http://www.w3.org/2000/svg"
   xmlns="http://www.w3.org/2000/svg"
   xmlns:xlink="http://www.w3.org/1999/xlink"
   xmlns:sodipodi="http://sodipodi.sourceforge.net/DTD/sodipodi-0.dtd"
   xmlns:inkscape="http://www.inkscape.org/namespaces/inkscape"
   width="687.5528"
   height="405.59375"
   id="svg2"
   sodipodi:version="0.32"
   inkscape:version="0.48.2 r9819"
   sodipodi:docname="transmission.svg"
   inkscape:output_extension="org.inkscape.output.svg.inkscape"
   inkscape:export-filename="C:\Windows\system32\config\systemprofile\Desktop\transmission_ppg.png"
   inkscape:export-xdpi="300"
   inkscape:export-ydpi="300"
   version="1.0">
  <defs
     id="defs4">
    <linearGradient
       id="linearGradient4584">
      <stop
         style="stop-color:#a22c13;stop-opacity:1;"
         offset="0"
         id="stop4586" />
      <stop
         id="stop4588"
         offset="0.67836672"
         style="stop-color:#ffcb9b;stop-opacity:0.73333335;" />
      <stop
         id="stop4590"
         offset="1"
         style="stop-color:#fbeddc;stop-opacity:0.46666667;" />
    </linearGradient>
    <linearGradient
       id="linearGradient4576">
      <stop
         id="stop4578"
         offset="0"
         style="stop-color:#fead77;stop-opacity:1;" />
      <stop
         style="stop-color:#ffbe6a;stop-opacity:0.46666667;"
         offset="0.80276716"
         id="stop4580" />
      <stop
         id="stop4582"
         offset="1"
         style="stop-color:#ae2a2a;stop-opacity:0.94901961;" />
    </linearGradient>
    <linearGradient
       id="linearGradient3823">
      <stop
         id="stop3825"
         offset="0"
         style="stop-color:#a22c13;stop-opacity:1;" />
      <stop
         style="stop-color:#ffcb9b;stop-opacity:0.73333335;"
         offset="0.62836671"
         id="stop3831" />
      <stop
         style="stop-color:#fbeddc;stop-opacity:0.46666667;"
         offset="1"
         id="stop3827" />
    </linearGradient>
    <linearGradient
       id="linearGradient3805">
      <stop
         id="stop3807"
         offset="0"
         style="stop-color:#f2f816;stop-opacity:1;" />
      <stop
         id="stop3811"
         offset="1"
         style="stop-color:#e9d778;stop-opacity:0.85882354;" />
    </linearGradient>
    <linearGradient
       id="linearGradient3766">
      <stop
         style="stop-color:#fead77;stop-opacity:1;"
         offset="0"
         id="stop3768" />
      <stop
         id="stop3770"
         offset="0.91526717"
         style="stop-color:#ffbe6a;stop-opacity:0.46666667;" />
      <stop
         style="stop-color:#ae2a2a;stop-opacity:0.94901961;"
         offset="1"
         id="stop3772" />
    </linearGradient>
    <linearGradient
       id="linearGradient3758">
      <stop
         style="stop-color:#af0000;stop-opacity:1;"
         offset="0"
         id="stop3760" />
      <stop
         id="stop3764"
         offset="0.10000002"
         style="stop-color:#fff4b8;stop-opacity:0.85882354;" />
      <stop
         style="stop-color:#e9d778;stop-opacity:0.85882354;"
         offset="1"
         id="stop3762" />
    </linearGradient>
    <linearGradient
       id="linearGradient3744">
      <stop
         id="stop3746"
         offset="0"
         style="stop-color:#c87137;stop-opacity:1;" />
      <stop
         style="stop-color:#ffbe6a;stop-opacity:0.46666667;"
         offset="0.79787719"
         id="stop3750" />
      <stop
         id="stop3748"
         offset="1"
         style="stop-color:#af0000;stop-opacity:0.94736844;" />
    </linearGradient>
    <marker
       inkscape:stockid="Arrow1Mend"
       orient="auto"
       refY="0"
       refX="0"
       id="Arrow1Mend"
       style="overflow:visible">
      <path
         id="path3169"
         d="M 0,0 5,-5 -12.5,0 5,5 0,0 z"
         style="fill-rule:evenodd;stroke:#000000;stroke-width:1pt;marker-start:none"
         transform="matrix(-0.4,0,0,-0.4,-4,0)"
         inkscape:connector-curvature="0" />
    </marker>
    <marker
       inkscape:stockid="Arrow1Mstart"
       orient="auto"
       refY="0"
       refX="0"
       id="Arrow1Mstart"
       style="overflow:visible">
      <path
         id="path3166"
         d="M 0,0 5,-5 -12.5,0 5,5 0,0 z"
         style="fill-rule:evenodd;stroke:#000000;stroke-width:1pt;marker-start:none"
         transform="matrix(0.4,0,0,0.4,4,0)"
         inkscape:connector-curvature="0" />
    </marker>
    <linearGradient
       id="linearGradient4581">
      <stop
         style="stop-color:#c87137;stop-opacity:1;"
         offset="0"
         id="stop4583" />
      <stop
         style="stop-color:#c87137;stop-opacity:0;"
         offset="1"
         id="stop4585" />
    </linearGradient>
    <linearGradient
       id="linearGradient4575">
      <stop
         id="stop4577"
         offset="0"
         style="stop-color:#817850;stop-opacity:1;" />
      <stop
         id="stop4579"
         offset="1"
         style="stop-color:#000000;stop-opacity:0;" />
    </linearGradient>
    <linearGradient
       id="linearGradient4557">
      <stop
         style="stop-color:#0000af;stop-opacity:1;"
         offset="0"
         id="stop4559" />
      <stop
         style="stop-color:#ff0000;stop-opacity:0"
         offset="1"
         id="stop4561" />
    </linearGradient>
    <linearGradient
       id="linearGradient4535">
      <stop
         id="stop4537"
         offset="0"
         style="stop-color:#af0000;stop-opacity:1;" />
      <stop
         id="stop4539"
         offset="1"
         style="stop-color:#ff0000;stop-opacity:0" />
    </linearGradient>
    <linearGradient
       id="linearGradient4517">
      <stop
         style="stop-color:#af0000;stop-opacity:1;"
         offset="0"
         id="stop4519" />
      <stop
         style="stop-color:#ff0000;stop-opacity:0;"
         offset="1"
         id="stop4521" />
    </linearGradient>
    <marker
       inkscape:stockid="Arrow1Lend"
       orient="auto"
       refY="0"
       refX="0"
       id="Arrow1Lend"
       style="overflow:visible">
      <path
         id="path3163"
         d="M 0,0 5,-5 -12.5,0 5,5 0,0 z"
         style="fill-rule:evenodd;stroke:#000000;stroke-width:1pt;marker-start:none"
         transform="matrix(-0.8,0,0,-0.8,-10,0)"
         inkscape:connector-curvature="0" />
    </marker>
    <marker
       inkscape:stockid="Arrow1Lstart"
       orient="auto"
       refY="0"
       refX="0"
       id="Arrow1Lstart"
       style="overflow:visible">
      <path
         id="path3160"
         d="M 0,0 5,-5 -12.5,0 5,5 0,0 z"
         style="fill-rule:evenodd;stroke:#000000;stroke-width:1pt;marker-start:none"
         transform="matrix(0.8,0,0,0.8,10,0)"
         inkscape:connector-curvature="0" />
    </marker>
    <inkscape:perspective
       sodipodi:type="inkscape:persp3d"
       inkscape:vp_x="0 : 526.18109 : 1"
       inkscape:vp_y="0 : 1000 : 0"
       inkscape:vp_z="744.09448 : 526.18109 : 1"
       inkscape:persp3d-origin="372.04724 : 350.78739 : 1"
       id="perspective10" />
    <linearGradient
       inkscape:collect="always"
       xlink:href="#linearGradient4517"
       id="linearGradient4523"
       x1="260"
       y1="52.362179"
       x2="260"
       y2="132.36218"
       gradientUnits="userSpaceOnUse" />
    <linearGradient
       inkscape:collect="always"
       xlink:href="#linearGradient4535"
       id="linearGradient4533"
       x1="260"
       y1="182.3622"
       x2="260"
       y2="119.50504"
       gradientUnits="userSpaceOnUse"
       gradientTransform="matrix(1,0,0,0.6363636,0,31.313521)" />
    <linearGradient
       inkscape:collect="always"
       xlink:href="#linearGradient4557"
       id="linearGradient4555"
       gradientUnits="userSpaceOnUse"
       x1="260"
       y1="178.43361"
       x2="260"
       y2="111.6479"
       gradientTransform="matrix(1,0,0,1.2727273,0,-14.735141)" />
    <linearGradient
       inkscape:collect="always"
       xlink:href="#linearGradient4517"
       id="linearGradient4563"
       gradientUnits="userSpaceOnUse"
       x1="260"
       y1="145.67984"
       x2="260"
       y2="65.773911" />
    <linearGradient
       inkscape:collect="always"
       xlink:href="#linearGradient4517"
       id="linearGradient4565"
       gradientUnits="userSpaceOnUse"
       x1="210"
       y1="145.67984"
       x2="210"
       y2="65.773911" />
    <linearGradient
       inkscape:collect="always"
       xlink:href="#linearGradient4517"
       id="linearGradient4567"
       gradientUnits="userSpaceOnUse"
       x1="260"
       y1="145.67984"
       x2="260"
       y2="65.773911" />
    <linearGradient
       inkscape:collect="always"
       xlink:href="#linearGradient4517"
       id="linearGradient4569"
       gradientUnits="userSpaceOnUse"
       x1="260"
       y1="145.67984"
       x2="260"
       y2="65.773911" />
    <linearGradient
       inkscape:collect="always"
       xlink:href="#linearGradient4581"
       id="linearGradient4587"
       x1="260"
       y1="362.36218"
       x2="260"
       y2="209.36218"
       gradientUnits="userSpaceOnUse"
       gradientTransform="matrix(1,0,0,1.1111111,0,-40.262465)" />
    <linearGradient
       inkscape:collect="always"
       xlink:href="#linearGradient4517"
       id="linearGradient5686"
       gradientUnits="userSpaceOnUse"
       x1="260"
       y1="145.67984"
       x2="260"
       y2="65.773911" />
    <linearGradient
       inkscape:collect="always"
       xlink:href="#linearGradient4517"
       id="linearGradient5688"
       gradientUnits="userSpaceOnUse"
       x1="260"
       y1="145.67984"
       x2="260"
       y2="65.773911" />
    <linearGradient
       inkscape:collect="always"
       xlink:href="#linearGradient4517"
       id="linearGradient5690"
       gradientUnits="userSpaceOnUse"
       x1="260"
       y1="145.67984"
       x2="260"
       y2="65.773911" />
    <linearGradient
       inkscape:collect="always"
       xlink:href="#linearGradient4517"
       id="linearGradient5692"
       gradientUnits="userSpaceOnUse"
       x1="260"
       y1="52.362179"
       x2="260"
       y2="132.36218" />
    <linearGradient
       inkscape:collect="always"
       xlink:href="#linearGradient4517"
       id="linearGradient5695"
       gradientUnits="userSpaceOnUse"
       x1="260"
       y1="145.67984"
       x2="260"
       y2="65.773911"
       gradientTransform="matrix(1,0,0,0.3754415,0,62.667927)" />
    <linearGradient
       inkscape:collect="always"
       xlink:href="#linearGradient4517"
       id="linearGradient5698"
       gradientUnits="userSpaceOnUse"
       x1="260"
       y1="145.67984"
       x2="260"
       y2="65.773911"
       gradientTransform="matrix(1,0,0,0.3754415,0,62.667927)" />
    <linearGradient
       inkscape:collect="always"
       xlink:href="#linearGradient4584"
       id="linearGradient3947"
       gradientUnits="userSpaceOnUse"
       gradientTransform="matrix(1,0,0,1.1111111,-386.70339,-44.407214)"
       x1="259.98465"
       y1="254.39526"
       x2="259.98465"
       y2="182.15208" />
    <linearGradient
       inkscape:collect="always"
       xlink:href="#linearGradient4576"
       id="linearGradient3949"
       gradientUnits="userSpaceOnUse"
       gradientTransform="matrix(1,0,0,1.1111111,-386.70339,-22.920679)"
       x1="259.98465"
       y1="294.87549"
       x2="259.98465"
       y2="159.87547" />
    <linearGradient
       inkscape:collect="always"
       xlink:href="#linearGradient3758"
       id="linearGradient3951"
       gradientUnits="userSpaceOnUse"
       gradientTransform="matrix(1,0,0,1.1818181,-23.309933,-309.28399)"
       x1="260.00003"
       y1="165.43912"
       x2="260.00003"
       y2="110.43911" />
    <linearGradient
       inkscape:collect="always"
       xlink:href="#linearGradient3805"
       id="linearGradient3953"
       gradientUnits="userSpaceOnUse"
       gradientTransform="matrix(1,0,0,0.72727266,-23.309933,66.137999)"
       x1="260.00003"
       y1="209.86221"
       x2="260.00003"
       y2="154.86221" />
    <linearGradient
       inkscape:collect="always"
       xlink:href="#linearGradient3805"
       id="linearGradient3981"
       gradientUnits="userSpaceOnUse"
       gradientTransform="matrix(1,0,0,0.72727266,171.69009,70.737984)"
       x1="260"
       y1="144.28526"
       x2="260"
       y2="127.36219" />
    <linearGradient
       inkscape:collect="always"
       xlink:href="#linearGradient3758"
       id="linearGradient3983"
       gradientUnits="userSpaceOnUse"
       gradientTransform="matrix(1,0,0,1.1818181,171.69009,-313.88397)"
       x1="260"
       y1="182.3622"
       x2="260"
       y2="127.36219" />
    <linearGradient
       inkscape:collect="always"
       xlink:href="#linearGradient3766"
       id="linearGradient3985"
       gradientUnits="userSpaceOnUse"
       gradientTransform="matrix(1,0,0,1.1111111,-386.70339,-22.920679)"
       x1="260"
       y1="362.36218"
       x2="260"
       y2="230.93217" />
    <linearGradient
       inkscape:collect="always"
       xlink:href="#linearGradient3823"
       id="linearGradient3987"
       gradientUnits="userSpaceOnUse"
       gradientTransform="matrix(1,0,0,1.1111111,-386.70339,-44.407214)"
       x1="259.98465"
       y1="294.87549"
       x2="260"
       y2="230.93217" />
    <inkscape:perspective
       id="perspective4275"
       inkscape:persp3d-origin="0.5 : 0.33333333 : 1"
       inkscape:vp_z="1 : 0.5 : 1"
       inkscape:vp_y="0 : 1000 : 0"
       inkscape:vp_x="0 : 0.5 : 1"
       sodipodi:type="inkscape:persp3d" />
    <inkscape:perspective
       id="perspective4346"
       inkscape:persp3d-origin="0.5 : 0.33333333 : 1"
       inkscape:vp_z="1 : 0.5 : 1"
       inkscape:vp_y="0 : 1000 : 0"
       inkscape:vp_x="0 : 0.5 : 1"
       sodipodi:type="inkscape:persp3d" />
    <linearGradient
       y2="-246.57704"
       x2="-434.33966"
       y1="-228.70355"
       x1="-451.30542"
       gradientTransform="matrix(-1.6732,0,0,-1.1476,-296.472,-123.477)"
       gradientUnits="userSpaceOnUse"
       id="linearGradient7619"
       xlink:href="#linearGradient11462"
       inkscape:collect="always" />
    <linearGradient
       y2="541.26917"
       x2="-171.93723"
       y1="558.79907"
       x1="-155.74126"
       gradientTransform="matrix(0,-1.6732,1.1476,0,-269.006,-183.504)"
       gradientUnits="userSpaceOnUse"
       id="linearGradient9497"
       xlink:href="#linearGradient7090"
       inkscape:collect="always" />
    <linearGradient
       id="linearGradient7090">
      <stop
         id="stop7092"
         offset="0.0000000"
         style="stop-color: rgb(255, 42, 38); stop-opacity: 1;" />
      <stop
         id="stop7094"
         offset="1.0000000"
         style="stop-color: rgb(150, 0, 13); stop-opacity: 1;" />
    </linearGradient>
    <linearGradient
       y2="244.73628"
       x2="230.57993"
       y1="224.94089"
       x1="248.07172"
       gradientTransform="matrix(1.6732,0,0,1.1476,-203.141,-178.367)"
       gradientUnits="userSpaceOnUse"
       id="linearGradient9495"
       xlink:href="#linearGradient7090"
       inkscape:collect="always" />
    <linearGradient
       y2="-440.7139"
       x2="173.43343"
       y1="-459.7464"
       x1="155.51448"
       gradientTransform="matrix(0,1.6732,-1.1476,0,-237.286,-184.278)"
       gradientUnits="userSpaceOnUse"
       id="linearGradient9493"
       xlink:href="#linearGradient7090"
       inkscape:collect="always" />
    <linearGradient
       y2="-246.57704"
       x2="-434.33966"
       y1="-228.70355"
       x1="-451.30542"
       gradientTransform="matrix(-1.6732,0,0,-1.1476,-296.472,-182.023)"
       gradientUnits="userSpaceOnUse"
       id="linearGradient9491"
       xlink:href="#linearGradient7090"
       inkscape:collect="always" />
    <linearGradient
       y2="541.26917"
       x2="-171.93723"
       y1="558.79907"
       x1="-155.74126"
       gradientTransform="matrix(0,-1.6732,1.1476,0,-269.006,-124.957)"
       gradientUnits="userSpaceOnUse"
       id="linearGradient9447"
       xlink:href="#linearGradient11462"
       inkscape:collect="always" />
    <linearGradient
       id="linearGradient11462">
      <stop
         id="stop11464"
         offset="0"
         style="stop-color:#ff0000;stop-opacity:0;" />
      <stop
         id="stop11466"
         offset="1"
         style="stop-color:#ff0000;stop-opacity:1;" />
    </linearGradient>
    <linearGradient
       y2="244.73628"
       x2="230.57993"
       y1="224.94089"
       x1="248.07172"
       gradientTransform="matrix(1.6732,0,0,1.1476,-203.141,-119.821)"
       gradientUnits="userSpaceOnUse"
       id="linearGradient9351"
       xlink:href="#linearGradient11462"
       inkscape:collect="always" />
    <linearGradient
       y2="-440.7139"
       x2="173.43343"
       y1="-459.7464"
       x1="155.51448"
       gradientTransform="matrix(0,1.6732,-1.1476,0,-237.286,-125.731)"
       gradientUnits="userSpaceOnUse"
       id="linearGradient9375"
       xlink:href="#linearGradient11462"
       inkscape:collect="always" />
    <linearGradient
       y2="-246.57704"
       x2="-434.33966"
       y1="-228.70355"
       x1="-451.30542"
       gradientTransform="matrix(-1.6732,0,0,-1.1476,-296.472,-123.477)"
       gradientUnits="userSpaceOnUse"
       id="linearGradient9478"
       xlink:href="#linearGradient11462"
       inkscape:collect="always" />
    <linearGradient
       y2="165.6252"
       x2="-50.436199"
       y1="124.94588"
       x1="-50.436199"
       gradientTransform="matrix(2.13642,0,0,0.418246,553.072,180.304)"
       gradientUnits="userSpaceOnUse"
       id="linearGradient8640"
       xlink:href="#linearGradient2372"
       inkscape:collect="always" />
    <linearGradient
       id="linearGradient2372">
      <stop
         id="stop2374"
         offset="0.0000000"
         style="stop-color: rgb(0, 111, 157); stop-opacity: 1;" />
      <stop
         id="stop2376"
         offset="1.0000000"
         style="stop-color: rgb(123, 206, 251); stop-opacity: 1;" />
    </linearGradient>
    <linearGradient
       y2="95.684341"
       x2="-31.586103"
       y1="109.7897"
       x1="-53.427612"
       gradientTransform="matrix(0,-0.867067,0.594693,0,393.881,161.799)"
       gradientUnits="userSpaceOnUse"
       id="linearGradient8762"
       xlink:href="#linearGradient2315"
       inkscape:collect="always" />
    <linearGradient
       id="linearGradient2315">
      <stop
         id="stop2317"
         offset="0.0000000"
         style="stop-color: rgb(131, 203, 70); stop-opacity: 1;" />
      <stop
         id="stop2319"
         offset="1.0000000"
         style="stop-color: rgb(255, 255, 255); stop-opacity: 1;" />
    </linearGradient>
    <linearGradient
       y2="541.26917"
       x2="-171.93723"
       y1="558.79907"
       x1="-155.74126"
       gradientTransform="matrix(0,-1.20748,0.828171,0,0,0)"
       gradientUnits="userSpaceOnUse"
       id="linearGradient8759"
       xlink:href="#linearGradient11462"
       inkscape:collect="always" />
    <linearGradient
       y2="165.6252"
       x2="-50.436199"
       y1="124.94588"
       x1="-50.436199"
       gradientTransform="matrix(2.13642,0,0,0.418246,389.984,182.29)"
       gradientUnits="userSpaceOnUse"
       id="linearGradient8634"
       xlink:href="#linearGradient2372"
       inkscape:collect="always" />
    <linearGradient
       y2="95.684341"
       x2="-31.586103"
       y1="109.7897"
       x1="-53.427612"
       gradientTransform="matrix(0.867067,0,0,0.594693,325.535,133.316)"
       gradientUnits="userSpaceOnUse"
       id="linearGradient8774"
       xlink:href="#linearGradient2315"
       inkscape:collect="always" />
    <linearGradient
       y2="244.73628"
       x2="230.57993"
       y1="224.94089"
       x1="248.07172"
       gradientTransform="scale(1.20748,0.828171)"
       gradientUnits="userSpaceOnUse"
       id="linearGradient8771"
       xlink:href="#linearGradient11462"
       inkscape:collect="always" />
    <linearGradient
       y2="165.6252"
       x2="-50.436199"
       y1="124.94588"
       x1="-50.436199"
       gradientTransform="matrix(2.13642,0,0,0.418246,475.356,179.745)"
       gradientUnits="userSpaceOnUse"
       id="linearGradient8628"
       xlink:href="#linearGradient2372"
       inkscape:collect="always" />
    <linearGradient
       y2="95.684341"
       x2="-31.586103"
       y1="109.7897"
       x1="-53.427612"
       gradientTransform="matrix(0,0.867067,-0.594693,0,434.301,235.465)"
       gradientUnits="userSpaceOnUse"
       id="linearGradient8768"
       xlink:href="#linearGradient2315"
       inkscape:collect="always" />
    <linearGradient
       y2="-440.7139"
       x2="173.43343"
       y1="-459.7464"
       x1="155.51448"
       gradientTransform="matrix(0,1.20748,-0.828171,0,0,0)"
       gradientUnits="userSpaceOnUse"
       id="linearGradient8765"
       xlink:href="#linearGradient11462"
       inkscape:collect="always" />
    <linearGradient
       y2="165.6252"
       x2="-50.436199"
       y1="124.94588"
       x1="-50.436199"
       gradientTransform="matrix(2.13642,0,0,0.418246,623.245,181.423)"
       gradientUnits="userSpaceOnUse"
       id="linearGradient8622"
       xlink:href="#linearGradient2372"
       inkscape:collect="always" />
    <linearGradient
       y2="95.684341"
       x2="-31.586103"
       y1="109.7897"
       x1="-53.427612"
       gradientTransform="matrix(-0.867067,0,0,-0.594693,497.828,258.614)"
       gradientUnits="userSpaceOnUse"
       id="linearGradient8734"
       xlink:href="#linearGradient2315"
       inkscape:collect="always" />
    <linearGradient
       y2="-246.57704"
       x2="-434.33966"
       y1="-228.70355"
       x1="-451.30542"
       gradientTransform="scale(-1.20748,-0.828171)"
       gradientUnits="userSpaceOnUse"
       id="linearGradient8731"
       xlink:href="#linearGradient11462"
       inkscape:collect="always" />
    <linearGradient
       y2="165.6252"
       x2="-50.436199"
       y1="124.94588"
       x1="-50.436199"
       gradientTransform="matrix(2.13642,0,0,0.418246,553.072,180.304)"
       gradientUnits="userSpaceOnUse"
       id="linearGradient8328"
       xlink:href="#linearGradient2372"
       inkscape:collect="always" />
    <linearGradient
       y2="95.684341"
       x2="-31.586103"
       y1="109.7897"
       x1="-53.427612"
       gradientTransform="matrix(0,-0.867067,0.594693,0,393.881,233.799)"
       gradientUnits="userSpaceOnUse"
       id="linearGradient9017"
       xlink:href="#linearGradient2315"
       inkscape:collect="always" />
    <linearGradient
       y2="540.76831"
       x2="-232.25471"
       y1="558.79907"
       x1="-215.19727"
       gradientTransform="matrix(0,-1.20748,0.828171,0,0,0)"
       gradientUnits="userSpaceOnUse"
       id="linearGradient9014"
       xlink:href="#linearGradient7090"
       inkscape:collect="always" />
    <linearGradient
       y2="337.60022"
       x2="-505.8255"
       y1="358.67432"
       x1="-485.63391"
       gradientTransform="matrix(0,-0.80139,1.24783,0,0,0)"
       gradientUnits="userSpaceOnUse"
       id="linearGradient7754"
       xlink:href="#linearGradient11462"
       inkscape:collect="always" />
    <linearGradient
       y2="338.0029"
       x2="-476.01202"
       y1="358.80856"
       x1="-456.45148"
       gradientTransform="matrix(0,-0.80139,1.24783,0,0,0)"
       gradientUnits="userSpaceOnUse"
       id="linearGradient7756"
       xlink:href="#linearGradient11462"
       inkscape:collect="always" />
    <linearGradient
       y2="338.45248"
       x2="-413.24628"
       y1="361.03598"
       x1="-390.87134"
       gradientTransform="matrix(0,-0.80139,1.24783,0,-75.0106,3.7032)"
       gradientUnits="userSpaceOnUse"
       id="linearGradient7714"
       xlink:href="#linearGradient11462"
       inkscape:collect="always" />
    <linearGradient
       y2="-318.54547"
       x2="-575.34497"
       y1="-298.25281"
       x1="-593.22046"
       gradientTransform="scale(-0.80139,-1.24783)"
       gradientUnits="userSpaceOnUse"
       id="linearGradient7716"
       xlink:href="#linearGradient11462"
       inkscape:collect="always" />
    <linearGradient
       y2="-318.54547"
       x2="-546.16992"
       y1="-297.63159"
       x1="-563.7262"
       gradientTransform="scale(-0.80139,-1.24783)"
       gradientUnits="userSpaceOnUse"
       id="linearGradient7718"
       xlink:href="#linearGradient11462"
       inkscape:collect="always" />
    <linearGradient
       y2="-280.46561"
       x2="477.9736"
       y1="-301.67392"
       x1="458.62335"
       gradientTransform="matrix(0,0.80139,-1.24783,0,0,0)"
       gradientUnits="userSpaceOnUse"
       id="linearGradient7730"
       xlink:href="#linearGradient11462"
       inkscape:collect="always" />
    <linearGradient
       y2="-281.40521"
       x2="507.57675"
       y1="-301.27124"
       x1="488.85745"
       gradientTransform="matrix(0,0.80139,-1.24783,0,0,0)"
       gradientUnits="userSpaceOnUse"
       id="linearGradient7732"
       xlink:href="#linearGradient11462"
       inkscape:collect="always" />
    <linearGradient
       y2="267.08432"
       x2="341.68527"
       y1="247.41286"
       x1="358.60312"
       gradientTransform="matrix(0.80139,0,0,1.24783,-2.07758,45.7068)"
       gradientUnits="userSpaceOnUse"
       id="linearGradient7664"
       xlink:href="#linearGradient11462"
       inkscape:collect="always" />
    <linearGradient
       y2="267.08432"
       x2="341.68527"
       y1="247.41286"
       x1="358.60312"
       gradientTransform="matrix(0.80139,0,0,1.24783,21.8146,45.7068)"
       gradientUnits="userSpaceOnUse"
       id="linearGradient7666"
       xlink:href="#linearGradient11462"
       inkscape:collect="always" />
    <linearGradient
       y2="-267.71384"
       x2="-559.39771"
       y1="-246.08231"
       x1="-579.00195"
       gradientTransform="matrix(-0.80139,0,0,-1.24783,-11.9914,4.6899)"
       gradientUnits="userSpaceOnUse"
       id="linearGradient7377"
       xlink:href="#linearGradient11462"
       inkscape:collect="always" />
    <linearGradient
       y2="165.6252"
       x2="-50.436199"
       y1="124.94588"
       x1="-50.436199"
       gradientTransform="matrix(2.13642,0,0,0.418246,389.984,182.29)"
       gradientUnits="userSpaceOnUse"
       id="linearGradient10528"
       xlink:href="#linearGradient2372"
       inkscape:collect="always" />
    <linearGradient
       y2="95.684341"
       x2="-31.586103"
       y1="109.7897"
       x1="-53.427612"
       gradientTransform="matrix(0.867067,0,0,0.594693,300.868,509.52)"
       gradientUnits="userSpaceOnUse"
       id="linearGradient10530"
       xlink:href="#linearGradient2315"
       inkscape:collect="always" />
    <linearGradient
       y2="331.67487"
       x2="230.44843"
       y1="312.07166"
       x1="248.20323"
       gradientTransform="matrix(1.20748,0,0,0.828171,-24.6666,304.205)"
       gradientUnits="userSpaceOnUse"
       id="linearGradient10532"
       xlink:href="#linearGradient7090"
       inkscape:collect="always" />
    <linearGradient
       y2="165.6252"
       x2="-50.436199"
       y1="124.94588"
       x1="-50.436199"
       gradientTransform="matrix(2.13642,0,0,0.418246,475.356,179.745)"
       gradientUnits="userSpaceOnUse"
       id="linearGradient8322"
       xlink:href="#linearGradient2372"
       inkscape:collect="always" />
    <linearGradient
       y2="95.684341"
       x2="-31.586103"
       y1="109.7897"
       x1="-53.427612"
       gradientTransform="matrix(0,0.867067,-0.594693,0,434.301,307.465)"
       gradientUnits="userSpaceOnUse"
       id="linearGradient8963"
       xlink:href="#linearGradient2315"
       inkscape:collect="always" />
    <linearGradient
       y2="-441.21478"
       x2="233.06174"
       y1="-458.99512"
       x1="215.31508"
       gradientTransform="matrix(0,1.20748,-0.828171,0,0,0)"
       gradientUnits="userSpaceOnUse"
       id="linearGradient8960"
       xlink:href="#linearGradient7090"
       inkscape:collect="always" />
    <linearGradient
       y2="165.6252"
       x2="-50.436199"
       y1="124.94588"
       x1="-50.436199"
       gradientTransform="matrix(2.13642,0,0,0.418246,623.245,181.423)"
       gradientUnits="userSpaceOnUse"
       id="linearGradient8316"
       xlink:href="#linearGradient2372"
       inkscape:collect="always" />
    <linearGradient
       y2="95.684341"
       x2="-31.586103"
       y1="109.7897"
       x1="-53.427612"
       gradientTransform="matrix(-0.867067,0,0,-0.594693,497.828,330.614)"
       gradientUnits="userSpaceOnUse"
       id="linearGradient9071"
       xlink:href="#linearGradient2315"
       inkscape:collect="always" />
    <linearGradient
       y2="-333.89999"
       x2="-433.6821"
       y1="-315.64212"
       x1="-451.17389"
       gradientTransform="scale(-1.20748,-0.828171)"
       gradientUnits="userSpaceOnUse"
       id="linearGradient9068"
       xlink:href="#linearGradient7090"
       inkscape:collect="always" />
    <linearGradient
       y2="267.08432"
       x2="341.68527"
       y1="247.41286"
       x1="358.60312"
       gradientTransform="matrix(0.80139,0,0,1.24783,-83.3024,3.7614)"
       gradientUnits="userSpaceOnUse"
       id="linearGradient4220"
       xlink:href="#linearGradient11462"
       inkscape:collect="always" />
    <linearGradient
       y2="-287.17914"
       x2="412.94818"
       y1="-308.43417"
       x1="392.41861"
       gradientTransform="matrix(0,0.80139,-1.24783,0,-91.9808,2.8329)"
       gradientUnits="userSpaceOnUse"
       id="linearGradient4214"
       xlink:href="#linearGradient11462"
       inkscape:collect="always" />
    <inkscape:perspective
       id="perspective4507"
       inkscape:persp3d-origin="18.257139 : 9.2588469 : 1"
       inkscape:vp_z="36.514278 : 13.88827 : 1"
       inkscape:vp_y="0 : 1000 : 0"
       inkscape:vp_x="0 : 13.88827 : 1"
       sodipodi:type="inkscape:persp3d" />
    <linearGradient
       inkscape:collect="always"
       xlink:href="#linearGradient11462"
       id="linearGradient4570"
       gradientUnits="userSpaceOnUse"
       gradientTransform="matrix(1.3147694,1.0348815,0.70979559,-0.90176271,856.25823,706.11708)"
       x1="-369.46317"
       y1="-188.51805"
       x2="-495.14536"
       y2="44.285763" />
    <linearGradient
       inkscape:collect="always"
       xlink:href="#linearGradient3805"
       id="linearGradient4600"
       gradientUnits="userSpaceOnUse"
       gradientTransform="matrix(1,0,0,0.72727266,-223.3099,-426.3921)"
       x1="260.00003"
       y1="209.86221"
       x2="260.00003"
       y2="154.86221" />
    <linearGradient
       inkscape:collect="always"
       xlink:href="#linearGradient3758"
       id="linearGradient4602"
       gradientUnits="userSpaceOnUse"
       gradientTransform="matrix(1,0,0,1.1818181,-223.3099,183.24611)"
       x1="260.00003"
       y1="165.43912"
       x2="260.00003"
       y2="110.43911" />
    <linearGradient
       inkscape:collect="always"
       xlink:href="#linearGradient4576"
       id="linearGradient4604"
       gradientUnits="userSpaceOnUse"
       gradientTransform="matrix(1,0,0,1.1111111,-586.70341,-22.920679)"
       x1="259.98465"
       y1="294.87549"
       x2="259.98465"
       y2="159.87547" />
    <linearGradient
       inkscape:collect="always"
       xlink:href="#linearGradient4584"
       id="linearGradient3008"
       gradientUnits="userSpaceOnUse"
       gradientTransform="matrix(1,0,0,1.1111111,-386.70339,-44.407214)"
       x1="259.98465"
       y1="254.39526"
       x2="259.98465"
       y2="182.15208" />
    <linearGradient
       inkscape:collect="always"
       xlink:href="#linearGradient4517-1"
       id="linearGradient5701"
       gradientUnits="userSpaceOnUse"
       x1="260"
       y1="145.67984"
       x2="260"
       y2="65.773911"
       gradientTransform="matrix(1,0,0,0.3754415,-36.703392,71.043066)" />
    <linearGradient
       id="linearGradient4517-1">
      <stop
         style="stop-color:#af0000;stop-opacity:1;"
         offset="0"
         id="stop4519-7" />
      <stop
         style="stop-color:#ff0000;stop-opacity:0;"
         offset="1"
         id="stop4521-4" />
    </linearGradient>
    <linearGradient
       inkscape:collect="always"
       xlink:href="#linearGradient4535-0"
       id="linearGradient5731"
       gradientUnits="userSpaceOnUse"
       gradientTransform="matrix(1.205643,0,0,0.76722732,197.309,21.779169)"
       x1="260"
       y1="182.3622"
       x2="260"
       y2="119.50504" />
    <linearGradient
       id="linearGradient4535-0">
      <stop
         id="stop4537-9"
         offset="0"
         style="stop-color:#af0000;stop-opacity:1;" />
      <stop
         id="stop4539-4"
         offset="1"
         style="stop-color:#ff0000;stop-opacity:0" />
    </linearGradient>
    <linearGradient
       inkscape:collect="always"
       xlink:href="#linearGradient4557-8"
       id="linearGradient5733"
       gradientUnits="userSpaceOnUse"
       gradientTransform="matrix(1.205643,0,0,1.5344548,197.309,-33.739087)"
       x1="260"
       y1="178.43361"
       x2="260"
       y2="111.6479" />
    <linearGradient
       id="linearGradient4557-8">
      <stop
         style="stop-color:#0000af;stop-opacity:1;"
         offset="0"
         id="stop4559-8" />
      <stop
         style="stop-color:#ff0000;stop-opacity:0"
         offset="1"
         id="stop4561-2" />
    </linearGradient>
    <linearGradient
       inkscape:collect="always"
       xlink:href="#linearGradient4581-4"
       id="linearGradient5735"
       gradientUnits="userSpaceOnUse"
       gradientTransform="matrix(1.205643,0,0,1.3396033,197.309,-64.515922)"
       x1="260"
       y1="362.36218"
       x2="260"
       y2="209.36218" />
    <linearGradient
       inkscape:collect="always"
       id="linearGradient4581-4">
      <stop
         style="stop-color:#c87137;stop-opacity:1;"
         offset="0"
         id="stop4583-5" />
      <stop
         style="stop-color:#c87137;stop-opacity:0;"
         offset="1"
         id="stop4585-5" />
    </linearGradient>
    <linearGradient
       inkscape:collect="always"
       xlink:href="#linearGradient4517-1"
       id="linearGradient5705"
       gradientUnits="userSpaceOnUse"
       gradientTransform="matrix(1.205643,0,0,0.45264842,257.59114,59.581382)"
       x1="260"
       y1="145.67984"
       x2="260"
       y2="65.773911" />
    <linearGradient
       id="linearGradient3099">
      <stop
         style="stop-color:#af0000;stop-opacity:1;"
         offset="0"
         id="stop3101" />
      <stop
         style="stop-color:#ff0000;stop-opacity:0;"
         offset="1"
         id="stop3103" />
    </linearGradient>
    <linearGradient
       inkscape:collect="always"
       xlink:href="#linearGradient4517-1"
       id="linearGradient5709"
       gradientUnits="userSpaceOnUse"
       gradientTransform="matrix(1.205643,0,0,0.45264842,317.8733,59.581394)"
       x1="260"
       y1="145.67984"
       x2="260"
       y2="65.773911" />
    <linearGradient
       id="linearGradient3106">
      <stop
         style="stop-color:#af0000;stop-opacity:1;"
         offset="0"
         id="stop3108" />
      <stop
         style="stop-color:#ff0000;stop-opacity:0;"
         offset="1"
         id="stop3110" />
    </linearGradient>
    <linearGradient
       inkscape:collect="always"
       xlink:href="#linearGradient4517-1"
       id="linearGradient5713"
       gradientUnits="userSpaceOnUse"
       gradientTransform="matrix(1.205643,0,0,0.45264842,378.15545,59.581382)"
       x1="260"
       y1="145.67984"
       x2="260"
       y2="65.773911" />
    <linearGradient
       id="linearGradient3113">
      <stop
         style="stop-color:#af0000;stop-opacity:1;"
         offset="0"
         id="stop3115" />
      <stop
         style="stop-color:#ff0000;stop-opacity:0;"
         offset="1"
         id="stop3117" />
    </linearGradient>
    <marker
       inkscape:stockid="Arrow1Mstart"
       orient="auto"
       refY="0"
       refX="0"
       id="Arrow1Mstart-1"
       style="overflow:visible">
      <path
         inkscape:connector-curvature="0"
         id="path3166-7"
         d="M 0,0 5,-5 -12.5,0 5,5 0,0 z"
         style="fill-rule:evenodd;stroke:#000000;stroke-width:1pt;marker-start:none"
         transform="matrix(0.4,0,0,0.4,4,0)" />
    </marker>
    <marker
       inkscape:stockid="Arrow1Mend"
       orient="auto"
       refY="0"
       refX="0"
       id="Arrow1Mend-1"
       style="overflow:visible">
      <path
         inkscape:connector-curvature="0"
         id="path3169-1"
         d="M 0,0 5,-5 -12.5,0 5,5 0,0 z"
         style="fill-rule:evenodd;stroke:#000000;stroke-width:1pt;marker-start:none"
         transform="matrix(-0.4,0,0,-0.4,-4,0)" />
    </marker>
    <linearGradient
       y2="65.773911"
       x2="260"
       y1="145.67984"
       x1="260"
       gradientTransform="matrix(1.205643,0,0,0.45264842,197.309,59.581382)"
       gradientUnits="userSpaceOnUse"
       id="linearGradient3167"
       xlink:href="#linearGradient4517-1"
       inkscape:collect="always" />
  </defs>
  <sodipodi:namedview
     id="base"
     pagecolor="#ffffff"
     bordercolor="#666666"
     borderopacity="1.0"
     gridtolerance="10000"
     guidetolerance="10"
     objecttolerance="10"
     inkscape:pageopacity="0.0"
     inkscape:pageshadow="2"
     inkscape:zoom="1.4142136"
     inkscape:cx="313.2277"
     inkscape:cy="272.84759"
     inkscape:document-units="px"
     inkscape:current-layer="layer2"
     showgrid="true"
     inkscape:window-width="1664"
     inkscape:window-height="1000"
     inkscape:window-x="0"
     inkscape:window-y="14"
     inkscape:window-maximized="0"
     inkscape:snap-grids="true"
     fit-margin-top="10"
     fit-margin-left="10"
     fit-margin-right="10"
     fit-margin-bottom="10">
    <inkscape:grid
       type="xygrid"
       id="grid2383"
       visible="true"
       enabled="true"
       empspacing="5"
       snapvisiblegridlinesonly="true" />
  </sodipodi:namedview>
  <metadata
     id="metadata7">
    <rdf:RDF>
      <cc:Work
         rdf:about="">
        <dc:format>image/svg+xml</dc:format>
        <dc:type
           rdf:resource="http://purl.org/dc/dcmitype/StillImage" />
        <dc:title></dc:title>
      </cc:Work>
    </rdf:RDF>
  </metadata>
  <g
     inkscape:groupmode="layer"
     id="layer2"
     inkscape:label="Bottom"
     style="display:inline"
     transform="translate(-39.668587,-43.5625)">
    <rect
       style="fill:url(#linearGradient4600);fill-opacity:1;fill-rule:evenodd;stroke:none;display:inline"
       id="rect4592"
       width="200"
       height="40"
       x="136.69008"
       y="-313.76505"
       transform="scale(1,-1)" />
    <rect
       y="313.76505"
       x="136.69008"
       height="65"
       width="200"
       id="rect4594"
       style="fill:url(#linearGradient4602);fill-opacity:1;fill-rule:evenodd;stroke:none;display:inline" />
    <path
       transform="matrix(1,0,0,0.26666667,363.40884,337.50672)"
       d="m -226.71875,154.71875 0,150 200,0 0,-150 -200,0 z"
       id="path4596"
       style="fill:url(#linearGradient4604);fill-opacity:1;fill-rule:evenodd;stroke:none;display:inline"
       inkscape:original="M -226.71875 154.71875 L -226.71875 304.71875 L -26.71875 304.71875 L -26.71875 154.71875 L -226.71875 154.71875 z "
       inkscape:radius="0"
       sodipodi:type="inkscape:offset" />
    <path
       id="path4334"
       style="fill:#000000;fill-opacity:1;fill-rule:evenodd;stroke:#000000;stroke-width:0.40000001;stroke-miterlimit:4;stroke-opacity:1;stroke-dasharray:none"
       d="m 181.89013,428.96505 110,0 0,10 -110,0 0,-10 z"
       inkscape:connector-curvature="0" />
    <rect
       y="178.76501"
       x="136.69005"
       height="40"
       width="200"
       id="rect3801"
       style="fill:url(#linearGradient3953);fill-opacity:1;fill-rule:evenodd;stroke:none;display:inline" />
    <rect
       style="fill:url(#linearGradient3951);fill-opacity:1;fill-rule:evenodd;stroke:none;display:inline"
       id="rect4525"
       width="200"
       height="65"
       x="136.69005"
       y="-178.76501"
       transform="scale(1,-1)" />
    <path
       sodipodi:type="inkscape:offset"
       inkscape:radius="0"
       inkscape:original="M -226.71875 154.71875 L -226.71875 304.71875 L -26.71875 304.71875 L -26.71875 154.71875 L -226.71875 154.71875 z "
       style="fill:url(#linearGradient3949);fill-opacity:1;fill-rule:evenodd;stroke:none;display:inline"
       id="path3752"
       d="m -226.71875,154.71875 0,150 200,0 0,-150 -200,0 z"
       transform="matrix(1,0,0,-0.26666667,363.40884,155.02338)" />
    <path
       style="fill:none;stroke:#000000;stroke-width:0.99999994px;stroke-linecap:round;stroke-linejoin:miter;stroke-opacity:1"
       d="m 131.69009,74.015038 c -6.96296,0 -6.96296,0 -6.96296,16.437201 0,2.528803 -8.70371,2.528803 -8.70371,2.528803 0,0 8.70371,0 8.70371,2.528796 0,16.437182 0,16.437182 6.96296,16.437182"
       id="path5670"
       sodipodi:nodetypes="ccccc"
       inkscape:connector-curvature="0" />
    <path
       sodipodi:nodetypes="ccccc"
       id="path5672"
       d="m 131.69009,115.6055 c -6.96296,0 -6.96296,0 -6.96296,24.43645 0,3.75943 -8.70371,3.75943 -8.70371,3.75943 0,0 8.70371,0 8.70371,3.75948 0,24.43643 0,24.43643 6.96296,24.43643"
       style="fill:none;stroke:#000000;stroke-width:0.99999988px;stroke-linecap:round;stroke-linejoin:miter;stroke-opacity:1"
       inkscape:connector-curvature="0" />
    <path
       style="fill:none;stroke:#000000;stroke-width:0.99999994px;stroke-linecap:round;stroke-linejoin:miter;stroke-opacity:1;display:inline"
       d="m 131.69009,175.98686 c -6.96296,0 -6.96296,0 -6.96296,18.5372 0,2.85188 -8.70371,2.85188 -8.70371,2.85188 0,0 8.70371,0 8.70371,2.85188 0,18.53721 0,18.53721 6.96296,18.53721"
       id="path5676"
       sodipodi:nodetypes="ccccc"
       inkscape:connector-curvature="0" />
    <text
       xml:space="preserve"
       style="font-size:10px;font-style:normal;font-variant:normal;font-weight:normal;font-stretch:normal;text-align:center;line-height:100%;writing-mode:lr-tb;text-anchor:middle;fill:#000000;fill-opacity:1;stroke:none;font-family:Calibri;-inkscape-font-specification:Calibri"
       x="90.802422"
       y="94.044693"
       id="text5678"
       sodipodi:linespacing="100%"><tspan
         sodipodi:role="line"
         x="90.802422"
         y="94.044693"
         id="tspan2454">Epidermis</tspan></text>
    <text
       xml:space="preserve"
       style="font-size:10px;font-style:normal;font-variant:normal;font-weight:normal;font-stretch:normal;text-align:center;line-height:100%;writing-mode:lr-tb;text-anchor:middle;fill:#000000;fill-opacity:1;stroke:none;display:inline;font-family:Calibri;-inkscape-font-specification:Calibri"
       x="89.146172"
       y="147.54466"
       id="text5682"
       sodipodi:linespacing="100%"><tspan
         sodipodi:role="line"
         x="89.146172"
         y="147.54466"
         id="tspan2452">Dermis</tspan></text>
    <path
       style="fill:none;stroke:#ff0000;stroke-width:1;stroke-linecap:butt;stroke-linejoin:miter;stroke-miterlimit:4;stroke-opacity:1;stroke-dasharray:none"
       d="m 136.53246,126.19135 c 15.11529,-5.86597 29.99519,-0.72284 44.48327,4.58016 14.59877,1.19509 28.85919,-9.18709 43.34652,-2.88562 13.51826,6.84114 24.87322,-6.60418 38.15154,-6.53776 16.18675,0.72136 32.69154,5.87799 48.59266,-0.0912 10.00995,-1.94974 16.01058,-4.06214 25.58364,-0.0656"
       id="path3780"
       sodipodi:nodetypes="cccccc"
       inkscape:connector-curvature="0" />
    <path
       style="fill:none;stroke:#0000ff;stroke-width:1;stroke-linecap:butt;stroke-linejoin:miter;stroke-miterlimit:4;stroke-opacity:1;stroke-dasharray:none"
       d="m 136.53246,131.19135 c 13.65005,1.03401 34.65235,0.47971 47.43416,-5.77718 10.90391,-5.86865 20.16722,6.45414 30.95269,6.35087 11.63685,0.97102 22.00584,-5.73862 32.99884,-8.38268 10.1629,-1.61366 19.69488,5.64262 29.96084,2.94955 9.77102,-3.73341 20.55616,-6.98302 30.82249,-3.14246 9.08006,4.14011 12.52188,4.0019 19.80034,4.0019 l 8.18827,-1"
       id="path3790"
       sodipodi:nodetypes="cccccccc"
       inkscape:connector-curvature="0" />
    <path
       sodipodi:nodetypes="cccccc"
       id="path3795"
       d="m 136.53246,126.19135 c 15.11529,-5.86597 29.99519,-0.72284 44.48327,4.58016 14.59877,1.19509 28.85919,-9.18709 43.34652,-2.88562 13.51826,6.84114 24.87322,-6.60418 38.15154,-6.53776 16.18675,0.72136 32.69154,5.87799 48.59266,-0.0912 10.00995,-1.94974 16.01058,-4.06214 25.58364,-0.0656"
       style="fill:none;stroke:#ff0000;stroke-width:1;stroke-linecap:butt;stroke-linejoin:miter;stroke-miterlimit:4;stroke-opacity:1;stroke-dasharray:none"
       inkscape:connector-curvature="0" />
    <path
       sodipodi:nodetypes="cccccccc"
       id="path3797"
       d="m 136.53246,213.19135 c 13.65005,1.03401 34.65235,0.47971 47.43416,-5.77718 10.90391,-5.86865 20.16722,6.45414 30.95269,6.35087 11.63685,0.97102 22.00584,-5.73862 32.99884,-8.38268 10.1629,-1.61366 19.69488,5.64262 29.96084,2.94955 9.77102,-3.73341 20.55616,-6.98302 30.82249,-3.14246 9.08006,4.14011 12.52188,4.0019 19.80034,4.0019 l 8.18827,-1"
       style="fill:none;stroke:#0000ff;stroke-width:2.4000001;stroke-linecap:butt;stroke-linejoin:miter;stroke-miterlimit:4;stroke-opacity:1;stroke-dasharray:none"
       inkscape:connector-curvature="0" />
    <path
       style="fill:none;stroke:#ff0000;stroke-width:2.4000001;stroke-linecap:butt;stroke-linejoin:miter;stroke-miterlimit:4;stroke-opacity:1;stroke-dasharray:none"
       d="m 136.53246,208.19135 c 15.11529,-5.86597 29.99519,-0.72284 44.48327,4.58016 14.59877,1.19509 28.85919,-9.18709 43.34652,-2.88562 13.51826,6.84114 24.87322,-6.60418 38.15154,-6.53776 16.18675,0.72136 32.69154,5.87799 48.59266,-0.0912 10.00995,-1.94974 16.01058,-4.06214 25.58364,-0.0656"
       id="path3799"
       sodipodi:nodetypes="cccccc"
       inkscape:connector-curvature="0" />
    <text
       sodipodi:linespacing="100%"
       id="text3813"
       y="197.04214"
       x="81.72155"
       style="font-size:10px;font-style:normal;font-variant:normal;font-weight:normal;font-stretch:normal;text-align:center;line-height:100%;writing-mode:lr-tb;text-anchor:middle;fill:#000000;fill-opacity:1;stroke:none;display:inline;font-family:Calibri;-inkscape-font-specification:Calibri"
       xml:space="preserve"><tspan
         id="tspan3815"
         y="197.04214"
         x="81.72155"
         sodipodi:role="line">Subcutaneous</tspan><tspan
         y="207.04214"
         x="81.72155"
         sodipodi:role="line"
         id="tspan3817">tissue (fat)</tspan></text>
    <path
       transform="matrix(1,0,0,-0.16560211,363.40884,269.3868)"
       d="m -226.71875,154.71875 0,150 200,0 0,-150 -200,0 z"
       id="path3819"
       style="fill:url(#linearGradient3947);fill-opacity:1;fill-rule:evenodd;stroke:none;display:inline"
       inkscape:original="M -226.71875 154.71875 L -226.71875 304.71875 L -26.71875 304.71875 L -26.71875 154.71875 L -226.71875 154.71875 z "
       inkscape:radius="0"
       sodipodi:type="inkscape:offset" />
    <path
       sodipodi:nodetypes="ccccc"
       id="path3833"
       d="m 131.69009,222.65591 c -6.96296,0 -6.96296,0 -6.96296,22.21415 0,3.41757 -8.70371,3.41757 -8.70371,3.41757 0,0 8.70371,0 8.70371,3.41756 0,22.21417 0,22.21417 6.96296,22.21417"
       style="fill:none;stroke:#000000;stroke-width:0.99999988px;stroke-linecap:round;stroke-linejoin:miter;stroke-opacity:1;display:inline"
       inkscape:connector-curvature="0" />
    <text
       xml:space="preserve"
       style="font-size:10px;font-style:normal;font-variant:normal;font-weight:normal;font-stretch:normal;text-align:center;line-height:100%;writing-mode:lr-tb;text-anchor:middle;fill:#000000;fill-opacity:1;stroke:none;display:inline;font-family:Calibri;-inkscape-font-specification:Calibri"
       x="79.600227"
       y="250.7823"
       id="text3835"
       sodipodi:linespacing="100%"><tspan
         id="tspan3839"
         sodipodi:role="line"
         x="79.600227"
         y="250.7823">Muscle &amp; Bone</tspan></text>
    <path
       style="fill:none;stroke:#ff0000;stroke-width:1px;stroke-linecap:butt;stroke-linejoin:miter;stroke-opacity:1"
       d="m 152.049,205.47363 c 3.50232,-5.51089 4.76803,-15.12929 3.70557,-21.49749 -0.90512,-8.20161 -3.52523,-16.42486 -2.09071,-24.71627 1.29837,-4.99209 4.60078,-9.24334 5.46874,-14.38348 1.98686,-7.88466 -1.63476,-13.10818 -3.18566,-20.96015"
       id="path3843"
       sodipodi:nodetypes="ccccc"
       inkscape:connector-curvature="0" />
    <path
       style="fill:none;stroke:#0000ff;stroke-width:1px;stroke-linecap:butt;stroke-linejoin:miter;stroke-opacity:1"
       d="m 145.68504,213.07502 c -3.63247,-12.65064 5.22402,-26.48201 -2.83519,-38.4008 -3.52923,-12.47237 9.69465,-20.2199 4.7844,-35.56258 -0.79298,-2.72141 -1.2225,-4.70772 -1.5957,-7.53067"
       id="path3853"
       sodipodi:nodetypes="cccc"
       inkscape:connector-curvature="0" />
    <path
       sodipodi:nodetypes="cccc"
       id="path3861"
       d="m 293.08778,203.60334 c -3.63247,-12.65064 5.22402,-26.48201 -2.83519,-38.4008 -3.52923,-12.47237 9.69465,-20.2199 4.7844,-35.56258 -0.79298,-2.72141 -1.2225,-4.70772 -1.5957,-7.53067"
       style="fill:none;stroke:#0000ff;stroke-width:1px;stroke-linecap:butt;stroke-linejoin:miter;stroke-opacity:1"
       inkscape:connector-curvature="0" />
    <path
       sodipodi:nodetypes="ccccc"
       id="path3863"
       d="m 308.549,204.22363 c 3.50232,-5.51089 4.76803,-15.12929 3.70557,-21.49749 -0.90512,-8.20161 -3.52523,-16.42486 -2.09071,-24.71627 1.29837,-4.99209 4.60078,-9.24334 5.46874,-14.38348 1.98686,-7.88466 -2.44726,-14.35818 -3.99816,-22.21015"
       style="fill:none;stroke:#ff0000;stroke-width:1px;stroke-linecap:butt;stroke-linejoin:miter;stroke-opacity:1"
       inkscape:connector-curvature="0" />
    <path
       sodipodi:nodetypes="cccccc"
       id="path3961"
       d="m 137.20682,367.34521 c 15.11529,5.86597 29.99519,0.72284 44.48327,-4.58016 14.59877,-1.19509 28.85919,9.18709 43.34652,2.88562 13.51826,-6.84114 24.87322,6.60418 38.15154,6.53776 16.18675,-0.72136 32.69154,-5.87799 48.59266,0.0912 10.00995,1.94974 16.01058,4.06214 25.58364,0.0656"
       style="fill:none;stroke:#ff0000;stroke-width:1;stroke-linecap:butt;stroke-linejoin:miter;stroke-miterlimit:4;stroke-opacity:1;stroke-dasharray:none"
       inkscape:connector-curvature="0" />
    <path
       sodipodi:nodetypes="cccccccc"
       id="path3963"
       d="m 137.11445,372.45902 c 17.26752,-9.13774 34.74472,-10.59352 47.52653,-4.33663 10.90391,5.86865 20.16722,-6.45414 30.95269,-6.35087 11.63685,-0.97102 22.00584,5.73862 32.99884,8.38268 10.1629,1.61366 19.69488,-5.64262 29.96084,-2.94955 9.77102,3.73341 20.55616,6.98302 30.82249,3.14246 9.08006,-4.14011 12.52188,-4.0019 19.80034,-4.0019 l 8.18827,1"
       style="fill:none;stroke:#ff0000;stroke-width:1;stroke-linecap:butt;stroke-linejoin:miter;stroke-miterlimit:4;stroke-opacity:1;stroke-dasharray:none"
       inkscape:connector-curvature="0" />
    <path
       style="fill:none;stroke:#0000ff;stroke-width:1;stroke-linecap:butt;stroke-linejoin:miter;stroke-miterlimit:4;stroke-opacity:1;stroke-dasharray:none"
       d="m 137.20682,367.34521 c 15.11529,5.86597 29.99519,0.72284 44.48327,-4.58016 14.59877,-1.19509 28.85919,9.18709 43.34652,2.88562 13.51826,-6.84114 24.87322,6.60418 38.15154,6.53776 16.18675,-0.72136 32.69154,-5.87799 48.59266,0.0912 10.00995,1.94974 16.01058,4.06214 25.58364,0.0656"
       id="path3965"
       sodipodi:nodetypes="cccccc"
       inkscape:connector-curvature="0" />
    <path
       style="fill:none;stroke:#ff0000;stroke-width:2.4000001;stroke-linecap:butt;stroke-linejoin:miter;stroke-miterlimit:4;stroke-opacity:1;stroke-dasharray:none"
       d="m 136.45682,290.72021 c 15.40005,-4.65901 35.40235,-10.85471 48.18416,-4.59782 10.90391,5.86865 20.16722,-6.45414 30.95269,-6.35087 11.63685,-0.97102 22.00584,5.73862 32.99884,8.38268 10.1629,1.61366 19.69488,-5.64262 29.96084,-2.94955 9.77102,3.73341 20.55616,6.98302 30.82249,3.14246 9.08006,-4.14011 12.52188,-4.0019 19.80034,-4.0019 l 8.18827,1"
       id="path3967"
       sodipodi:nodetypes="cccccccc"
       inkscape:connector-curvature="0" />
    <path
       sodipodi:nodetypes="ccccc"
       id="path3973"
       d="m 211.03586,280.75043 c -1.24768,7.38589 1.20553,19.44179 0.14307,25.80999 -0.90512,8.20161 -2.55296,10.94478 -1.11844,19.23619 1.29837,4.99209 3.62851,10.34842 4.49647,15.48856 1.98686,7.88466 -1.63476,13.10818 -3.18566,20.96015"
       style="fill:none;stroke:#ff0000;stroke-width:1px;stroke-linecap:butt;stroke-linejoin:miter;stroke-opacity:1"
       inkscape:connector-curvature="0" />
    <path
       sodipodi:nodetypes="cccccc"
       id="path3969"
       d="m 137.20682,285.34521 c 15.11529,5.86597 29.99519,0.72284 44.48327,-4.58016 14.59877,-1.19509 28.85919,9.18709 43.34652,2.88562 13.51826,-6.84114 24.87322,6.60418 38.15154,6.53776 16.18675,-0.72136 32.69154,-5.87799 48.59266,0.0912 10.00995,1.94974 16.01058,4.06214 25.58364,0.0656"
       style="fill:none;stroke:#0000ff;stroke-width:2.4000001;stroke-linecap:butt;stroke-linejoin:miter;stroke-miterlimit:4;stroke-opacity:1;stroke-dasharray:none"
       inkscape:connector-curvature="0" />
    <path
       sodipodi:nodetypes="cccc"
       id="path3975"
       d="m 198.9844,282.96154 c -0.25747,13.77564 3.91152,19.23201 -0.96019,31.9008 -3.52923,12.47237 9.69465,20.2199 4.7844,35.56258 -0.79298,2.72141 -2.2225,8.20772 -2.2207,15.03067"
       style="fill:none;stroke:#0000ff;stroke-width:1px;stroke-linecap:butt;stroke-linejoin:miter;stroke-opacity:1"
       inkscape:connector-curvature="0" />
    <path
       style="fill:none;stroke:#ff0000;stroke-width:1px;stroke-linecap:butt;stroke-linejoin:miter;stroke-opacity:1"
       d="m 293.76214,289.93322 c -3.63247,12.65064 5.22402,26.48201 -2.83519,38.4008 -3.52923,12.47237 9.69465,20.2199 4.7844,35.56258 -0.79298,2.72141 -1.2225,4.70772 -1.5957,7.53067"
       id="path3977"
       sodipodi:nodetypes="cccc"
       inkscape:connector-curvature="0" />
    <path
       style="fill:none;stroke:#0000ff;stroke-width:1px;stroke-linecap:butt;stroke-linejoin:miter;stroke-opacity:1"
       d="m 309.22336,289.31293 c 3.50232,5.51089 4.76803,15.12929 3.70557,21.49749 -0.90512,8.20161 -3.52523,16.42486 -2.09071,24.71627 1.29837,4.99209 4.60078,9.24334 5.46874,14.38348 1.98686,7.88466 -2.44726,14.35818 -3.99816,22.21015"
       id="path3979"
       sodipodi:nodetypes="ccccc"
       inkscape:connector-curvature="0" />
    <path
       d="m 191.89009,418.96505 89.8,0 0,9.8 -89.8,0 0,-9.8 z"
       style="fill:#c4c0c0;fill-opacity:1;fill-rule:evenodd;stroke:#000000;stroke-width:0.40000001;stroke-miterlimit:4;stroke-opacity:1;stroke-dasharray:none"
       id="path4015"
       inkscape:connector-curvature="0" />
    <text
       id="text4089"
       x="217.66365"
       y="435.77563"
       style="font-size:10px;font-style:normal;font-variant:normal;font-weight:normal;font-stretch:normal;text-align:start;line-height:125%;writing-mode:lr-tb;text-anchor:start;stroke-width:0.40000001;stroke-miterlimit:4;stroke-dasharray:none;font-family:Arial;-inkscape-font-specification:Arial"
       transform="scale(0.99888265,1.0011186)"
       sodipodi:linespacing="125%">
      <tspan
         style="font-size:10px;font-style:normal;font-variant:normal;font-weight:bold;font-stretch:normal;text-align:start;line-height:125%;writing-mode:lr-tb;text-anchor:start;fill:#ffffff;fill-opacity:1;fill-rule:nonzero;stroke:none;font-family:Calibri;-inkscape-font-specification:Calibri Bold"
         x="217.66365 222.29723 226.93077 231.56433 233.87914 238.5127 243.14622 244.99725 249.6308 254.26437"
         y="435.77563"
         sodipodi:role="line"
         id="tspan4091">photodiode</tspan>
    </text>
    <path
       d="m 181.89013,428.96505 10,0 0,10 -10,0 0,-10 z"
       style="fill:#ffc000;fill-opacity:1;fill-rule:evenodd;stroke:#000000;stroke-width:0.40000001;stroke-miterlimit:4;stroke-opacity:1;stroke-dasharray:none"
       id="path4113"
       inkscape:connector-curvature="0" />
    <path
       id="path4336"
       style="fill:#ffc000;fill-opacity:1;fill-rule:evenodd;stroke:#000000;stroke-width:0.40000001;stroke-miterlimit:4;stroke-opacity:1;stroke-dasharray:none"
       d="m 281.89013,428.96505 10,0 0,10 -10,0 0,-10 z"
       inkscape:connector-curvature="0" />
    <path
       d="m 182.01685,63.765042 109.67324,0 0,-10 -109.67324,0 0,10 z"
       style="fill:#d9d9d9;fill-opacity:1;fill-rule:evenodd;stroke:#000000;stroke-width:0.40000001;stroke-miterlimit:4;stroke-opacity:1;stroke-dasharray:none"
       id="path4023"
       inkscape:connector-curvature="0" />
    <path
       d="m 191.98714,63.765042 c 0,5.525757 20.09065,10 44.86634,10 24.77566,0 44.86631,-4.474243 44.86631,-10 0,0 0,0 0,0 l 0,0 -89.73265,0 z"
       style="fill:#d9d9d9;fill-opacity:1;fill-rule:evenodd;stroke:#000000;stroke-width:0.40000001;stroke-miterlimit:4;stroke-opacity:1;stroke-dasharray:none"
       id="path4027"
       inkscape:connector-curvature="0" />
    <text
       id="text4093"
       x="452.31213"
       y="61.854954"
       style="font-size:9.98513603px;font-style:normal;font-variant:normal;font-weight:normal;font-stretch:normal;text-align:start;line-height:125%;writing-mode:lr-tb;text-anchor:start;font-family:Arial;-inkscape-font-specification:Arial"
       sodipodi:linespacing="125%"
       transform="scale(0.99851362,1.0014886)">
      <tspan
         style="font-size:10px;font-style:italic;font-variant:normal;font-weight:bold;font-stretch:normal;text-align:end;line-height:125%;writing-mode:lr-tb;text-anchor:end;fill:#000000;fill-opacity:1;fill-rule:nonzero;stroke:none;font-family:Arial;-inkscape-font-specification:Arial Bold Italic"
         sodipodi:role="line"
         id="tspan4095"
         x="452.31213"
         y="61.854954" />
    </text>
    <path
       id="path4369"
       style="fill:#c80000;fill-opacity:1;fill-rule:evenodd;stroke:#000000;stroke-width:0.40000001;stroke-miterlimit:4;stroke-opacity:1;stroke-dasharray:none"
       d="m 216.58709,65.765042 18.27232,0 0,-2 -18.27232,0 0,2 z"
       inkscape:connector-curvature="0" />
    <path
       d="m 238.84753,65.765042 18.27232,0 0,-2 -18.27232,0 0,2 z"
       style="fill:#000000;fill-opacity:1;fill-rule:evenodd;stroke:#000000;stroke-width:0.40000001;stroke-miterlimit:4;stroke-opacity:1;stroke-dasharray:none"
       id="path4371"
       inkscape:connector-curvature="0" />
    <text
       xml:space="preserve"
       style="font-size:10px;font-style:normal;font-weight:normal;fill:#000000;fill-opacity:1;stroke:none;font-family:Arial;-inkscape-font-specification:Arial"
       x="215.21841"
       y="61.683262"
       id="text4373"><tspan
         sodipodi:role="line"
         id="tspan4375"
         x="215.21841"
         y="61.683262"
         style="font-style:normal;font-variant:normal;font-weight:bold;font-stretch:normal;font-family:Calibri;-inkscape-font-specification:Calibri Bold">Dual-LED</tspan></text>
    <path
       sodipodi:type="inkscape:offset"
       inkscape:radius="0"
       inkscape:original="M -226.71875 154.71875 L -226.71875 304.71875 L -26.71875 304.71875 L -26.71875 154.71875 L -226.71875 154.71875 z "
       style="fill:url(#linearGradient3008);fill-opacity:1;fill-rule:evenodd;stroke:none;display:inline"
       id="path3006"
       d="m -226.71875,154.71875 0,150 200,0 0,-150 -200,0 z"
       transform="matrix(1,0,0,0.16560211,363.40884,223.30298)" />
    <path
       style="color:#000000;fill:url(#linearGradient4570);fill-opacity:1;fill-rule:nonzero;stroke:#000000;stroke-width:1;stroke-linecap:butt;stroke-linejoin:round;stroke-miterlimit:4;stroke-opacity:1;stroke-dasharray:none;stroke-dashoffset:0;marker:none;visibility:visible;display:inline;overflow:visible"
       d="m 221.69012,398.74745 4.99997,0.0176 0,-320.000002 20,0 -1.4e-4,320.070382 4.99997,0.0176 -15.0527,14.9471 -14.9471,-15.0527 0,2e-5 z"
       id="path10079"
       sodipodi:nodetypes="ccccccccc"
       inkscape:connector-curvature="0" />
    <path
       inkscape:connector-curvature="0"
       style="fill:url(#linearGradient3167);fill-opacity:1;fill-rule:nonzero;stroke:#000000;stroke-width:1px;stroke-linecap:round;stroke-linejoin:miter;stroke-opacity:1;display:inline"
       d="m 390.21188,119.49491 c 6.02821,0 12.05644,-36.173078 18.08464,-36.169278 6.01814,0.004 6.02823,18.084628 12.05645,18.084628 6.02821,0 6.02821,-6.028208 12.05643,-6.028208 6.02821,0 12.05643,24.112858 18.08464,24.112858"
       id="path4460"
       sodipodi:nodetypes="csccc" />
    <rect
       style="fill:url(#linearGradient5731);fill-opacity:1;fill-rule:evenodd;stroke:none;display:inline"
       id="rect4525-5"
       width="241.1286"
       height="42.197506"
       x="390.21191"
       y="119.49493" />
    <rect
       style="fill:url(#linearGradient5733);fill-opacity:1;fill-rule:evenodd;stroke:none;display:inline"
       id="rect4553"
       width="241.1286"
       height="84.395012"
       x="390.21191"
       y="161.69243" />
    <rect
       style="fill:url(#linearGradient5735);fill-opacity:1;fill-rule:evenodd;stroke:none;display:inline"
       id="rect4571"
       width="241.1286"
       height="180.84645"
       x="390.21191"
       y="240.05923" />
    <path
       inkscape:connector-curvature="0"
       style="fill:none;stroke:#000000;stroke-width:0.99999988px;stroke-linecap:round;stroke-linejoin:miter;stroke-opacity:1;display:inline"
       d="m 633.29525,84.572892 c 8.39484,0 8.39484,0 8.39484,14.59302 0,2.245078 10.49357,2.245078 10.49357,2.245078 0,0 -10.49357,0 -10.49357,2.24507 0,14.59301 0,14.59301 -8.39484,14.59301"
       id="path5670-2"
       sodipodi:nodetypes="ccccc" />
    <path
       inkscape:connector-curvature="0"
       sodipodi:nodetypes="ccccc"
       id="path5672-7"
       d="m 633.29525,120.74177 c 8.39484,0 8.39484,0 8.39484,17.20798 0,2.64737 10.49357,2.64737 10.49357,2.64737 0,0 -10.49357,0 -10.49357,2.64741 0,17.20796 0,17.20796 -8.39484,17.20796"
       style="fill:none;stroke:#000000;stroke-width:1px;stroke-linecap:round;stroke-linejoin:miter;stroke-opacity:1;display:inline" />
    <path
       inkscape:connector-curvature="0"
       style="fill:none;stroke:#000000;stroke-width:0.99999988px;stroke-linecap:round;stroke-linejoin:miter;stroke-opacity:1;display:inline"
       d="m 633.29525,162.93279 c 8.39484,0 8.39484,0 8.39484,35.50386 0,5.46212 10.49357,5.46212 10.49357,5.46212 0,0 -10.49357,0 -10.49357,5.46215 0,35.50386 0,35.50386 -8.39484,35.50386"
       id="path5674"
       sodipodi:nodetypes="ccccc" />
    <path
       inkscape:connector-curvature="0"
       style="fill:none;stroke:#000000;stroke-width:0.99999994px;stroke-linecap:round;stroke-linejoin:miter;stroke-opacity:1;display:inline"
       d="m 633.29525,247.34483 c 8.39484,0 8.39484,0 8.39484,73.73308 0,11.34352 10.49357,11.34352 10.49357,11.34352 0,0 -10.49357,0 -10.49357,11.34361 0,73.73309 0,73.73309 -8.39484,73.73309"
       id="path5676-6"
       sodipodi:nodetypes="ccccc" />
    <text
       xml:space="preserve"
       style="font-size:10px;font-style:normal;font-variant:normal;font-weight:normal;font-stretch:normal;text-align:start;line-height:100%;writing-mode:lr-tb;text-anchor:start;fill:#000000;fill-opacity:1;stroke:none;display:inline;font-family:Calibri;-inkscape-font-specification:Calibri"
       x="661.63544"
       y="99.498146"
       id="text5678-1"
       sodipodi:linespacing="100%"><tspan
         sodipodi:role="line"
         id="tspan5680"
         x="661.63544"
         y="99.498146">Pulsating</tspan><tspan
         sodipodi:role="line"
         x="661.63544"
         y="109.49815"
         id="tspan2454-4">Arterial Blood</tspan></text>
    <text
       xml:space="preserve"
       style="font-size:10px;font-style:normal;font-variant:normal;font-weight:normal;font-stretch:normal;text-align:start;line-height:100%;writing-mode:lr-tb;text-anchor:start;fill:#000000;fill-opacity:1;stroke:none;display:inline;font-family:Calibri;-inkscape-font-specification:Calibri"
       x="661.63544"
       y="139.49812"
       id="text5682-2"
       sodipodi:linespacing="100%"><tspan
         sodipodi:role="line"
         id="tspan5715"
         x="661.63544"
         y="139.49812">Arterial</tspan><tspan
         sodipodi:role="line"
         x="661.63544"
         y="149.49812"
         id="tspan2452-3">Blood</tspan></text>
    <path
       inkscape:connector-curvature="0"
       style="fill:url(#linearGradient5705);fill-opacity:1;fill-rule:nonzero;stroke:#000000;stroke-width:1px;stroke-linecap:round;stroke-linejoin:miter;stroke-opacity:1;display:inline"
       d="m 450.49404,119.49491 c 6.02822,0 12.05644,-36.173078 18.08465,-36.169278 6.01812,0.004 6.02821,18.084628 12.05643,18.084628 6.02821,0 6.02821,-6.028208 12.05643,-6.028208 6.02821,0 12.05643,24.112858 18.08464,24.112858"
       id="path5703"
       sodipodi:nodetypes="csccc" />
    <path
       inkscape:connector-curvature="0"
       style="fill:url(#linearGradient5709);fill-opacity:1;fill-rule:nonzero;stroke:#000000;stroke-width:1px;stroke-linecap:round;stroke-linejoin:miter;stroke-opacity:1;display:inline"
       d="m 510.77619,119.49491 c 6.02822,0 12.05644,-36.173078 18.08465,-36.169278 6.01812,0.004 6.02821,18.084628 12.05643,18.084628 6.02821,0 6.02821,-6.028208 12.05643,-6.028208 6.02821,0 12.05643,24.112858 18.08464,24.112858"
       id="path5707"
       sodipodi:nodetypes="csccc" />
    <path
       inkscape:connector-curvature="0"
       style="fill:url(#linearGradient5713);fill-opacity:1;fill-rule:nonzero;stroke:#000000;stroke-width:1px;stroke-linecap:round;stroke-linejoin:miter;stroke-opacity:1;display:inline"
       d="m 571.05834,119.49491 c 6.02822,0 12.05644,-36.173078 18.08465,-36.169288 6.01812,0.004 6.02821,18.084638 12.05643,18.084638 6.02821,0 6.02821,-6.028208 12.05643,-6.028208 6.02821,0 12.05643,24.112858 18.08464,24.112858"
       id="path5711"
       sodipodi:nodetypes="csccc" />
    <text
       xml:space="preserve"
       style="font-size:10px;font-style:normal;font-variant:normal;font-weight:normal;font-stretch:normal;text-align:start;line-height:100%;writing-mode:lr-tb;text-anchor:start;fill:#000000;fill-opacity:1;stroke:none;display:inline;font-family:Calibri;-inkscape-font-specification:Calibri"
       x="661.57684"
       y="201.49812"
       id="text5717"
       sodipodi:linespacing="100%"><tspan
         sodipodi:role="line"
         id="tspan5721"
         x="661.57684"
         y="201.49812">Venous</tspan><tspan
         sodipodi:role="line"
         x="661.57684"
         y="211.49812"
         id="tspan2450">Blood</tspan></text>
    <text
       xml:space="preserve"
       style="font-size:10px;font-style:normal;font-variant:normal;font-weight:normal;font-stretch:normal;text-align:start;line-height:100%;writing-mode:lr-tb;text-anchor:start;fill:#000000;fill-opacity:1;stroke:none;display:inline;font-family:Calibri;-inkscape-font-specification:Calibri"
       x="661.25946"
       y="329.49814"
       id="text5723"
       sodipodi:linespacing="100%"><tspan
         sodipodi:role="line"
         id="tspan5729"
         x="661.25946"
         y="329.49814">Skin, tissue</tspan><tspan
         sodipodi:role="line"
         x="661.25946"
         y="339.49814"
         id="tspan2448">and bone</tspan></text>
    <path
       inkscape:connector-curvature="0"
       style="fill:none;stroke:#000000;stroke-width:1.5;stroke-linecap:butt;stroke-linejoin:miter;stroke-miterlimit:4;stroke-opacity:1;stroke-dasharray:none;marker-start:url(#Arrow1Mstart);marker-end:url(#Arrow1Mend);display:inline"
       d="m 653.39967,420.34576 -263.18779,0.5599 0,-347.140617"
       id="path2385"
       sodipodi:nodetypes="ccc" />
    <text
       sodipodi:linespacing="100%"
       id="text5738"
       y="424.33105"
       x="672.82489"
       style="font-size:12.05642986px;font-style:normal;font-variant:normal;font-weight:normal;font-stretch:normal;text-align:center;line-height:100%;writing-mode:lr-tb;text-anchor:middle;fill:#000000;fill-opacity:1;stroke:none;display:inline;font-family:Arial;-inkscape-font-specification:Arial"
       xml:space="preserve"><tspan
         sodipodi:role="line"
         id="tspan5742"
         x="672.82489"
         y="424.33105"
         style="font-size:12px;font-style:normal;font-variant:normal;font-weight:bold;font-stretch:normal;font-family:Calibri;-inkscape-font-specification:Calibri Bold">Time</tspan></text>
    <text
       sodipodi:linespacing="100%"
       id="text5744"
       y="63.765041"
       x="387.69009"
       style="font-size:10px;font-style:normal;font-variant:normal;font-weight:normal;font-stretch:normal;text-align:center;line-height:100%;writing-mode:lr-tb;text-anchor:middle;fill:#000000;fill-opacity:1;stroke:none;display:inline;font-family:Arial;-inkscape-font-specification:Arial"
       xml:space="preserve"><tspan
         sodipodi:role="line"
         id="tspan5748"
         x="387.69009"
         y="63.765041"
         style="font-size:12px;font-style:normal;font-variant:normal;font-weight:bold;font-stretch:normal;font-family:Calibri;-inkscape-font-specification:Calibri Bold">Absorption</tspan></text>
    <flowRoot
       xml:space="preserve"
       id="flowRoot3334"
       style="font-size:40px;font-style:normal;font-weight:normal;line-height:125%;letter-spacing:0px;word-spacing:0px;fill:#000000;fill-opacity:1;stroke:none;font-family:Sans"
       transform="translate(41.690086,48.765042)"><flowRegion
         id="flowRegion3336"><rect
           id="rect3338"
           width="100.40916"
           height="289.91379"
           x="618.01135"
           y="27.304474" /></flowRegion><flowPara
         id="flowPara3340"></flowPara></flowRoot>  </g>
</svg>
