<?xml version="1.0" encoding="UTF-8" standalone="no"?>
<!-- Created with Inkscape (http://www.inkscape.org/) -->

<svg
   xmlns:dc="http://purl.org/dc/elements/1.1/"
   xmlns:cc="http://creativecommons.org/ns#"
   xmlns:rdf="http://www.w3.org/1999/02/22-rdf-syntax-ns#"
   xmlns:svg="http://www.w3.org/2000/svg"
   xmlns="http://www.w3.org/2000/svg"
   xmlns:xlink="http://www.w3.org/1999/xlink"
   xmlns:sodipodi="http://sodipodi.sourceforge.net/DTD/sodipodi-0.dtd"
   xmlns:inkscape="http://www.inkscape.org/namespaces/inkscape"
   width="500"
   height="255"
   id="svg2"
   sodipodi:version="0.32"
   inkscape:version="0.48.2 r9819"
   sodipodi:docname="reflection.svg"
   inkscape:output_extension="org.inkscape.output.svg.inkscape"
   inkscape:export-filename="C:\Windows\system32\config\systemprofile\Desktop\reflection_ppg_2.png"
   inkscape:export-xdpi="300"
   inkscape:export-ydpi="300"
   version="1.0">
  <defs
     id="defs4">
    <linearGradient
       id="linearGradient4584">
      <stop
         style="stop-color:#a22c13;stop-opacity:1;"
         offset="0"
         id="stop4586" />
      <stop
         id="stop4588"
         offset="0.67836672"
         style="stop-color:#ffcb9b;stop-opacity:0.73333335;" />
      <stop
         id="stop4590"
         offset="1"
         style="stop-color:#fbeddc;stop-opacity:0.46666667;" />
    </linearGradient>
    <linearGradient
       id="linearGradient4576">
      <stop
         id="stop4578"
         offset="0"
         style="stop-color:#fead77;stop-opacity:1;" />
      <stop
         style="stop-color:#ffbe6a;stop-opacity:0.46666667;"
         offset="0.80276716"
         id="stop4580" />
      <stop
         id="stop4582"
         offset="1"
         style="stop-color:#ae2a2a;stop-opacity:0.94901961;" />
    </linearGradient>
    <linearGradient
       id="linearGradient3823">
      <stop
         id="stop3825"
         offset="0"
         style="stop-color:#a22c13;stop-opacity:1;" />
      <stop
         style="stop-color:#ffcb9b;stop-opacity:0.73333335;"
         offset="0.62836671"
         id="stop3831" />
      <stop
         style="stop-color:#fbeddc;stop-opacity:0.46666667;"
         offset="1"
         id="stop3827" />
    </linearGradient>
    <linearGradient
       id="linearGradient3805">
      <stop
         id="stop3807"
         offset="0"
         style="stop-color:#f2f816;stop-opacity:1;" />
      <stop
         id="stop3811"
         offset="1"
         style="stop-color:#e9d778;stop-opacity:0.85882354;" />
    </linearGradient>
    <linearGradient
       id="linearGradient3766">
      <stop
         style="stop-color:#fead77;stop-opacity:1;"
         offset="0"
         id="stop3768" />
      <stop
         id="stop3770"
         offset="0.91526717"
         style="stop-color:#ffbe6a;stop-opacity:0.46666667;" />
      <stop
         style="stop-color:#ae2a2a;stop-opacity:0.94901961;"
         offset="1"
         id="stop3772" />
    </linearGradient>
    <linearGradient
       id="linearGradient3758">
      <stop
         style="stop-color:#af0000;stop-opacity:1;"
         offset="0"
         id="stop3760" />
      <stop
         id="stop3764"
         offset="0.10000002"
         style="stop-color:#fff4b8;stop-opacity:0.85882354;" />
      <stop
         style="stop-color:#e9d778;stop-opacity:0.85882354;"
         offset="1"
         id="stop3762" />
    </linearGradient>
    <linearGradient
       id="linearGradient3744">
      <stop
         id="stop3746"
         offset="0"
         style="stop-color:#c87137;stop-opacity:1;" />
      <stop
         style="stop-color:#ffbe6a;stop-opacity:0.46666667;"
         offset="0.79787719"
         id="stop3750" />
      <stop
         id="stop3748"
         offset="1"
         style="stop-color:#af0000;stop-opacity:0.94736844;" />
    </linearGradient>
    <marker
       inkscape:stockid="Arrow1Mend"
       orient="auto"
       refY="0"
       refX="0"
       id="Arrow1Mend"
       style="overflow:visible">
      <path
         id="path3169"
         d="M 0,0 5,-5 -12.5,0 5,5 0,0 z"
         style="fill-rule:evenodd;stroke:#000000;stroke-width:1pt;marker-start:none"
         transform="matrix(-0.4,0,0,-0.4,-4,0)"
         inkscape:connector-curvature="0" />
    </marker>
    <marker
       inkscape:stockid="Arrow1Mstart"
       orient="auto"
       refY="0"
       refX="0"
       id="Arrow1Mstart"
       style="overflow:visible">
      <path
         id="path3166"
         d="M 0,0 5,-5 -12.5,0 5,5 0,0 z"
         style="fill-rule:evenodd;stroke:#000000;stroke-width:1pt;marker-start:none"
         transform="matrix(0.4,0,0,0.4,4,0)"
         inkscape:connector-curvature="0" />
    </marker>
    <linearGradient
       id="linearGradient4581">
      <stop
         style="stop-color:#c87137;stop-opacity:1;"
         offset="0"
         id="stop4583" />
      <stop
         style="stop-color:#c87137;stop-opacity:0;"
         offset="1"
         id="stop4585" />
    </linearGradient>
    <linearGradient
       id="linearGradient4575">
      <stop
         id="stop4577"
         offset="0"
         style="stop-color:#817850;stop-opacity:1;" />
      <stop
         id="stop4579"
         offset="1"
         style="stop-color:#000000;stop-opacity:0;" />
    </linearGradient>
    <linearGradient
       id="linearGradient4557">
      <stop
         style="stop-color:#0000af;stop-opacity:1;"
         offset="0"
         id="stop4559" />
      <stop
         style="stop-color:#ff0000;stop-opacity:0"
         offset="1"
         id="stop4561" />
    </linearGradient>
    <linearGradient
       id="linearGradient4535">
      <stop
         id="stop4537"
         offset="0"
         style="stop-color:#af0000;stop-opacity:1;" />
      <stop
         id="stop4539"
         offset="1"
         style="stop-color:#ff0000;stop-opacity:0" />
    </linearGradient>
    <linearGradient
       id="linearGradient4517">
      <stop
         style="stop-color:#af0000;stop-opacity:1;"
         offset="0"
         id="stop4519" />
      <stop
         style="stop-color:#ff0000;stop-opacity:0;"
         offset="1"
         id="stop4521" />
    </linearGradient>
    <marker
       inkscape:stockid="Arrow1Lend"
       orient="auto"
       refY="0"
       refX="0"
       id="Arrow1Lend"
       style="overflow:visible">
      <path
         id="path3163"
         d="M 0,0 5,-5 -12.5,0 5,5 0,0 z"
         style="fill-rule:evenodd;stroke:#000000;stroke-width:1pt;marker-start:none"
         transform="matrix(-0.8,0,0,-0.8,-10,0)"
         inkscape:connector-curvature="0" />
    </marker>
    <marker
       inkscape:stockid="Arrow1Lstart"
       orient="auto"
       refY="0"
       refX="0"
       id="Arrow1Lstart"
       style="overflow:visible">
      <path
         id="path3160"
         d="M 0,0 5,-5 -12.5,0 5,5 0,0 z"
         style="fill-rule:evenodd;stroke:#000000;stroke-width:1pt;marker-start:none"
         transform="matrix(0.8,0,0,0.8,10,0)"
         inkscape:connector-curvature="0" />
    </marker>
    <inkscape:perspective
       sodipodi:type="inkscape:persp3d"
       inkscape:vp_x="0 : 526.18109 : 1"
       inkscape:vp_y="0 : 1000 : 0"
       inkscape:vp_z="744.09448 : 526.18109 : 1"
       inkscape:persp3d-origin="372.04724 : 350.78739 : 1"
       id="perspective10" />
    <linearGradient
       inkscape:collect="always"
       xlink:href="#linearGradient4517"
       id="linearGradient4523"
       x1="260"
       y1="52.362179"
       x2="260"
       y2="132.36218"
       gradientUnits="userSpaceOnUse" />
    <linearGradient
       inkscape:collect="always"
       xlink:href="#linearGradient4535"
       id="linearGradient4533"
       x1="260"
       y1="182.3622"
       x2="260"
       y2="119.50504"
       gradientUnits="userSpaceOnUse"
       gradientTransform="matrix(1,0,0,0.6363636,0,31.313521)" />
    <linearGradient
       inkscape:collect="always"
       xlink:href="#linearGradient4557"
       id="linearGradient4555"
       gradientUnits="userSpaceOnUse"
       x1="260"
       y1="178.43361"
       x2="260"
       y2="111.6479"
       gradientTransform="matrix(1,0,0,1.2727273,0,-14.735141)" />
    <linearGradient
       inkscape:collect="always"
       xlink:href="#linearGradient4517"
       id="linearGradient4563"
       gradientUnits="userSpaceOnUse"
       x1="260"
       y1="145.67984"
       x2="260"
       y2="65.773911" />
    <linearGradient
       inkscape:collect="always"
       xlink:href="#linearGradient4517"
       id="linearGradient4565"
       gradientUnits="userSpaceOnUse"
       x1="210"
       y1="145.67984"
       x2="210"
       y2="65.773911" />
    <linearGradient
       inkscape:collect="always"
       xlink:href="#linearGradient4517"
       id="linearGradient4567"
       gradientUnits="userSpaceOnUse"
       x1="260"
       y1="145.67984"
       x2="260"
       y2="65.773911" />
    <linearGradient
       inkscape:collect="always"
       xlink:href="#linearGradient4517"
       id="linearGradient4569"
       gradientUnits="userSpaceOnUse"
       x1="260"
       y1="145.67984"
       x2="260"
       y2="65.773911" />
    <linearGradient
       inkscape:collect="always"
       xlink:href="#linearGradient4581"
       id="linearGradient4587"
       x1="260"
       y1="362.36218"
       x2="260"
       y2="209.36218"
       gradientUnits="userSpaceOnUse"
       gradientTransform="matrix(1,0,0,1.1111111,0,-40.262465)" />
    <linearGradient
       inkscape:collect="always"
       xlink:href="#linearGradient4517"
       id="linearGradient5686"
       gradientUnits="userSpaceOnUse"
       x1="260"
       y1="145.67984"
       x2="260"
       y2="65.773911" />
    <linearGradient
       inkscape:collect="always"
       xlink:href="#linearGradient4517"
       id="linearGradient5688"
       gradientUnits="userSpaceOnUse"
       x1="260"
       y1="145.67984"
       x2="260"
       y2="65.773911" />
    <linearGradient
       inkscape:collect="always"
       xlink:href="#linearGradient4517"
       id="linearGradient5690"
       gradientUnits="userSpaceOnUse"
       x1="260"
       y1="145.67984"
       x2="260"
       y2="65.773911" />
    <linearGradient
       inkscape:collect="always"
       xlink:href="#linearGradient4517"
       id="linearGradient5692"
       gradientUnits="userSpaceOnUse"
       x1="260"
       y1="52.362179"
       x2="260"
       y2="132.36218" />
    <linearGradient
       inkscape:collect="always"
       xlink:href="#linearGradient4517"
       id="linearGradient5695"
       gradientUnits="userSpaceOnUse"
       x1="260"
       y1="145.67984"
       x2="260"
       y2="65.773911"
       gradientTransform="matrix(1,0,0,0.3754415,0,62.667927)" />
    <linearGradient
       inkscape:collect="always"
       xlink:href="#linearGradient4517"
       id="linearGradient5698"
       gradientUnits="userSpaceOnUse"
       x1="260"
       y1="145.67984"
       x2="260"
       y2="65.773911"
       gradientTransform="matrix(1,0,0,0.3754415,0,62.667927)" />
    <linearGradient
       inkscape:collect="always"
       xlink:href="#linearGradient4584"
       id="linearGradient3947"
       gradientUnits="userSpaceOnUse"
       gradientTransform="matrix(1,0,0,1.1111111,-386.70339,-44.407214)"
       x1="259.98465"
       y1="254.39526"
       x2="259.98465"
       y2="182.15208" />
    <linearGradient
       inkscape:collect="always"
       xlink:href="#linearGradient4576"
       id="linearGradient3949"
       gradientUnits="userSpaceOnUse"
       gradientTransform="matrix(1,0,0,1.1111111,-386.70339,-22.920679)"
       x1="259.98465"
       y1="294.87549"
       x2="259.98465"
       y2="159.87547" />
    <linearGradient
       inkscape:collect="always"
       xlink:href="#linearGradient3758"
       id="linearGradient3951"
       gradientUnits="userSpaceOnUse"
       gradientTransform="matrix(1,0,0,1.1818181,-22.309915,-308.88397)"
       x1="260.00003"
       y1="165.43912"
       x2="260.00003"
       y2="110.43911" />
    <linearGradient
       inkscape:collect="always"
       xlink:href="#linearGradient3805"
       id="linearGradient3953"
       gradientUnits="userSpaceOnUse"
       gradientTransform="matrix(1,0,0,0.72727266,-22.309915,65.737981)"
       x1="260.00003"
       y1="209.86221"
       x2="260.00003"
       y2="154.86221" />
    <linearGradient
       inkscape:collect="always"
       xlink:href="#linearGradient3805"
       id="linearGradient3981"
       gradientUnits="userSpaceOnUse"
       gradientTransform="matrix(1,0,0,0.72727266,171.69009,70.737984)"
       x1="260"
       y1="144.28526"
       x2="260"
       y2="127.36219" />
    <linearGradient
       inkscape:collect="always"
       xlink:href="#linearGradient3758"
       id="linearGradient3983"
       gradientUnits="userSpaceOnUse"
       gradientTransform="matrix(1,0,0,1.1818181,171.69009,-313.88397)"
       x1="260"
       y1="182.3622"
       x2="260"
       y2="127.36219" />
    <linearGradient
       inkscape:collect="always"
       xlink:href="#linearGradient3766"
       id="linearGradient3985"
       gradientUnits="userSpaceOnUse"
       gradientTransform="matrix(1,0,0,1.1111111,-386.70339,-22.920679)"
       x1="260"
       y1="362.36218"
       x2="260"
       y2="230.93217" />
    <linearGradient
       inkscape:collect="always"
       xlink:href="#linearGradient3823"
       id="linearGradient3987"
       gradientUnits="userSpaceOnUse"
       gradientTransform="matrix(1,0,0,1.1111111,-386.70339,-44.407214)"
       x1="259.98465"
       y1="294.87549"
       x2="260"
       y2="230.93217" />
    <inkscape:perspective
       id="perspective4275"
       inkscape:persp3d-origin="0.5 : 0.33333333 : 1"
       inkscape:vp_z="1 : 0.5 : 1"
       inkscape:vp_y="0 : 1000 : 0"
       inkscape:vp_x="0 : 0.5 : 1"
       sodipodi:type="inkscape:persp3d" />
    <inkscape:perspective
       id="perspective4346"
       inkscape:persp3d-origin="0.5 : 0.33333333 : 1"
       inkscape:vp_z="1 : 0.5 : 1"
       inkscape:vp_y="0 : 1000 : 0"
       inkscape:vp_x="0 : 0.5 : 1"
       sodipodi:type="inkscape:persp3d" />
    <linearGradient
       y2="-246.57704"
       x2="-434.33966"
       y1="-228.70355"
       x1="-451.30542"
       gradientTransform="matrix(-1.6732,0,0,-1.1476,-296.472,-123.477)"
       gradientUnits="userSpaceOnUse"
       id="linearGradient7619"
       xlink:href="#linearGradient11462"
       inkscape:collect="always" />
    <linearGradient
       y2="541.26917"
       x2="-171.93723"
       y1="558.79907"
       x1="-155.74126"
       gradientTransform="matrix(0,-1.6732,1.1476,0,-269.006,-183.504)"
       gradientUnits="userSpaceOnUse"
       id="linearGradient9497"
       xlink:href="#linearGradient7090"
       inkscape:collect="always" />
    <linearGradient
       id="linearGradient7090">
      <stop
         id="stop7092"
         offset="0.0000000"
         style="stop-color: rgb(255, 42, 38); stop-opacity: 1;" />
      <stop
         id="stop7094"
         offset="1.0000000"
         style="stop-color: rgb(150, 0, 13); stop-opacity: 1;" />
    </linearGradient>
    <linearGradient
       y2="244.73628"
       x2="230.57993"
       y1="224.94089"
       x1="248.07172"
       gradientTransform="matrix(1.6732,0,0,1.1476,-203.141,-178.367)"
       gradientUnits="userSpaceOnUse"
       id="linearGradient9495"
       xlink:href="#linearGradient7090"
       inkscape:collect="always" />
    <linearGradient
       y2="-440.7139"
       x2="173.43343"
       y1="-459.7464"
       x1="155.51448"
       gradientTransform="matrix(0,1.6732,-1.1476,0,-237.286,-184.278)"
       gradientUnits="userSpaceOnUse"
       id="linearGradient9493"
       xlink:href="#linearGradient7090"
       inkscape:collect="always" />
    <linearGradient
       y2="-246.57704"
       x2="-434.33966"
       y1="-228.70355"
       x1="-451.30542"
       gradientTransform="matrix(-1.6732,0,0,-1.1476,-296.472,-182.023)"
       gradientUnits="userSpaceOnUse"
       id="linearGradient9491"
       xlink:href="#linearGradient7090"
       inkscape:collect="always" />
    <linearGradient
       y2="541.26917"
       x2="-171.93723"
       y1="558.79907"
       x1="-155.74126"
       gradientTransform="matrix(0,-1.6732,1.1476,0,-269.006,-124.957)"
       gradientUnits="userSpaceOnUse"
       id="linearGradient9447"
       xlink:href="#linearGradient11462"
       inkscape:collect="always" />
    <linearGradient
       id="linearGradient11462">
      <stop
         id="stop11464"
         offset="0"
         style="stop-color:#ff0000;stop-opacity:0;" />
      <stop
         id="stop11466"
         offset="1"
         style="stop-color:#ff0000;stop-opacity:1;" />
    </linearGradient>
    <linearGradient
       y2="244.73628"
       x2="230.57993"
       y1="224.94089"
       x1="248.07172"
       gradientTransform="matrix(1.6732,0,0,1.1476,-203.141,-119.821)"
       gradientUnits="userSpaceOnUse"
       id="linearGradient9351"
       xlink:href="#linearGradient11462"
       inkscape:collect="always" />
    <linearGradient
       y2="-440.7139"
       x2="173.43343"
       y1="-459.7464"
       x1="155.51448"
       gradientTransform="matrix(0,1.6732,-1.1476,0,-237.286,-125.731)"
       gradientUnits="userSpaceOnUse"
       id="linearGradient9375"
       xlink:href="#linearGradient11462"
       inkscape:collect="always" />
    <linearGradient
       y2="-246.57704"
       x2="-434.33966"
       y1="-228.70355"
       x1="-451.30542"
       gradientTransform="matrix(-1.6732,0,0,-1.1476,-296.472,-123.477)"
       gradientUnits="userSpaceOnUse"
       id="linearGradient9478"
       xlink:href="#linearGradient11462"
       inkscape:collect="always" />
    <linearGradient
       y2="165.6252"
       x2="-50.436199"
       y1="124.94588"
       x1="-50.436199"
       gradientTransform="matrix(2.13642,0,0,0.418246,553.072,180.304)"
       gradientUnits="userSpaceOnUse"
       id="linearGradient8640"
       xlink:href="#linearGradient2372"
       inkscape:collect="always" />
    <linearGradient
       id="linearGradient2372">
      <stop
         id="stop2374"
         offset="0.0000000"
         style="stop-color: rgb(0, 111, 157); stop-opacity: 1;" />
      <stop
         id="stop2376"
         offset="1.0000000"
         style="stop-color: rgb(123, 206, 251); stop-opacity: 1;" />
    </linearGradient>
    <linearGradient
       y2="95.684341"
       x2="-31.586103"
       y1="109.7897"
       x1="-53.427612"
       gradientTransform="matrix(0,-0.867067,0.594693,0,393.881,161.799)"
       gradientUnits="userSpaceOnUse"
       id="linearGradient8762"
       xlink:href="#linearGradient2315"
       inkscape:collect="always" />
    <linearGradient
       id="linearGradient2315">
      <stop
         id="stop2317"
         offset="0.0000000"
         style="stop-color: rgb(131, 203, 70); stop-opacity: 1;" />
      <stop
         id="stop2319"
         offset="1.0000000"
         style="stop-color: rgb(255, 255, 255); stop-opacity: 1;" />
    </linearGradient>
    <linearGradient
       y2="541.26917"
       x2="-171.93723"
       y1="558.79907"
       x1="-155.74126"
       gradientTransform="matrix(0,-1.20748,0.828171,0,0,0)"
       gradientUnits="userSpaceOnUse"
       id="linearGradient8759"
       xlink:href="#linearGradient11462"
       inkscape:collect="always" />
    <linearGradient
       y2="165.6252"
       x2="-50.436199"
       y1="124.94588"
       x1="-50.436199"
       gradientTransform="matrix(2.13642,0,0,0.418246,389.984,182.29)"
       gradientUnits="userSpaceOnUse"
       id="linearGradient8634"
       xlink:href="#linearGradient2372"
       inkscape:collect="always" />
    <linearGradient
       y2="95.684341"
       x2="-31.586103"
       y1="109.7897"
       x1="-53.427612"
       gradientTransform="matrix(0.867067,0,0,0.594693,325.535,133.316)"
       gradientUnits="userSpaceOnUse"
       id="linearGradient8774"
       xlink:href="#linearGradient2315"
       inkscape:collect="always" />
    <linearGradient
       y2="244.73628"
       x2="230.57993"
       y1="224.94089"
       x1="248.07172"
       gradientTransform="scale(1.20748,0.828171)"
       gradientUnits="userSpaceOnUse"
       id="linearGradient8771"
       xlink:href="#linearGradient11462"
       inkscape:collect="always" />
    <linearGradient
       y2="165.6252"
       x2="-50.436199"
       y1="124.94588"
       x1="-50.436199"
       gradientTransform="matrix(2.13642,0,0,0.418246,475.356,179.745)"
       gradientUnits="userSpaceOnUse"
       id="linearGradient8628"
       xlink:href="#linearGradient2372"
       inkscape:collect="always" />
    <linearGradient
       y2="95.684341"
       x2="-31.586103"
       y1="109.7897"
       x1="-53.427612"
       gradientTransform="matrix(0,0.867067,-0.594693,0,434.301,235.465)"
       gradientUnits="userSpaceOnUse"
       id="linearGradient8768"
       xlink:href="#linearGradient2315"
       inkscape:collect="always" />
    <linearGradient
       y2="-440.7139"
       x2="173.43343"
       y1="-459.7464"
       x1="155.51448"
       gradientTransform="matrix(0,1.20748,-0.828171,0,0,0)"
       gradientUnits="userSpaceOnUse"
       id="linearGradient8765"
       xlink:href="#linearGradient11462"
       inkscape:collect="always" />
    <linearGradient
       y2="165.6252"
       x2="-50.436199"
       y1="124.94588"
       x1="-50.436199"
       gradientTransform="matrix(2.13642,0,0,0.418246,623.245,181.423)"
       gradientUnits="userSpaceOnUse"
       id="linearGradient8622"
       xlink:href="#linearGradient2372"
       inkscape:collect="always" />
    <linearGradient
       y2="95.684341"
       x2="-31.586103"
       y1="109.7897"
       x1="-53.427612"
       gradientTransform="matrix(-0.867067,0,0,-0.594693,497.828,258.614)"
       gradientUnits="userSpaceOnUse"
       id="linearGradient8734"
       xlink:href="#linearGradient2315"
       inkscape:collect="always" />
    <linearGradient
       y2="-246.57704"
       x2="-434.33966"
       y1="-228.70355"
       x1="-451.30542"
       gradientTransform="scale(-1.20748,-0.828171)"
       gradientUnits="userSpaceOnUse"
       id="linearGradient8731"
       xlink:href="#linearGradient11462"
       inkscape:collect="always" />
    <linearGradient
       y2="165.6252"
       x2="-50.436199"
       y1="124.94588"
       x1="-50.436199"
       gradientTransform="matrix(2.13642,0,0,0.418246,553.072,180.304)"
       gradientUnits="userSpaceOnUse"
       id="linearGradient8328"
       xlink:href="#linearGradient2372"
       inkscape:collect="always" />
    <linearGradient
       y2="95.684341"
       x2="-31.586103"
       y1="109.7897"
       x1="-53.427612"
       gradientTransform="matrix(0,-0.867067,0.594693,0,393.881,233.799)"
       gradientUnits="userSpaceOnUse"
       id="linearGradient9017"
       xlink:href="#linearGradient2315"
       inkscape:collect="always" />
    <linearGradient
       y2="540.76831"
       x2="-232.25471"
       y1="558.79907"
       x1="-215.19727"
       gradientTransform="matrix(0,-1.20748,0.828171,0,0,0)"
       gradientUnits="userSpaceOnUse"
       id="linearGradient9014"
       xlink:href="#linearGradient7090"
       inkscape:collect="always" />
    <linearGradient
       y2="337.60022"
       x2="-505.8255"
       y1="358.67432"
       x1="-485.63391"
       gradientTransform="matrix(0,-0.80139,1.24783,0,0,0)"
       gradientUnits="userSpaceOnUse"
       id="linearGradient7754"
       xlink:href="#linearGradient11462"
       inkscape:collect="always" />
    <linearGradient
       y2="338.0029"
       x2="-476.01202"
       y1="358.80856"
       x1="-456.45148"
       gradientTransform="matrix(0,-0.80139,1.24783,0,0,0)"
       gradientUnits="userSpaceOnUse"
       id="linearGradient7756"
       xlink:href="#linearGradient11462"
       inkscape:collect="always" />
    <linearGradient
       y2="338.45248"
       x2="-413.24628"
       y1="361.03598"
       x1="-390.87134"
       gradientTransform="matrix(0,-0.80139,1.24783,0,-75.0106,3.7032)"
       gradientUnits="userSpaceOnUse"
       id="linearGradient7714"
       xlink:href="#linearGradient11462"
       inkscape:collect="always" />
    <linearGradient
       y2="-318.54547"
       x2="-575.34497"
       y1="-298.25281"
       x1="-593.22046"
       gradientTransform="scale(-0.80139,-1.24783)"
       gradientUnits="userSpaceOnUse"
       id="linearGradient7716"
       xlink:href="#linearGradient11462"
       inkscape:collect="always" />
    <linearGradient
       y2="-318.54547"
       x2="-546.16992"
       y1="-297.63159"
       x1="-563.7262"
       gradientTransform="scale(-0.80139,-1.24783)"
       gradientUnits="userSpaceOnUse"
       id="linearGradient7718"
       xlink:href="#linearGradient11462"
       inkscape:collect="always" />
    <linearGradient
       y2="-280.46561"
       x2="477.9736"
       y1="-301.67392"
       x1="458.62335"
       gradientTransform="matrix(0,0.80139,-1.24783,0,0,0)"
       gradientUnits="userSpaceOnUse"
       id="linearGradient7730"
       xlink:href="#linearGradient11462"
       inkscape:collect="always" />
    <linearGradient
       y2="-281.40521"
       x2="507.57675"
       y1="-301.27124"
       x1="488.85745"
       gradientTransform="matrix(0,0.80139,-1.24783,0,0,0)"
       gradientUnits="userSpaceOnUse"
       id="linearGradient7732"
       xlink:href="#linearGradient11462"
       inkscape:collect="always" />
    <linearGradient
       y2="267.08432"
       x2="341.68527"
       y1="247.41286"
       x1="358.60312"
       gradientTransform="matrix(0.80139,0,0,1.24783,-2.07758,45.7068)"
       gradientUnits="userSpaceOnUse"
       id="linearGradient7664"
       xlink:href="#linearGradient11462"
       inkscape:collect="always" />
    <linearGradient
       y2="267.08432"
       x2="341.68527"
       y1="247.41286"
       x1="358.60312"
       gradientTransform="matrix(0.80139,0,0,1.24783,21.8146,45.7068)"
       gradientUnits="userSpaceOnUse"
       id="linearGradient7666"
       xlink:href="#linearGradient11462"
       inkscape:collect="always" />
    <linearGradient
       y2="-267.71384"
       x2="-559.39771"
       y1="-246.08231"
       x1="-579.00195"
       gradientTransform="matrix(-0.80139,0,0,-1.24783,-11.9914,4.6899)"
       gradientUnits="userSpaceOnUse"
       id="linearGradient7377"
       xlink:href="#linearGradient11462"
       inkscape:collect="always" />
    <linearGradient
       y2="165.6252"
       x2="-50.436199"
       y1="124.94588"
       x1="-50.436199"
       gradientTransform="matrix(2.13642,0,0,0.418246,389.984,182.29)"
       gradientUnits="userSpaceOnUse"
       id="linearGradient10528"
       xlink:href="#linearGradient2372"
       inkscape:collect="always" />
    <linearGradient
       y2="95.684341"
       x2="-31.586103"
       y1="109.7897"
       x1="-53.427612"
       gradientTransform="matrix(0.867067,0,0,0.594693,300.868,509.52)"
       gradientUnits="userSpaceOnUse"
       id="linearGradient10530"
       xlink:href="#linearGradient2315"
       inkscape:collect="always" />
    <linearGradient
       y2="331.67487"
       x2="230.44843"
       y1="312.07166"
       x1="248.20323"
       gradientTransform="matrix(1.20748,0,0,0.828171,-24.6666,304.205)"
       gradientUnits="userSpaceOnUse"
       id="linearGradient10532"
       xlink:href="#linearGradient7090"
       inkscape:collect="always" />
    <linearGradient
       y2="165.6252"
       x2="-50.436199"
       y1="124.94588"
       x1="-50.436199"
       gradientTransform="matrix(2.13642,0,0,0.418246,475.356,179.745)"
       gradientUnits="userSpaceOnUse"
       id="linearGradient8322"
       xlink:href="#linearGradient2372"
       inkscape:collect="always" />
    <linearGradient
       y2="95.684341"
       x2="-31.586103"
       y1="109.7897"
       x1="-53.427612"
       gradientTransform="matrix(0,0.867067,-0.594693,0,434.301,307.465)"
       gradientUnits="userSpaceOnUse"
       id="linearGradient8963"
       xlink:href="#linearGradient2315"
       inkscape:collect="always" />
    <linearGradient
       y2="-441.21478"
       x2="233.06174"
       y1="-458.99512"
       x1="215.31508"
       gradientTransform="matrix(0,1.20748,-0.828171,0,0,0)"
       gradientUnits="userSpaceOnUse"
       id="linearGradient8960"
       xlink:href="#linearGradient7090"
       inkscape:collect="always" />
    <linearGradient
       y2="165.6252"
       x2="-50.436199"
       y1="124.94588"
       x1="-50.436199"
       gradientTransform="matrix(2.13642,0,0,0.418246,623.245,181.423)"
       gradientUnits="userSpaceOnUse"
       id="linearGradient8316"
       xlink:href="#linearGradient2372"
       inkscape:collect="always" />
    <linearGradient
       y2="95.684341"
       x2="-31.586103"
       y1="109.7897"
       x1="-53.427612"
       gradientTransform="matrix(-0.867067,0,0,-0.594693,497.828,330.614)"
       gradientUnits="userSpaceOnUse"
       id="linearGradient9071"
       xlink:href="#linearGradient2315"
       inkscape:collect="always" />
    <linearGradient
       y2="-333.89999"
       x2="-433.6821"
       y1="-315.64212"
       x1="-451.17389"
       gradientTransform="scale(-1.20748,-0.828171)"
       gradientUnits="userSpaceOnUse"
       id="linearGradient9068"
       xlink:href="#linearGradient7090"
       inkscape:collect="always" />
    <linearGradient
       y2="267.08432"
       x2="341.68527"
       y1="247.41286"
       x1="358.60312"
       gradientTransform="matrix(0.80139,0,0,1.24783,-83.3024,3.7614)"
       gradientUnits="userSpaceOnUse"
       id="linearGradient4220"
       xlink:href="#linearGradient11462"
       inkscape:collect="always" />
    <linearGradient
       y2="-287.17914"
       x2="412.94818"
       y1="-308.43417"
       x1="392.41861"
       gradientTransform="matrix(0,0.80139,-1.24783,0,-91.9808,2.8329)"
       gradientUnits="userSpaceOnUse"
       id="linearGradient4214"
       xlink:href="#linearGradient11462"
       inkscape:collect="always" />
    <inkscape:perspective
       id="perspective4507"
       inkscape:persp3d-origin="18.257139 : 9.2588469 : 1"
       inkscape:vp_z="36.514278 : 13.88827 : 1"
       inkscape:vp_y="0 : 1000 : 0"
       inkscape:vp_x="0 : 13.88827 : 1"
       sodipodi:type="inkscape:persp3d" />
    <linearGradient
       inkscape:collect="always"
       xlink:href="#linearGradient3805"
       id="linearGradient4600"
       gradientUnits="userSpaceOnUse"
       gradientTransform="matrix(1,0,0,0.72727266,-22.309917,65.737981)"
       x1="260.00003"
       y1="209.86221"
       x2="260.00003"
       y2="154.86221" />
    <linearGradient
       inkscape:collect="always"
       xlink:href="#linearGradient3758"
       id="linearGradient4602"
       gradientUnits="userSpaceOnUse"
       gradientTransform="matrix(1,0,0,1.1818181,-22.309917,-308.88397)"
       x1="260.00003"
       y1="165.43912"
       x2="260.00003"
       y2="110.43911" />
    <linearGradient
       inkscape:collect="always"
       xlink:href="#linearGradient4576"
       id="linearGradient4604"
       gradientUnits="userSpaceOnUse"
       gradientTransform="matrix(1,0,0,1.1111111,-586.70341,-22.920679)"
       x1="259.98465"
       y1="294.87549"
       x2="259.98465"
       y2="159.87547" />
    <linearGradient
       inkscape:collect="always"
       xlink:href="#linearGradient4584"
       id="linearGradient4606"
       gradientUnits="userSpaceOnUse"
       gradientTransform="matrix(1,0,0,1.1111111,-586.70341,-44.407214)"
       x1="259.98465"
       y1="254.39526"
       x2="259.98465"
       y2="182.15208" />
    <linearGradient
       inkscape:collect="always"
       xlink:href="#linearGradient11462"
       id="linearGradient3212"
       gradientUnits="userSpaceOnUse"
       gradientTransform="matrix(-1.6636785,0.17824724,0.12225469,1.1410695,-419.87431,309.00255)"
       x1="-370.06027"
       y1="-84.168655"
       x2="-494.85406"
       y2="-64.674538" />
    <linearGradient
       inkscape:collect="always"
       xlink:href="#linearGradient11462"
       id="linearGradient3216"
       gradientUnits="userSpaceOnUse"
       gradientTransform="matrix(-1.1616723,0.03670406,0.08536498,0.23496514,-195.5675,132.63428)"
       x1="-370.06027"
       y1="-84.168655"
       x2="-494.85406"
       y2="-64.674538" />
    <inkscape:perspective
       id="perspective3424"
       inkscape:persp3d-origin="0.5 : 0.33333333 : 1"
       inkscape:vp_z="1 : 0.5 : 1"
       inkscape:vp_y="0 : 1000 : 0"
       inkscape:vp_x="0 : 0.5 : 1"
       sodipodi:type="inkscape:persp3d" />
    <linearGradient
       inkscape:collect="always"
       xlink:href="#linearGradient11462-3"
       id="linearGradient4570-3"
       gradientUnits="userSpaceOnUse"
       gradientTransform="matrix(1.3147694,1.0348815,0.70979559,-0.90176271,856.25823,706.11708)"
       x1="-369.46317"
       y1="-188.51805"
       x2="-495.14536"
       y2="44.285763" />
    <linearGradient
       id="linearGradient11462-3">
      <stop
         id="stop11464-7"
         offset="0"
         style="stop-color:#ff0000;stop-opacity:0;" />
      <stop
         id="stop11466-4"
         offset="1"
         style="stop-color:#ff0000;stop-opacity:1;" />
    </linearGradient>
  </defs>
  <sodipodi:namedview
     id="base"
     pagecolor="#ffffff"
     bordercolor="#666666"
     borderopacity="1.0"
     gridtolerance="10000"
     guidetolerance="10"
     objecttolerance="10"
     inkscape:pageopacity="0.0"
     inkscape:pageshadow="2"
     inkscape:zoom="2.8284271"
     inkscape:cx="249.18247"
     inkscape:cy="145.48306"
     inkscape:document-units="px"
     inkscape:current-layer="layer2"
     showgrid="true"
     inkscape:window-width="1664"
     inkscape:window-height="1000"
     inkscape:window-x="0"
     inkscape:window-y="14"
     inkscape:window-maximized="0"
     inkscape:snap-grids="false"
     fit-margin-top="0"
     fit-margin-left="0"
     fit-margin-right="0"
     fit-margin-bottom="0">
    <inkscape:grid
       type="xygrid"
       id="grid2383"
       visible="true"
       enabled="true"
       empspacing="5"
       snapvisiblegridlinesonly="true" />
  </sodipodi:namedview>
  <metadata
     id="metadata7">
    <rdf:RDF>
      <cc:Work
         rdf:about="">
        <dc:format>image/svg+xml</dc:format>
        <dc:type
           rdf:resource="http://purl.org/dc/dcmitype/StillImage" />
        <dc:title />
      </cc:Work>
    </rdf:RDF>
  </metadata>
  <g
     inkscape:groupmode="layer"
     id="layer2"
     inkscape:label="Bottom"
     style="display:inline"
     transform="translate(-41.690086,-24.58538)">
    <rect
       style="fill:url(#linearGradient4600);fill-opacity:1;fill-rule:evenodd;stroke:none;display:inline"
       id="rect4592"
       width="200"
       height="40"
       x="337.69009"
       y="178.36501" />
    <rect
       transform="scale(1,-1)"
       y="-178.36501"
       x="337.69009"
       height="65"
       width="200"
       id="rect4594"
       style="fill:url(#linearGradient4602);fill-opacity:1;fill-rule:evenodd;stroke:none;display:inline" />
    <path
       transform="matrix(1,0,0,-0.26666667,564.40887,154.62336)"
       d="m -226.71875,154.71875 0,150 200,0 0,-150 -200,0 z"
       id="path4596"
       style="fill:url(#linearGradient4604);fill-opacity:1;fill-rule:evenodd;stroke:none;display:inline"
       inkscape:original="M -226.71875 154.71875 L -226.71875 304.71875 L -26.71875 304.71875 L -26.71875 154.71875 L -226.71875 154.71875 z "
       inkscape:radius="0"
       sodipodi:type="inkscape:offset" />
    <path
       sodipodi:type="inkscape:offset"
       inkscape:radius="0"
       inkscape:original="M -226.71875 154.71875 L -226.71875 304.71875 L -26.71875 304.71875 L -26.71875 154.71875 L -226.71875 154.71875 z "
       style="fill:url(#linearGradient4606);fill-opacity:1;fill-rule:evenodd;stroke:none;display:inline"
       id="path4598"
       d="m -226.71875,154.71875 0,150 200,0 0,-150 -200,0 z"
       transform="matrix(1,0,0,-0.37373774,564.40887,332.40961)" />
    <path
       id="path4334"
       style="fill:#000000;fill-opacity:1;fill-rule:evenodd;stroke:#000000;stroke-width:0.40000001000000002;stroke-miterlimit:4;stroke-opacity:1;stroke-dasharray:none"
       d="m 157.6901,63.365027 110,0 0,-10 -110,0 0,10 z"
       inkscape:connector-curvature="0" />
    <rect
       y="178.36501"
       x="137.69008"
       height="40"
       width="200"
       id="rect3801"
       style="fill:url(#linearGradient3953);fill-opacity:1;fill-rule:evenodd;stroke:none;display:inline" />
    <rect
       style="fill:url(#linearGradient3951);fill-opacity:1;fill-rule:evenodd;stroke:none;display:inline"
       id="rect4525"
       width="200"
       height="65"
       x="137.69008"
       y="-178.36501"
       transform="scale(1,-1)" />
    <path
       sodipodi:type="inkscape:offset"
       inkscape:radius="0"
       inkscape:original="M -226.71875 154.71875 L -226.71875 304.71875 L -26.71875 304.71875 L -26.71875 154.71875 L -226.71875 154.71875 z "
       style="fill:url(#linearGradient3949);fill-opacity:1;fill-rule:evenodd;stroke:none;display:inline"
       id="path3752"
       d="m -226.71875,154.71875 0,150 200,0 0,-150 -200,0 z"
       transform="matrix(1,0,0,-0.26666667,364.40885,154.62336)" />
    <path
       style="fill:none;stroke:#000000;stroke-width:0.99999994000000003px;stroke-linecap:round;stroke-linejoin:miter;stroke-opacity:1"
       d="m 132.6901,73.61502 c -6.96296,0 -6.96296,0 -6.96296,16.437201 0,2.528803 -8.70371,2.528803 -8.70371,2.528803 0,0 8.70371,0 8.70371,2.528796 0,16.43718 0,16.43718 6.96296,16.43718"
       id="path5670"
       sodipodi:nodetypes="ccccc"
       inkscape:connector-curvature="0" />
    <path
       sodipodi:nodetypes="ccccc"
       id="path5672"
       d="m 132.6901,115.20548 c -6.96296,0 -6.96296,0 -6.96296,24.43645 0,3.75943 -8.70371,3.75943 -8.70371,3.75943 0,0 8.70371,0 8.70371,3.75948 0,24.43643 0,24.43643 6.96296,24.43643"
       style="fill:none;stroke:#000000;stroke-width:0.99999987999999995px;stroke-linecap:round;stroke-linejoin:miter;stroke-opacity:1"
       inkscape:connector-curvature="0" />
    <path
       style="fill:none;stroke:#000000;stroke-width:0.99999994000000003px;stroke-linecap:round;stroke-linejoin:miter;stroke-opacity:1;display:inline"
       d="m 132.6901,175.58684 c -6.96296,0 -6.96296,0 -6.96296,18.5372 0,2.85188 -8.70371,2.85188 -8.70371,2.85188 0,0 8.70371,0 8.70371,2.85188 0,18.53721 0,18.53721 6.96296,18.53721"
       id="path5676"
       sodipodi:nodetypes="ccccc"
       inkscape:connector-curvature="0" />
    <text
       xml:space="preserve"
       style="font-size:12px;font-style:normal;font-variant:normal;font-weight:normal;font-stretch:normal;text-align:center;line-height:108%;writing-mode:lr;text-anchor:middle;fill:#000000;fill-opacity:1;stroke:none;font-family:Calibri;-inkscape-font-specification:Calibri"
       x="91.802437"
       y="93.644676"
       id="text5678"
       sodipodi:linespacing="108%"><tspan
         sodipodi:role="line"
         x="91.802437"
         y="93.644676"
         id="tspan2454">Epidermis</tspan></text>
    <text
       xml:space="preserve"
       style="font-size:12px;font-style:normal;font-variant:normal;font-weight:normal;font-stretch:normal;text-align:center;line-height:108%;writing-mode:lr;text-anchor:middle;fill:#000000;fill-opacity:1;stroke:none;display:inline;font-family:Calibri;-inkscape-font-specification:Calibri"
       x="90.146187"
       y="147.14465"
       id="text5682"
       sodipodi:linespacing="108%"><tspan
         sodipodi:role="line"
         x="90.146187"
         y="147.14465"
         id="tspan2452">Dermis</tspan></text>
    <path
       style="fill:none;stroke:#ff0000;stroke-width:1;stroke-linecap:butt;stroke-linejoin:miter;stroke-miterlimit:4;stroke-opacity:1;stroke-dasharray:none"
       d="m 137.53247,125.79133 c 15.11529,-5.86597 29.99519,-0.72284 44.48327,4.58016 14.59877,1.19509 28.85919,-9.18709 43.34652,-2.88562 13.51826,6.84114 24.87322,-6.60418 38.15154,-6.53776 16.18675,0.72136 32.69154,5.87799 48.59266,-0.0912 10.00995,-1.94974 16.01058,-4.06214 25.58364,-0.0656"
       id="path3780"
       sodipodi:nodetypes="cccccc"
       inkscape:connector-curvature="0" />
    <path
       style="fill:none;stroke:#0000ff;stroke-width:1;stroke-linecap:butt;stroke-linejoin:miter;stroke-miterlimit:4;stroke-opacity:1;stroke-dasharray:none"
       d="m 137.53247,130.79133 c 13.65005,1.03401 34.65235,0.47971 47.43416,-5.77718 10.90391,-5.86865 20.16722,6.45414 30.95269,6.35087 11.63685,0.97102 22.00584,-5.73862 32.99884,-8.38268 10.1629,-1.61366 19.69488,5.64262 29.96084,2.94955 9.77102,-3.73341 20.55616,-6.98302 30.82249,-3.14246 9.08006,4.14011 12.52188,4.0019 19.80034,4.0019 l 8.18827,-1"
       id="path3790"
       sodipodi:nodetypes="cccccccc"
       inkscape:connector-curvature="0" />
    <path
       sodipodi:nodetypes="cccccc"
       id="path3795"
       d="m 137.53247,125.79133 c 15.11529,-5.86597 29.99519,-0.72284 44.48327,4.58016 14.59877,1.19509 28.85919,-9.18709 43.34652,-2.88562 13.51826,6.84114 24.87322,-6.60418 38.15154,-6.53776 16.18675,0.72136 32.69154,5.87799 48.59266,-0.0912 10.00995,-1.94974 16.01058,-4.06214 25.58364,-0.0656"
       style="fill:none;stroke:#ff0000;stroke-width:1;stroke-linecap:butt;stroke-linejoin:miter;stroke-miterlimit:4;stroke-opacity:1;stroke-dasharray:none"
       inkscape:connector-curvature="0" />
    <path
       sodipodi:nodetypes="cccccccc"
       id="path3797"
       d="m 137.53247,212.79133 c 13.65005,1.03401 34.65235,0.47971 47.43416,-5.77718 10.90391,-5.86865 20.16722,6.45414 30.95269,6.35087 11.63685,0.97102 22.00584,-5.73862 32.99884,-8.38268 10.1629,-1.61366 19.69488,5.64262 29.96084,2.94955 9.77102,-3.73341 20.55616,-6.98302 30.82249,-3.14246 9.08006,4.14011 12.52188,4.0019 19.80034,4.0019 l 8.18827,-1"
       style="fill:none;stroke:#0000ff;stroke-width:2.40000010000000020;stroke-linecap:butt;stroke-linejoin:miter;stroke-miterlimit:4;stroke-opacity:1;stroke-dasharray:none"
       inkscape:connector-curvature="0" />
    <path
       style="fill:none;stroke:#ff0000;stroke-width:2.40000010000000020;stroke-linecap:butt;stroke-linejoin:miter;stroke-miterlimit:4;stroke-opacity:1;stroke-dasharray:none"
       d="m 137.53247,207.79133 c 15.11529,-5.86597 29.99519,-0.72284 44.48327,4.58016 14.59877,1.19509 28.85919,-9.18709 43.34652,-2.88562 13.51826,6.84114 24.87322,-6.60418 38.15154,-6.53776 16.18675,0.72136 32.69154,5.87799 48.59266,-0.0912 10.00995,-1.94974 16.01058,-4.06214 25.58364,-0.0656"
       id="path3799"
       sodipodi:nodetypes="cccccc"
       inkscape:connector-curvature="0" />
    <text
       sodipodi:linespacing="108%"
       id="text3813"
       y="196.64214"
       x="82.721565"
       style="font-size:12px;font-style:normal;font-variant:normal;font-weight:normal;font-stretch:normal;text-align:center;line-height:108%;writing-mode:lr;text-anchor:middle;fill:#000000;fill-opacity:1;stroke:none;display:inline;font-family:Calibri;-inkscape-font-specification:Calibri"
       xml:space="preserve"><tspan
         id="tspan3815"
         y="196.64214"
         x="82.721565"
         sodipodi:role="line">Subcutaneous</tspan><tspan
         y="206.64214"
         x="82.721565"
         sodipodi:role="line"
         id="tspan3817">tissue (fat)</tspan></text>
    <path
       transform="matrix(1,0,0,-0.37373774,364.40885,332.40961)"
       d="m -226.71875,154.71875 0,150 200,0 0,-150 -200,0 z"
       id="path3819"
       style="fill:url(#linearGradient3947);fill-opacity:1;fill-rule:evenodd;stroke:none;display:inline"
       inkscape:original="M -226.71875 154.71875 L -226.71875 304.71875 L -26.71875 304.71875 L -26.71875 154.71875 L -226.71875 154.71875 z "
       inkscape:radius="0"
       sodipodi:type="inkscape:offset" />
    <path
       sodipodi:nodetypes="ccccc"
       id="path3833"
       d="m 132.6901,222.25589 c -6.96296,0 -6.96296,0 -6.96296,22.21415 0,3.41757 -8.70371,3.41757 -8.70371,3.41757 0,0 8.70371,0 8.70371,3.41756 0,22.21417 0,22.21417 6.96296,22.21417"
       style="fill:none;stroke:#000000;stroke-width:0.99999987999999995px;stroke-linecap:round;stroke-linejoin:miter;stroke-opacity:1;display:inline"
       inkscape:connector-curvature="0" />
    <text
       xml:space="preserve"
       style="font-size:12px;font-style:normal;font-variant:normal;font-weight:normal;font-stretch:normal;text-align:center;line-height:108%;writing-mode:lr;text-anchor:middle;fill:#000000;fill-opacity:1;stroke:none;display:inline;font-family:Calibri;-inkscape-font-specification:Calibri"
       x="80.600243"
       y="250.38229"
       id="text3835"
       sodipodi:linespacing="108%"><tspan
         id="tspan3839"
         sodipodi:role="line"
         x="80.600243"
         y="250.38229">Muscle &amp; Bone</tspan></text>
    <path
       style="fill:none;stroke:#ff0000;stroke-width:1px;stroke-linecap:butt;stroke-linejoin:miter;stroke-opacity:1"
       d="m 153.04901,205.07361 c 3.50232,-5.51089 4.76803,-15.12929 3.70557,-21.49749 -0.90512,-8.20161 -3.52523,-16.42486 -2.09071,-24.71627 1.29837,-4.99209 4.60078,-9.24334 5.46874,-14.38348 1.98686,-7.88466 -1.63476,-13.10818 -3.18566,-20.96015"
       id="path3843"
       sodipodi:nodetypes="ccccc"
       inkscape:connector-curvature="0" />
    <path
       style="fill:none;stroke:#0000ff;stroke-width:1px;stroke-linecap:butt;stroke-linejoin:miter;stroke-opacity:1"
       d="m 146.68505,212.675 c -3.63247,-12.65064 5.22402,-26.48201 -2.83519,-38.4008 -3.52923,-12.47237 9.69465,-20.2199 4.7844,-35.56258 -0.79298,-2.72141 -1.2225,-4.70772 -1.5957,-7.53067"
       id="path3853"
       sodipodi:nodetypes="cccc"
       inkscape:connector-curvature="0" />
    <path
       sodipodi:nodetypes="cccc"
       id="path3861"
       d="m 294.08779,203.20332 c -3.63247,-12.65064 5.22402,-26.48201 -2.83519,-38.4008 -3.52923,-12.47237 9.69465,-20.2199 4.7844,-35.56258 -0.79298,-2.72141 -1.2225,-4.70772 -1.5957,-7.53067"
       style="fill:none;stroke:#0000ff;stroke-width:1px;stroke-linecap:butt;stroke-linejoin:miter;stroke-opacity:1"
       inkscape:connector-curvature="0" />
    <path
       sodipodi:nodetypes="ccccc"
       id="path3863"
       d="m 309.54901,203.82361 c 3.50232,-5.51089 4.76803,-15.12929 3.70557,-21.49749 -0.90512,-8.20161 -3.52523,-16.42486 -2.09071,-24.71627 1.29837,-4.99209 4.60078,-9.24334 5.46874,-14.38348 1.98686,-7.88466 -2.44726,-14.35818 -3.99816,-22.21015"
       style="fill:none;stroke:#ff0000;stroke-width:1px;stroke-linecap:butt;stroke-linejoin:miter;stroke-opacity:1"
       inkscape:connector-curvature="0" />
    <path
       sodipodi:nodetypes="cccccc"
       id="path3961"
       d="m 337.53247,125.79133 c 15.11529,-5.86597 29.99519,-0.72284 44.48327,4.58016 14.59877,1.19509 28.85919,-9.18709 43.34652,-2.88562 13.51826,6.84114 24.87322,-6.60418 38.15154,-6.53776 16.18675,0.72136 32.69154,5.87799 48.59266,-0.0912 10.00995,-1.94974 16.01058,-4.06214 25.58364,-0.0656"
       style="fill:none;stroke:#ff0000;stroke-width:1;stroke-linecap:butt;stroke-linejoin:miter;stroke-miterlimit:4;stroke-opacity:1;stroke-dasharray:none"
       inkscape:connector-curvature="0" />
    <path
       sodipodi:nodetypes="cccccccc"
       id="path3963"
       d="m 337.4401,120.67752 c 17.26752,9.13774 34.74472,10.59352 47.52653,4.33663 10.90391,-5.86865 20.16722,6.45414 30.95269,6.35087 11.63685,0.97102 22.00584,-5.73862 32.99884,-8.38268 10.1629,-1.61366 19.69488,5.64262 29.96084,2.94955 9.77102,-3.73341 20.55616,-6.98302 30.82249,-3.14246 9.08006,4.14011 12.52188,4.0019 19.80034,4.0019 l 8.18827,-1"
       style="fill:none;stroke:#ff0000;stroke-width:1;stroke-linecap:butt;stroke-linejoin:miter;stroke-miterlimit:4;stroke-opacity:1;stroke-dasharray:none"
       inkscape:connector-curvature="0" />
    <path
       style="fill:none;stroke:#0000ff;stroke-width:1;stroke-linecap:butt;stroke-linejoin:miter;stroke-miterlimit:4;stroke-opacity:1;stroke-dasharray:none"
       d="m 337.53247,125.79133 c 15.11529,-5.86597 29.99519,-0.72284 44.48327,4.58016 14.59877,1.19509 28.85919,-9.18709 43.34652,-2.88562 13.51826,6.84114 24.87322,-6.60418 38.15154,-6.53776 16.18675,0.72136 32.69154,5.87799 48.59266,-0.0912 10.00995,-1.94974 16.01058,-4.06214 25.58364,-0.0656"
       id="path3965"
       sodipodi:nodetypes="cccccc"
       inkscape:connector-curvature="0" />
    <path
       style="fill:none;stroke:#ff0000;stroke-width:2.40000010000000020;stroke-linecap:butt;stroke-linejoin:miter;stroke-miterlimit:4;stroke-opacity:1;stroke-dasharray:none"
       d="m 336.78247,202.41633 c 15.40005,4.65901 35.40235,10.85471 48.18416,4.59782 10.90391,-5.86865 20.16722,6.45414 30.95269,6.35087 11.63685,0.97102 22.00584,-5.73862 32.99884,-8.38268 10.1629,-1.61366 19.69488,5.64262 29.96084,2.94955 9.77102,-3.73341 20.55616,-6.98302 30.82249,-3.14246 9.08006,4.14011 12.52188,4.0019 19.80034,4.0019 l 8.18827,-1"
       id="path3967"
       sodipodi:nodetypes="cccccccc"
       inkscape:connector-curvature="0" />
    <path
       sodipodi:nodetypes="ccccc"
       id="path3973"
       d="m 411.36151,212.38611 c -1.24768,-7.38589 1.20553,-19.44179 0.14307,-25.80999 -0.90512,-8.20161 -2.55296,-10.94478 -1.11844,-19.23619 1.29837,-4.99209 3.62851,-10.34842 4.49647,-15.48856 1.98686,-7.88466 -1.63476,-13.10818 -3.18566,-20.96015"
       style="fill:none;stroke:#ff0000;stroke-width:1px;stroke-linecap:butt;stroke-linejoin:miter;stroke-opacity:1"
       inkscape:connector-curvature="0" />
    <path
       sodipodi:nodetypes="cccccc"
       id="path3969"
       d="m 337.53247,207.79133 c 15.11529,-5.86597 29.99519,-0.72284 44.48327,4.58016 14.59877,1.19509 28.85919,-9.18709 43.34652,-2.88562 13.51826,6.84114 24.87322,-6.60418 38.15154,-6.53776 16.18675,0.72136 32.69154,5.87799 48.59266,-0.0912 10.00995,-1.94974 16.01058,-4.06214 25.58364,-0.0656"
       style="fill:none;stroke:#0000ff;stroke-width:2.40000010000000020;stroke-linecap:butt;stroke-linejoin:miter;stroke-miterlimit:4;stroke-opacity:1;stroke-dasharray:none"
       inkscape:connector-curvature="0" />
    <path
       sodipodi:nodetypes="cccc"
       id="path3975"
       d="m 399.31005,210.175 c -0.25747,-13.77564 3.91152,-19.23201 -0.96019,-31.9008 -3.52923,-12.47237 9.69465,-20.2199 4.7844,-35.56258 -0.79298,-2.72141 -2.2225,-8.20772 -2.2207,-15.03067"
       style="fill:none;stroke:#0000ff;stroke-width:1px;stroke-linecap:butt;stroke-linejoin:miter;stroke-opacity:1"
       inkscape:connector-curvature="0" />
    <path
       style="fill:none;stroke:#ff0000;stroke-width:1px;stroke-linecap:butt;stroke-linejoin:miter;stroke-opacity:1"
       d="m 494.08779,203.20332 c -3.63247,-12.65064 5.22402,-26.48201 -2.83519,-38.4008 -3.52923,-12.47237 9.69465,-20.2199 4.7844,-35.56258 -0.79298,-2.72141 -1.2225,-4.70772 -1.5957,-7.53067"
       id="path3977"
       sodipodi:nodetypes="cccc"
       inkscape:connector-curvature="0" />
    <path
       style="fill:none;stroke:#0000ff;stroke-width:1px;stroke-linecap:butt;stroke-linejoin:miter;stroke-opacity:1"
       d="m 509.54901,203.82361 c 3.50232,-5.51089 4.76803,-15.12929 3.70557,-21.49749 -0.90512,-8.20161 -3.52523,-16.42486 -2.09071,-24.71627 1.29837,-4.99209 4.60078,-9.24334 5.46874,-14.38348 1.98686,-7.88466 -2.44726,-14.35818 -3.99816,-22.21015"
       id="path3979"
       sodipodi:nodetypes="ccccc"
       inkscape:connector-curvature="0" />
    <path
       d="m 167.69006,73.365027 89.8,0 0,-9.8 -89.8,0 0,9.8 z"
       style="fill:#c4c0c0;fill-opacity:1;fill-rule:evenodd;stroke:#000000;stroke-width:0.40000001000000002;stroke-miterlimit:4;stroke-opacity:1;stroke-dasharray:none"
       id="path4015"
       inkscape:connector-curvature="0" />
    <text
       id="text4089"
       x="215.46124"
       y="61.175282"
       style="font-size:12px;font-style:normal;font-variant:normal;font-weight:bold;font-stretch:normal;text-align:center;line-height:108.00000429%;writing-mode:lr-tb;text-anchor:middle;stroke-width:0.40000001;stroke-miterlimit:4;stroke-dasharray:none;font-family:Calibri;-inkscape-font-specification:Calibri Bold"
       transform="scale(0.99888265,1.0011186)"
       sodipodi:linespacing="108%">
      <tspan
         style="font-size:12px;font-style:normal;font-variant:normal;font-weight:bold;font-stretch:normal;text-align:center;line-height:108.00000429%;writing-mode:lr-tb;text-anchor:middle;fill:#ffffff;fill-opacity:1;fill-rule:nonzero;stroke:none;font-family:Calibri;-inkscape-font-specification:Calibri Bold"
         sodipodi:role="line"
         id="tspan4091"
         x="215.46124"
         y="61.175282">photodiode</tspan>
    </text>
    <path
       d="m 157.6901,63.365027 10,0 0,-10 -10,0 0,10 z"
       style="fill:#ffc000;fill-opacity:1;fill-rule:evenodd;stroke:#000000;stroke-width:0.40000001000000002;stroke-miterlimit:4;stroke-opacity:1;stroke-dasharray:none"
       id="path4113"
       inkscape:connector-curvature="0" />
    <path
       id="path4336"
       style="fill:#ffc000;fill-opacity:1;fill-rule:evenodd;stroke:#000000;stroke-width:0.40000001000000002;stroke-miterlimit:4;stroke-opacity:1;stroke-dasharray:none"
       d="m 257.6901,63.365027 10,0 0,-10 -10,0 0,10 z"
       inkscape:connector-curvature="0" />
    <path
       d="m 397.6901,63.365027 109.67324,0 0,-10 -109.67324,0 0,10 z"
       style="fill:#d9d9d9;fill-opacity:1;fill-rule:evenodd;stroke:#000000;stroke-width:0.40000001000000002;stroke-miterlimit:4;stroke-opacity:1;stroke-dasharray:none"
       id="path4023"
       inkscape:connector-curvature="0" />
    <path
       d="m 407.66039,63.365027 c 0,5.525757 20.09065,10 44.86634,10 24.77566,0 44.86631,-4.474243 44.86631,-10 0,0 0,0 0,0 l 0,0 -89.73265,0 z"
       style="fill:#d9d9d9;fill-opacity:1;fill-rule:evenodd;stroke:#000000;stroke-width:0.40000001000000002;stroke-miterlimit:4;stroke-opacity:1;stroke-dasharray:none"
       id="path4027"
       inkscape:connector-curvature="0" />
    <text
       id="text4093"
       x="453.31366"
       y="61.455528"
       style="font-size:11.99999996px;font-style:normal;font-variant:normal;font-weight:normal;font-stretch:normal;text-align:center;line-height:108%;writing-mode:lr;text-anchor:middle;font-family:Calibri;-inkscape-font-specification:Calibri"
       sodipodi:linespacing="108%"
       transform="scale(0.99851362,1.0014886)">
      <tspan
         style="font-size:11.99999996px;font-style:normal;font-variant:normal;font-weight:normal;font-stretch:normal;text-align:center;line-height:108%;writing-mode:lr;text-anchor:middle;fill:#000000;fill-opacity:1;fill-rule:nonzero;stroke:none;font-family:Calibri;-inkscape-font-specification:Calibri"
         sodipodi:role="line"
         id="tspan4095"
         x="453.31366"
         y="61.455528" />
    </text>
    <path
       id="path4369"
       style="fill:#c80000;fill-opacity:1;fill-rule:evenodd;stroke:#000000;stroke-width:0.40000001000000002;stroke-miterlimit:4;stroke-opacity:1;stroke-dasharray:none"
       d="m 432.26034,65.365027 18.27232,0 0,-2 -18.27232,0 0,2 z"
       inkscape:connector-curvature="0" />
    <path
       d="m 454.52078,65.365027 18.27232,0 0,-2 -18.27232,0 0,2 z"
       style="fill:#000000;fill-opacity:1;fill-rule:evenodd;stroke:#000000;stroke-width:0.40000001000000002;stroke-miterlimit:4;stroke-opacity:1;stroke-dasharray:none"
       id="path4371"
       inkscape:connector-curvature="0" />
    <text
       xml:space="preserve"
       style="font-size:12px;font-style:normal;font-variant:normal;font-weight:bold;font-stretch:normal;text-align:center;line-height:108.00000429%;writing-mode:lr-tb;text-anchor:middle;fill:#000000;fill-opacity:1;stroke:none;font-family:Calibri;-inkscape-font-specification:Calibri Bold"
       x="450.89169"
       y="61.283249"
       id="text4373"
       sodipodi:linespacing="108%"><tspan
         sodipodi:role="line"
         id="tspan4375"
         x="450.89169"
         y="61.283249">Dual-LED</tspan></text>
    <path
       sodipodi:nodetypes="ccccccccccc"
       id="path3210"
       d="m 248.86594,85.53165 -3.13465,3.03795 86.95881,89.79543 96.50072,-94.40662 13.98617,14.29641 -111.31298,108.77294 -100.94495,-104.09184 -3.58938,3.48086 0.32554,-21.2107 21.21069,0.32554 3e-5,3e-5 z"
       style="color:#000000;fill:url(#linearGradient3212);fill-opacity:1;fill-rule:nonzero;stroke:#000000;stroke-width:1;stroke-linecap:butt;stroke-linejoin:round;stroke-miterlimit:4;stroke-opacity:1;stroke-dasharray:none;stroke-dashoffset:0;marker:none;visibility:visible;display:inline;overflow:visible"
       inkscape:connector-curvature="0" />
    <text
       sodipodi:linespacing="108%"
       id="text3182"
       y="42.144676"
       x="213.30243"
       style="font-size:12px;font-style:normal;font-variant:normal;font-weight:normal;font-stretch:normal;text-align:center;line-height:108.00000429%;writing-mode:lr-tb;text-anchor:middle;fill:#000000;fill-opacity:1;stroke:none;font-family:Calibri;-inkscape-font-specification:Calibri"
       xml:space="preserve"><tspan
         sodipodi:role="line"
         id="tspan3187"
         x="213.30243"
         y="42.144676"><tspan
           style="font-size:16px"
           id="tspan3191">I</tspan><tspan
           style="font-size:12px;font-style:normal;font-variant:normal;font-weight:normal;font-stretch:normal;text-align:center;line-height:108.00000429%;writing-mode:lr-tb;text-anchor:middle;baseline-shift:sub;font-family:Calibri;-inkscape-font-specification:Calibri"
           id="tspan3190">PD</tspan><tspan
           style="font-size:16px"
           id="tspan3193">(λ,t)</tspan></tspan></text>
    <text
       xml:space="preserve"
       style="font-size:12px;font-style:normal;font-variant:normal;font-weight:normal;font-stretch:normal;text-align:center;line-height:108%;writing-mode:lr;text-anchor:middle;fill:#000000;fill-opacity:1;stroke:none;font-family:Calibri;-inkscape-font-specification:Calibri"
       x="455.30243"
       y="42.144676"
       id="text3190"
       sodipodi:linespacing="108%"><tspan
         sodipodi:role="line"
         id="tspan3189"
         x="455.30243"
         y="42.144676"><tspan
           style="font-size:16px"
           id="tspan3195">I</tspan><tspan
           style="font-size:12px;baseline-shift:sub;-inkscape-font-specification:Calibri;font-family:Calibri;font-weight:normal;font-style:normal;font-stretch:normal;font-variant:normal;text-anchor:middle;text-align:center;writing-mode:lr;line-height:108%"
           id="tspan3188">LED</tspan><tspan
           style="font-size:16px"
           id="tspan3197">(λ,t)</tspan></tspan></text>
  </g>
</svg>
